<?xml version="1.0" encoding="UTF-8"?>
<svg xmlns="http://www.w3.org/2000/svg" xmlns:xlink="http://www.w3.org/1999/xlink" contentScriptType="text/ecmascript" width="20cm" zoomAndPan="magnify" contentStyleType="text/css" height="15.037593984962406cm" viewBox="0 0 1.33 1.0" preserveAspectRatio="xMidYMid meet" version="1.0">
<defs>
<symbol id="s0_0.3" preserveAspectRatio="xMidYMid meet">
<line y2="0.8727272727" style="stroke:#ed420e;stroke-width:0.1" x1="0.6" x2="0.6" y1="0.3272727273"/>
<line y2="0.6" style="stroke:#ed420e;stroke-width:0.1" x1="0.3272727273" x2="0.8727272727" y1="0.6"/>
</symbol>
</defs>
<style type="text/css" xml:space="preserve">
.key-entry{font-size:0.7000000000000001;
font-family:'Times New Roman', serif;
fill:black;
}

.key-caption{font-size:0.7000000000000001;
font-family:'Times New Roman', serif;
fill:black;
font-weight:bold;
}

.key-hierarchy{stroke:black;
stroke-width:0.1;
}
</style>
<g transform="scale(0.1303921569) translate(0.1 3.3345864662)">
<text x="0.1" class="key-caption" y="0.7">By Label Clustering</text>
<use x="-0.3" y="0.9" xmlns:xlink="http://www.w3.org/1999/xlink" xlink:href="#s0_0.3" xlink:type="simple" xlink:actuate="onLoad" xlink:show="embed"/>
<text x="0.7" class="key-entry" y="1.7">Noise</text>
</g>
</svg>
