                           |seq01          |seq02          |seq03          |seq04          |seq05          |seq06          |seq07          |seq08          |seq09          |seq10          |seq11          |seq12          |seq13          |seq14          |seq15          |seq16          |seq17          |seq18          |seq19          |seq20          |seq21          |seq22          |seq23          |seq24          |seq25          
seq01                     |  0,00000000000| 10,77995149894|  9,33025155786| 10,80070016548| 10,89165814479|  9,81735307505|  9,88850116432| 10,91714467543| 10,88259690751| 10,97032398380| 11,05984890943| 10,89812144276| 10,85922850079| 11,12197369999| 11,06706349445| 10,94603923532| 11,02174353784| 10,84033199085| 10,82366247188| 10,95467870188| 11,00909057284| 10,99037589932| 10,99799609239| 10,86085449215| 10,84587731936
seq02                     | 10,77995149894|  0,00000000000| 11,10798374131|  8,89053130520|  8,95207362735| 11,08771609967| 11,13933644444|  9,55234405156|  9,51213578954|  9,50998624030|  9,53442608486|  9,27460127687|  9,35711956454|  9,87349008395|  9,80853076779|  9,81093857099|  9,89441302612|  7,55036074328|  7,65073085036|  9,80371128097|  9,78841526734|  9,72874396644|  9,79204273727|  7,86157447468|  8,00769970114
seq03                     |  9,33025155786| 11,10798374131|  0,00000000000| 11,03878062129| 11,11233979477|  8,40946879333|  8,45865575662| 11,15819066007| 11,10268983516| 11,11886773786| 11,28578504808| 11,11607094848| 11,06957079269| 11,29212335606| 11,25308105038| 11,12538833851| 11,19970218661| 11,15479522339| 11,08646653279| 11,19173019811| 11,17852194319| 11,17206056252| 11,13623975683| 11,13902684986| 11,08927767756
seq04                     | 10,80070016548|  8,89053130520| 11,03878062129|  0,00000000000|  9,75644681652| 10,98051796304| 11,09115101313|  8,05884298909|  8,03305981019| 10,06493018243| 10,05809046676|  7,56325323497|  7,55036074328| 10,27082117092| 10,22144648491|  8,69491425652|  8,71089409216|  9,24716852735|  9,29731730943|  8,70983111448|  8,72838533986| 10,18158558481| 10,22952660781|  9,36692645563|  9,41384844071
seq05                     | 10,89165814479|  8,95207362735| 11,11233979477|  9,75644681652|  0,00000000000| 11,10019690706| 11,15942487468| 10,15706438870| 10,10726877454|  7,96852375994|  7,93565832901| 10,01031722163| 10,02144387647|  8,57865124520|  8,59519865778| 10,33589786160| 10,35847607005|  9,34997228467|  9,37981751211| 10,32331037314| 10,37026245353|  8,47411925151|  8,57588516282|  9,42834679887|  9,50439224250
seq06                     |  9,81735307505| 11,08771609967|  8,40946879333| 10,98051796304| 11,10019690706|  0,00000000000|  9,36959693890| 11,02869071130| 11,01383873068| 11,07771196935| 11,20643928034| 11,08834078157| 11,02774386751| 11,19050277721| 11,14707096169| 11,00465537969| 11,07771196935| 11,12911110894| 11,09707923374| 11,03972563754| 11,10953985103| 11,09333580282| 11,08584164778| 11,07426903147| 11,04539245854
seq07                     |  9,88850116432| 11,13933644444|  8,45865575662| 11,09115101313| 11,15942487468|  9,36959693890|  0,00000000000| 11,19357084838| 11,16867318017| 11,19111651974| 11,27278554486| 11,14119366607| 11,09707923374| 11,26672957940| 11,25399192923| 11,13716893625| 11,22843422622| 11,20613321614| 11,11296182065| 11,25520621685| 11,26551764590| 11,24426866583| 11,16435912600| 11,15479522339| 11,15201566805
seq08                     | 10,91714467543|  9,55234405156| 11,15819066007|  8,05884298909| 10,15706438870| 11,02869071130| 11,19357084838|  0,00000000000|  8,90262261530| 10,36133590632| 10,40793698506|  8,67993114250|  8,72679893907| 10,55454760847| 10,46848248800|  7,50050841591|  7,51943799814|  9,78962475121|  9,79727722569|  7,58643382603|  7,56164573143| 10,46393127774| 10,48315897183|  9,86715479869|  9,93987587609
seq09                     | 10,88259690751|  9,51213578954| 11,10268983516|  8,03305981019| 10,10726877454| 11,01383873068| 11,16867318017|  8,90262261530|  0,00000000000| 10,34235913885| 10,33733442030|  8,66218619992|  8,65840998966| 10,51862931116| 10,49117843762|  9,29686426088|  9,33698541399|  9,77063839514|  9,79969107974|  9,35667323044|  9,27733408842| 10,40262265162| 10,45165795050|  9,79687479010|  9,90071059935
seq10                     | 10,97032398380|  9,50998624030| 11,11886773786| 10,06493018243|  7,96852375994| 11,07771196935| 11,19111651974| 10,36133590632| 10,34235913885|  0,00000000000|  8,90714634439| 10,28063711667| 10,27918412886|  9,30546337313|  9,29414488460| 10,51342828293| 10,51966889233|  9,81053736015|  9,77104320371| 10,45832425255| 10,57069928146|  7,30128236731|  7,30310110222|  9,84331842586|  9,88376615907
seq11                     | 11,05984890943|  9,53442608486| 11,28578504808| 10,05809046676|  7,93565832901| 11,20643928034| 11,27278554486| 10,40793698506| 10,33733442030|  8,90714634439|  0,00000000000| 10,27882081537| 10,28281580051|  7,53820593036|  7,52434939681| 10,53178201286| 10,56245783801|  9,80170163129|  9,81494870912| 10,54248730717| 10,61579790026|  9,27368991975|  9,26410795081|  9,86279416326|  9,91249526524
seq12                     | 10,89812144276|  9,27460127687| 11,11607094848|  7,56325323497| 10,01031722163| 11,08834078157| 11,14119366607|  8,67993114250|  8,66218619992| 10,28063711667| 10,27882081537|  0,00000000000|  8,38016580593| 10,45692153968| 10,40793698506|  9,15524794234|  9,19637075639|  9,53357094708|  9,61656528252|  9,18006758469|  9,17399454856| 10,36633671874| 10,40970719608|  9,62494409550|  9,70004324348
seq13                     | 10,85922850079|  9,35711956454| 11,06957079269|  7,55036074328| 10,02144387647| 11,02774386751| 11,09707923374|  8,72679893907|  8,65840998966| 10,27918412886| 10,28281580051|  8,38016580593|  0,00000000000| 10,46988205095| 10,41960901850|  9,17212399506|  9,17539686786|  9,61991876767|  9,66161870544|  9,16088153555|  9,23890124118| 10,38024148582| 10,41925571317|  9,69222052673|  9,77266206983
seq14                     | 11,12197369999|  9,87349008395| 11,29212335606| 10,27082117092|  8,57865124520| 11,19050277721| 11,26672957940| 10,55454760847| 10,51862931116|  9,30546337313|  7,53820593036| 10,45692153968| 10,46988205095|  0,00000000000|  8,33208972605| 10,67668397119| 10,68407819244| 10,07971583741| 10,07858011094| 10,64734261675| 10,71288557062|  9,59975842701|  9,57696387860| 10,14251596555| 10,16153202861
seq15                     | 11,06706349445|  9,80853076779| 11,25308105038| 10,22144648491|  8,59519865778| 11,14707096169| 11,25399192923| 10,46848248800| 10,49117843762|  9,29414488460|  7,52434939681| 10,40793698506| 10,41960901850|  8,33208972605|  0,00000000000| 10,56829686438| 10,60933013039| 10,03483761706| 10,00839616308| 10,62361674971| 10,65139930348|  9,56212418895|  9,52586688006| 10,02910210877| 10,12942220647
seq16                     | 10,94603923532|  9,81093857099| 11,12538833851|  8,69491425652| 10,33589786160| 11,00465537969| 11,13716893625|  7,50050841591|  9,29686426088| 10,51342828293| 10,53178201286|  9,15524794234|  9,17212399506| 10,67668397119| 10,56829686438|  0,00000000000|  8,28748726189| 10,05238314978| 10,02067736679|  8,31709561005|  8,32610105910| 10,61647825856| 10,64091320227| 10,06644878031| 10,10162017642
seq17                     | 11,02174353784|  9,89441302612| 11,19970218661|  8,71089409216| 10,35847607005| 11,07771196935| 11,22843422622|  7,51943799814|  9,33698541399| 10,51966889233| 10,56245783801|  9,19637075639|  9,17539686786| 10,68407819244| 10,60933013039|  8,28748726189|  0,00000000000| 10,08236481221| 10,08539040831|  8,34760479357|  8,34224321152| 10,61375630057| 10,63989732104| 10,13990006032| 10,21519361571
seq18                     | 10,84033199085|  7,55036074328| 11,15479522339|  9,24716852735|  9,34997228467| 11,12911110894| 11,20613321614|  9,78962475121|  9,77063839514|  9,81053736015|  9,80170163129|  9,53357094708|  9,61991876767| 10,07971583741| 10,03483761706| 10,05238314978| 10,08236481221|  0,00000000000|  8,45060756250| 10,00339772183|  9,98914209133| 10,02412567643| 10,05732988857|  8,59959719363|  8,63620579490
seq19                     | 10,82366247188|  7,65073085036| 11,08646653279|  9,29731730943|  9,37981751211| 11,09707923374| 11,11296182065|  9,79727722569|  9,79969107974|  9,77104320371|  9,81494870912|  9,61656528252|  9,66161870544| 10,07858011094| 10,00839616308| 10,02067736679| 10,08539040831|  8,45060756250|  0,00000000000|  9,99029957486|  9,97251983909|  9,93285067564| 10,00031910378|  8,59629884562|  8,65894970987
seq20                     | 10,95467870188|  9,80371128097| 11,19173019811|  8,70983111448| 10,32331037314| 11,03972563754| 11,25520621685|  7,58643382603|  9,35667323044| 10,45832425255| 10,54248730717|  9,18006758469|  9,16088153555| 10,64734261675| 10,62361674971|  8,31709561005|  8,34760479357| 10,00339772183|  9,99029957486|  0,00000000000|  8,35651971506| 10,54179730552| 10,56623677384| 10,10802141729| 10,12417470719
seq21                     | 11,00909057284|  9,78841526734| 11,17852194319|  8,72838533986| 10,37026245353| 11,10953985103| 11,26551764590|  7,56164573143|  9,27733408842| 10,57069928146| 10,61579790026|  9,17399454856|  9,23890124118| 10,71288557062| 10,65139930348|  8,32610105910|  8,34224321152|  9,98914209133|  9,97251983909|  8,35651971506|  0,00000000000| 10,62191798099| 10,69984088024|  9,99261368144| 10,11065473546
seq22                     | 10,99037589932|  9,72874396644| 11,17206056252| 10,18158558481|  8,47411925151| 11,09333580282| 11,24426866583| 10,46393127774| 10,40262265162|  7,30128236731|  9,27368991975| 10,36633671874| 10,38024148582|  9,59975842701|  9,56212418895| 10,61647825856| 10,61375630057| 10,02412567643|  9,93285067564| 10,54179730552| 10,62191798099|  0,00000000000|  8,02307768042| 10,00108894818| 10,06113155897
seq23                     | 10,99799609239|  9,79204273727| 11,13623975683| 10,22952660781|  8,57588516282| 11,08584164778| 11,16435912600| 10,48315897183| 10,45165795050|  7,30310110222|  9,26410795081| 10,40970719608| 10,41925571317|  9,57696387860|  9,52586688006| 10,64091320227| 10,63989732104| 10,05732988857| 10,00031910378| 10,56623677384| 10,69984088024|  8,02307768042|  0,00000000000| 10,05390577400| 10,11967228288
seq24                     | 10,86085449215|  7,86157447468| 11,13902684986|  9,36692645563|  9,42834679887| 11,07426903147| 11,15479522339|  9,86715479869|  9,79687479010|  9,84331842586|  9,86279416326|  9,62494409550|  9,69222052673| 10,14251596555| 10,02910210877| 10,06644878031| 10,13990006032|  8,59959719363|  8,59629884562| 10,10802141729|  9,99261368144| 10,00108894818| 10,05390577400|  0,00000000000|  8,80471706878
seq25                     | 10,84587731936|  8,00769970114| 11,08927767756|  9,41384844071|  9,50439224250| 11,04539245854| 11,15201566805|  9,93987587609|  9,90071059935|  9,88376615907|  9,91249526524|  9,70004324348|  9,77266206983| 10,16153202861| 10,12942220647| 10,10162017642| 10,21519361571|  8,63620579490|  8,65894970987| 10,12417470719| 10,11065473546| 10,06113155897| 10,11967228288|  8,80471706878|  0,00000000000
