<?xml version="1.0" encoding="UTF-8"?>
<svg xmlns="http://www.w3.org/2000/svg" xmlns:xlink="http://www.w3.org/1999/xlink" contentScriptType="text/ecmascript" width="20cm" zoomAndPan="magnify" contentStyleType="text/css" height="15.037593984962406cm" viewBox="0 0 1.33 1.0" preserveAspectRatio="xMidYMid meet" version="1.0">
<defs/>
<style type="text/css" xml:space="preserve">
.axis-label{fill:black;
font-family:'Times New Roman', serif;
font-size:2.0;
}

.key-caption{font-size:0.7000000000000001;
font-family:'Times New Roman', serif;
fill:black;
font-weight:bold;
}

.key-hierarchy{stroke:black;
stroke-width:0.3069276764301348;
stroke-linecap:round;
fill:none;
}

.axis{stroke:black;
stroke-width:0.2;
}

.key-hierarchy_0{stroke:#ed420e;
stroke-width:0.3069276764301348;
stroke-linecap:round;
fill:none;
}

.key-hierarchy_1{stroke:#fdca19;
stroke-width:0.3069276764301348;
stroke-linecap:round;
fill:none;
}

.axis-tick{stroke:grey;
stroke-width:0.2;
}
</style>
<g transform="scale(0.0105055292) translate(13.3 10)">
<line y2="0" x1="0" x2="0" class="axis" y1="75.1879699248"/>
<line y2="75.1879699248" x1="0.7518796992" x2="-0.7518796992" class="axis-tick" y1="75.1879699248"/>
<text x="-1.8796992481" y="75.8879699248" class="axis-label" text-anchor="end">0</text>
<line y2="66.8337510443" x1="0.7518796992" x2="-0.7518796992" class="axis-tick" y1="66.8337510443"/>
<text x="-1.8796992481" y="67.5337510443" class="axis-label" text-anchor="end">1,000</text>
<line y2="58.4795321637" x1="0.7518796992" x2="-0.7518796992" class="axis-tick" y1="58.4795321637"/>
<text x="-1.8796992481" y="59.1795321637" class="axis-label" text-anchor="end">2,000</text>
<line y2="50.1253132832" x1="0.7518796992" x2="-0.7518796992" class="axis-tick" y1="50.1253132832"/>
<text x="-1.8796992481" y="50.8253132832" class="axis-label" text-anchor="end">3,000</text>
<line y2="41.7710944027" x1="0.7518796992" x2="-0.7518796992" class="axis-tick" y1="41.7710944027"/>
<text x="-1.8796992481" y="42.4710944027" class="axis-label" text-anchor="end">4,000</text>
<line y2="33.4168755221" x1="0.7518796992" x2="-0.7518796992" class="axis-tick" y1="33.4168755221"/>
<text x="-1.8796992481" y="34.1168755221" class="axis-label" text-anchor="end">5,000</text>
<line y2="25.0626566416" x1="0.7518796992" x2="-0.7518796992" class="axis-tick" y1="25.0626566416"/>
<text x="-1.8796992481" y="25.7626566416" class="axis-label" text-anchor="end">6,000</text>
<line y2="16.7084377611" x1="0.7518796992" x2="-0.7518796992" class="axis-tick" y1="16.7084377611"/>
<text x="-1.8796992481" y="17.4084377611" class="axis-label" text-anchor="end">7,000</text>
<line y2="8.3542188805" x1="0.7518796992" x2="-0.7518796992" class="axis-tick" y1="8.3542188805"/>
<text x="-1.8796992481" y="9.0542188805" class="axis-label" text-anchor="end">8,000</text>
<line y2="0" x1="0.7518796992" x2="-0.7518796992" class="axis-tick" y1="0"/>
<text x="-1.8796992481" y="0.7" class="axis-label" text-anchor="end">9,000</text>
<path class="key-hierarchy_0" d="M34 75.1879699248 V53.613303873 H38 V75.1879699248 M36 53.613303873 V51.8083052302 H42 V75.1879699248 M66 75.1879699248 V50.5760922827 H70 V75.1879699248 M68 50.5760922827 V50.4411160589 H74 V75.1879699248 M50 75.1879699248 V50.3276350616 H54 V75.1879699248 M52 50.3276350616 V49.9099732265 H58 V75.1879699248 M82 75.1879699248 V49.8958113959 H86 V75.1879699248 M22 75.1879699248 V49.8471182066 H26 V75.1879699248 M18 75.1879699248 V49.4526311899 H24 V49.8471182066 M84 49.8958113959 V49.3936883356 H90 V75.1879699248 M71 50.4411160589 V49.3254127355 H78 V75.1879699248 M62 75.1879699248 V48.0625582151 H74.5 V49.3254127355 M30 75.1879699248 V47.2684706646 H39 V51.8083052302 M21 49.4526311899 V45.9502700743 H34.5 V47.2684706646 M87 49.3936883356 V45.2449913579 H94 V75.1879699248 M90.5 45.2449913579 V44.6983531909 H98 V75.1879699248 M46 75.1879699248 V43.4817904884 H55 V49.9099732265 M50.5 43.4817904884 V43.0440192548 H68.25 V48.0625582151 M10 75.1879699248 V40.7097089182 H14 V75.1879699248 M6 75.1879699248 V39.8431742793 H12 V40.7097089182 M59.375 43.0440192548 V34.1661340542 H94.25 V44.6983531909 M27.75 45.9502700743 V32.6698810183 H76.8125 V34.1661340542 M2 75.1879699248 V26.0564818023 H9 V39.8431742793 M5.5 26.0564818023 V2.2052386643 H52.28125 V32.6698810183 M28.890625 2.2052386643 "/>
</g>
</svg>
