                           |aspNig         |debHan         |canMal         |canAlb         |canDub         |canSoj         |canTro         |canPar         |sacPas         |sacCer         
aspNig                    |  0,00000000000|886034351800,00000000000|886034351800,00000000000|886034351800,00000000000|886034351800,00000000000|886034351800,00000000000|886034351800,00000000000|886034351800,00000000000|886034351800,00000000000|886034351800,00000000000
debHan                    |886034351800,00000000000|  0,00000000000|567396095576,00000000000|567396095576,00000000000|567396095576,00000000000|567396095576,00000000000|567396095576,00000000000|567396095576,00000000000|646340122556,00000000000|646340122556,00000000000
canMal                    |886034351800,00000000000|567396095576,00000000000|  0,00000000000|429355855976,00000000000|429355855976,00000000000|419426318384,00000000000|419426318384,00000000000|532945256176,00000000000|646340122556,00000000000|646340122556,00000000000
canAlb                    |886034351800,00000000000|567396095576,00000000000|429355855976,00000000000|  0,00000000000|205227535398,00000000000|429355855976,00000000000|429355855976,00000000000|532945256176,00000000000|646340122556,00000000000|646340122556,00000000000
canDub                    |886034351800,00000000000|567396095576,00000000000|429355855976,00000000000|205227535398,00000000000|  0,00000000000|429355855976,00000000000|429355855976,00000000000|532945256176,00000000000|646340122556,00000000000|646340122556,00000000000
canSoj                    |886034351800,00000000000|567396095576,00000000000|419426318384,00000000000|429355855976,00000000000|429355855976,00000000000|  0,00000000000|291465206258,00000000000|532945256176,00000000000|646340122556,00000000000|646340122556,00000000000
canTro                    |886034351800,00000000000|567396095576,00000000000|419426318384,00000000000|429355855976,00000000000|429355855976,00000000000|291465206258,00000000000|  0,00000000000|532945256176,00000000000|646340122556,00000000000|646340122556,00000000000
canPar                    |886034351800,00000000000|567396095576,00000000000|532945256176,00000000000|532945256176,00000000000|532945256176,00000000000|532945256176,00000000000|532945256176,00000000000|  0,00000000000|646340122556,00000000000|646340122556,00000000000
sacPas                    |886034351800,00000000000|646340122556,00000000000|646340122556,00000000000|646340122556,00000000000|646340122556,00000000000|646340122556,00000000000|646340122556,00000000000|646340122556,00000000000|  0,00000000000|19987297000,00000000000
sacCer                    |886034351800,00000000000|646340122556,00000000000|646340122556,00000000000|646340122556,00000000000|646340122556,00000000000|646340122556,00000000000|646340122556,00000000000|646340122556,00000000000|19987297000,00000000000|  0,00000000000
                           |aspNig         |debHan         |canMal         |canAlb         |canDub         |canSoj         |canTro         |canPar         |sacPas         |sacCer         
aspNig                    |  0,00000000000| 11,50351844646| 11,50351844646| 11,50351844646| 11,50351844646| 11,50351844646| 11,50351844646| 11,50351844646| 11,50351844646| 11,50351844646
debHan                    | 11,50351844646|  0,00000000000|  9,82551186695|  9,82551186695|  9,82551186695|  9,82551186695|  9,82551186695|  9,82551186695| 10,24124536441| 10,24124536441
canMal                    | 11,50351844646|  9,82551186695|  0,00000000000|  9,09856704547|  9,09856704547|  9,04627630798|  9,04627630798|  9,64408752743| 10,24124536441| 10,24124536441
canAlb                    | 11,50351844646|  9,82551186695|  9,09856704547|  0,00000000000|  7,91826684850|  9,09856704547|  9,09856704547|  9,64408752743| 10,24124536441| 10,24124536441
canDub                    | 11,50351844646|  9,82551186695|  9,09856704547|  7,91826684850|  0,00000000000|  9,09856704547|  9,09856704547|  9,64408752743| 10,24124536441| 10,24124536441
canSoj                    | 11,50351844646|  9,82551186695|  9,04627630798|  9,09856704547|  9,09856704547|  0,00000000000|  8,37240999132|  9,64408752743| 10,24124536441| 10,24124536441
canTro                    | 11,50351844646|  9,82551186695|  9,04627630798|  9,09856704547|  9,09856704547|  8,37240999132|  0,00000000000|  9,64408752743| 10,24124536441| 10,24124536441
canPar                    | 11,50351844646|  9,82551186695|  9,64408752743|  9,64408752743|  9,64408752743|  9,64408752743|  9,64408752743|  0,00000000000| 10,24124536441| 10,24124536441
sacPas                    | 11,50351844646| 10,24124536441| 10,24124536441| 10,24124536441| 10,24124536441| 10,24124536441| 10,24124536441| 10,24124536441|  0,00000000000|  6,94275831256
sacCer                    | 11,50351844646| 10,24124536441| 10,24124536441| 10,24124536441| 10,24124536441| 10,24124536441| 10,24124536441| 10,24124536441|  6,94275831256|  0,00000000000
                           |aspNig         |debHan         |canMal         |canAlb         |canDub         |canSoj         |canTro         |canPar         |sacPas         |sacCer         
aspNig                    |  0,00000000000|  4,00000000000|  7,00000000000|  7,00000000000|  7,00000000000|  8,00000000000|  8,00000000000|  5,00000000000|  4,00000000000|  4,00000000000
debHan                    |  4,00000000000|  0,00000000000|  5,00000000000|  5,00000000000|  5,00000000000|  6,00000000000|  6,00000000000|  3,00000000000|  4,00000000000|  4,00000000000
canMal                    |  7,00000000000|  5,00000000000|  0,00000000000|  4,00000000000|  4,00000000000|  3,00000000000|  3,00000000000|  4,00000000000|  7,00000000000|  7,00000000000
canAlb                    |  7,00000000000|  5,00000000000|  4,00000000000|  0,00000000000|  2,00000000000|  5,00000000000|  5,00000000000|  4,00000000000|  7,00000000000|  7,00000000000
canDub                    |  7,00000000000|  5,00000000000|  4,00000000000|  2,00000000000|  0,00000000000|  5,00000000000|  5,00000000000|  4,00000000000|  7,00000000000|  7,00000000000
canSoj                    |  8,00000000000|  6,00000000000|  3,00000000000|  5,00000000000|  5,00000000000|  0,00000000000|  2,00000000000|  5,00000000000|  8,00000000000|  8,00000000000
canTro                    |  8,00000000000|  6,00000000000|  3,00000000000|  5,00000000000|  5,00000000000|  2,00000000000|  0,00000000000|  5,00000000000|  8,00000000000|  8,00000000000
canPar                    |  5,00000000000|  3,00000000000|  4,00000000000|  4,00000000000|  4,00000000000|  5,00000000000|  5,00000000000|  0,00000000000|  5,00000000000|  5,00000000000
sacPas                    |  4,00000000000|  4,00000000000|  7,00000000000|  7,00000000000|  7,00000000000|  8,00000000000|  8,00000000000|  5,00000000000|  0,00000000000|  2,00000000000
sacCer                    |  4,00000000000|  4,00000000000|  7,00000000000|  7,00000000000|  7,00000000000|  8,00000000000|  8,00000000000|  5,00000000000|  2,00000000000|  0,00000000000
