                           |canTro         |canSoj         |canVis         |canFri         |canNer         |canDub         |canAlb         |canMal         |debHan         |picFar         
canTro                    |  0,00000000000|414609479256,00000000000|414609479256,00000000000|414609479256,00000000000|414609479256,00000000000|414609479256,00000000000|414609479256,00000000000|414609479256,00000000000|414609479256,00000000000|414609479256,00000000000
canSoj                    |414609479256,00000000000|  0,00000000000|270610667168,00000000000|270610667168,00000000000|270610667168,00000000000|301013188620,00000000000|301013188620,00000000000|404604963490,00000000000|400842462676,00000000000|400842462676,00000000000
canVis                    |414609479256,00000000000|270610667168,00000000000|  0,00000000000|265832492090,00000000000|265832492090,00000000000|301013188620,00000000000|301013188620,00000000000|404604963490,00000000000|400842462676,00000000000|400842462676,00000000000
canFri                    |414609479256,00000000000|270610667168,00000000000|265832492090,00000000000|  0,00000000000|193813198292,00000000000|301013188620,00000000000|301013188620,00000000000|404604963490,00000000000|400842462676,00000000000|400842462676,00000000000
canNer                    |414609479256,00000000000|270610667168,00000000000|265832492090,00000000000|193813198292,00000000000|  0,00000000000|301013188620,00000000000|301013188620,00000000000|404604963490,00000000000|400842462676,00000000000|400842462676,00000000000
canDub                    |414609479256,00000000000|301013188620,00000000000|301013188620,00000000000|301013188620,00000000000|301013188620,00000000000|  0,00000000000|156528702274,00000000000|404604963490,00000000000|400842462676,00000000000|400842462676,00000000000
canAlb                    |414609479256,00000000000|301013188620,00000000000|301013188620,00000000000|301013188620,00000000000|301013188620,00000000000|156528702274,00000000000|  0,00000000000|404604963490,00000000000|400842462676,00000000000|400842462676,00000000000
canMal                    |414609479256,00000000000|404604963490,00000000000|404604963490,00000000000|404604963490,00000000000|404604963490,00000000000|404604963490,00000000000|404604963490,00000000000|  0,00000000000|404604963490,00000000000|404604963490,00000000000
debHan                    |414609479256,00000000000|400842462676,00000000000|400842462676,00000000000|400842462676,00000000000|400842462676,00000000000|400842462676,00000000000|400842462676,00000000000|404604963490,00000000000|  0,00000000000|318568777090,00000000000
picFar                    |414609479256,00000000000|400842462676,00000000000|400842462676,00000000000|400842462676,00000000000|400842462676,00000000000|400842462676,00000000000|400842462676,00000000000|404604963490,00000000000|318568777090,00000000000|  0,00000000000
                           |canTro         |canSoj         |canVis         |canFri         |canNer         |canDub         |canAlb         |canMal         |debHan         |picFar         
canTro                    |  0,00000000000| 10,81331297079| 10,81331297079| 10,81331297079| 10,81331297079| 10,81331297079| 10,81331297079| 10,81331297079| 10,81331297079| 10,81331297079
canSoj                    | 10,81331297079|  0,00000000000|  8,66961967172|  8,66961967172|  8,66961967172|  9,12221841588|  9,12221841588| 10,66437692683| 10,60836502183| 10,60836502183
canVis                    | 10,81331297079|  8,66961967172|  0,00000000000|  8,59848754398|  8,59848754398|  9,12221841588|  9,12221841588| 10,66437692683| 10,60836502183| 10,60836502183
canFri                    | 10,81331297079|  8,66961967172|  8,59848754398|  0,00000000000|  7,52634482780|  9,12221841588|  9,12221841588| 10,66437692683| 10,60836502183| 10,60836502183
canNer                    | 10,81331297079|  8,66961967172|  8,59848754398|  7,52634482780|  0,00000000000|  9,12221841588|  9,12221841588| 10,66437692683| 10,60836502183| 10,60836502183
canDub                    | 10,81331297079|  9,12221841588|  9,12221841588|  9,12221841588|  9,12221841588|  0,00000000000|  6,97129494153| 10,66437692683| 10,60836502183| 10,60836502183
canAlb                    | 10,81331297079|  9,12221841588|  9,12221841588|  9,12221841588|  9,12221841588|  6,97129494153|  0,00000000000| 10,66437692683| 10,60836502183| 10,60836502183
canMal                    | 10,81331297079| 10,66437692683| 10,66437692683| 10,66437692683| 10,66437692683| 10,66437692683| 10,66437692683|  0,00000000000| 10,66437692683| 10,66437692683
debHan                    | 10,81331297079| 10,60836502183| 10,60836502183| 10,60836502183| 10,60836502183| 10,60836502183| 10,60836502183| 10,66437692683|  0,00000000000|  9,38356638687
picFar                    | 10,81331297079| 10,60836502183| 10,60836502183| 10,60836502183| 10,60836502183| 10,60836502183| 10,60836502183| 10,66437692683|  9,38356638687|  0,00000000000
                           |canTro         |canSoj         |canVis         |canFri         |canNer         |canDub         |canAlb         |canMal         |debHan         |picFar         
canTro                    |  0,00000000000|  6,00000000000|  7,00000000000|  8,00000000000|  8,00000000000|  6,00000000000|  6,00000000000|  3,00000000000|  5,00000000000|  5,00000000000
canSoj                    |  6,00000000000|  0,00000000000|  3,00000000000|  4,00000000000|  4,00000000000|  4,00000000000|  4,00000000000|  5,00000000000|  5,00000000000|  5,00000000000
canVis                    |  7,00000000000|  3,00000000000|  0,00000000000|  3,00000000000|  3,00000000000|  5,00000000000|  5,00000000000|  6,00000000000|  6,00000000000|  6,00000000000
canFri                    |  8,00000000000|  4,00000000000|  3,00000000000|  0,00000000000|  2,00000000000|  6,00000000000|  6,00000000000|  7,00000000000|  7,00000000000|  7,00000000000
canNer                    |  8,00000000000|  4,00000000000|  3,00000000000|  2,00000000000|  0,00000000000|  6,00000000000|  6,00000000000|  7,00000000000|  7,00000000000|  7,00000000000
canDub                    |  6,00000000000|  4,00000000000|  5,00000000000|  6,00000000000|  6,00000000000|  0,00000000000|  2,00000000000|  5,00000000000|  5,00000000000|  5,00000000000
canAlb                    |  6,00000000000|  4,00000000000|  5,00000000000|  6,00000000000|  6,00000000000|  2,00000000000|  0,00000000000|  5,00000000000|  5,00000000000|  5,00000000000
canMal                    |  3,00000000000|  5,00000000000|  6,00000000000|  7,00000000000|  7,00000000000|  5,00000000000|  5,00000000000|  0,00000000000|  4,00000000000|  4,00000000000
debHan                    |  5,00000000000|  5,00000000000|  6,00000000000|  7,00000000000|  7,00000000000|  5,00000000000|  5,00000000000|  4,00000000000|  0,00000000000|  2,00000000000
picFar                    |  5,00000000000|  5,00000000000|  6,00000000000|  7,00000000000|  7,00000000000|  5,00000000000|  5,00000000000|  4,00000000000|  2,00000000000|  0,00000000000
