                            Yarrowia_lipol Pichia_pastori Clavispora_lus Debaryomyces_h Meyerozyma_gui Candida_paraps Candida_tropic Candida_albica Kluyveromyces_ Ashbya_gossypi Lachancea_kluy 
Yarrowia_lipolytica         0,0000000e+00  7,3549243e+01  3,8950759e+02  3,4025979e+02  1,9316761e+02  1,6350022e+02  9,3189360e+02  6,7659585e+02  2,7389912e+02  3,4191522e+02  7,6280899e+02
Pichia_pastoris             7,3549243e+01  0,0000000e+00  4,4602463e+02  3,9689228e+02  2,5025041e+02  2,1670907e+02  9,9030723e+02  7,3458057e+02  3,3210728e+02  2,8719746e+02  7,0638704e+02
Clavispora_lusitaniae       3,8950759e+02  4,4602463e+02  0,0000000e+00  6,9294997e+01  2,0495605e+02  2,3676625e+02  5,5154016e+02  2,9619572e+02  1,5058889e+02  7,2704915e+02  1,1487988e+03
Debaryomyces_hansenii       3,4025979e+02  3,9689228e+02  6,9294997e+01  0,0000000e+00  1,5684116e+02  1,8867395e+02  5,9952719e+02  3,4360954e+02  1,0996939e+02  6,7780063e+02  1,0994744e+03
Meyerozyma_guilliermondii   1,9316761e+02  2,5025041e+02  2,0495605e+02  1,5684116e+02  0,0000000e+00  6,1705350e+01  7,4668772e+02  4,9083419e+02  1,1171146e+02  5,2894863e+02  9,5017959e+02
Candida_parapsilosis        1,6350022e+02  2,1670907e+02  2,3676625e+02  1,8867395e+02  6,1705350e+01  0,0000000e+00  7,8045300e+02  5,2415862e+02  1,4269940e+02  4,9697588e+02  9,1774845e+02
Candida_tropicalis          9,3189360e+02  9,9030723e+02  5,5154016e+02  5,9952719e+02  7,4668772e+02  7,8045300e+02  0,0000000e+00  2,6379182e+02  6,7067529e+02  1,2688971e+03  1,6913818e+03
Candida_albicans            6,7659585e+02  7,3458057e+02  2,9619572e+02  3,4360954e+02  4,9083419e+02  5,2415862e+02  2,6379182e+02  0,0000000e+00  4,1695204e+02  1,0144032e+03  1,4365755e+03
Kluyveromyces_lactis        2,7389912e+02  3,3210728e+02  1,5058889e+02  1,0996939e+02  1,1171146e+02  1,4269940e+02  6,7067529e+02  4,1695204e+02  0,0000000e+00  6,0733788e+02  1,0268249e+03
Ashbya_gossypii             3,4191522e+02  2,8719746e+02  7,2704915e+02  6,7780063e+02  5,2894863e+02  4,9697588e+02  1,2688971e+03  1,0144032e+03  6,0733788e+02  0,0000000e+00  4,2657804e+02
Lachancea_kluyveri          7,6280899e+02  7,0638704e+02  1,1487988e+03  1,0994744e+03  9,5017959e+02  9,1774845e+02  1,6913818e+03  1,4365755e+03  1,0268249e+03  4,2657804e+02  0,0000000e+00

                            Yarrowia_lipol Pichia_pastori Clavispora_lus Debaryomyces_h Meyerozyma_gui Candida_paraps Candida_tropic Candida_albica Kluyveromyces_ Ashbya_gossypi Lachancea_kluy 
Yarrowia_lipolytica         0,00000000000  1,00726763411  1,20114559328  1,17092621999  1,08066770412  1,06246323957  1,53396379835  1,37730832191  1,13020606720  1,17194201990  1,43021031816
Pichia_pastoris             1,00726763411  0,00000000000  1,23582550259  1,20567697462  1,11569477590  1,09511318559  1,56980749712  1,41288883076  1,16592368699  1,13836618179  1,39558875052
Clavispora_lusitaniae       1,20114559328  1,23582550259  0,00000000000  1,00465714956  1,08790131058  1,10742064445  1,30057181043  1,14388767944  1,05454060522  1,40826741093  1,66706091094
Debaryomyces_hansenii       1,17092621999  1,20567697462  1,00465714956  0,00000000000  1,05837711181  1,07791030756  1,33001754950  1,17298168839  1,02961571583  1,37804759493  1,63679449355
Meyerozyma_guilliermondii   1,08066770412  1,11569477590  1,08790131058  1,05837711181  0,00000000000  1,00000000000  1,42031800177  1,26332148997  1,03068468542  1,28670922523  1,54518442390
Candida_parapsilosis        1,06246323957  1,09511318559  1,10742064445  1,07791030756  1,00000000000  0,00000000000  1,44103701446  1,28376998400  1,04969946293  1,26709014745  1,52528407262
Candida_tropicalis          1,53396379835  1,56980749712  1,30057181043  1,33001754950  1,42031800177  1,44103701446  0,00000000000  1,12400404359  1,37367535300  1,74075546576  2,00000000000
Candida_albicans            1,37730832191  1,41288883076  1,14388767944  1,17298168839  1,26332148997  1,28376998400  1,12400404359  0,00000000000  1,21798602096  1,58459325583  1,84364603702
Kluyveromyces_lactis        1,13020606720  1,16592368699  1,05454060522  1,02961571583  1,03068468542  1,04969946293  1,37367535300  1,21798602096  0,00000000000  1,33481033132  1,59221540744
Ashbya_gossypii             1,17194201990  1,13836618179  1,40826741093  1,37804759493  1,28670922523  1,26709014745  1,74075546576  1,58459325583  1,33481033132  0,00000000000  1,22389271534
Lachancea_kluyveri          1,43021031816  1,39558875052  1,66706091094  1,63679449355  1,54518442390  1,52528407262  2,00000000000  1,84364603702  1,59221540744  1,22389271534  0,00000000000
