                            Human          Pig_Chim       Com_Chim       Gibbon         Baboon         Ver_Monkey     Macaca_Thibet  Bor_Oran       Sum_Oran       Gorilla        Cat            Dog            Pig            Sheep          Goat           Cow            Buffalo        Wolf           Tiger          Leopard        Indian_Rhino   White_Rhino    Black_Bear     Brown_Bear     Polar_Bear     Giant_Panda    Rabbit         Hedgehog       Dormouse       Squirrel       Blue_Whale     
Human                       0,00000000000  9,20213611511  9,35216378487  9,31253255517  9,14225598707  9,64295918760  9,42572320893  9,37142022898  9,36338735286  9,27017182693 10,57023293981  9,59556301708 11,97683872321 10,83401777374 10,74810704394 10,53532447347 10,35726550424  9,75009405647 10,41041632072  9,89171422168 10,97019657626 10,75694708258  9,03049455926  9,43958529804  9,55757926441  8,84115577812 10,69267438485 13,06249791765  9,49409392505  9,36767824102  9,69652418278
Pig_Chim                    9,20213611511  0,00000000000  7,82667938501  8,34525202979  8,38331010901  8,75428788956  8,62310517893  8,56524793328  8,82028548550  8,28599870663 10,38041435967  9,35839199780 11,34191433415 10,16853223436 10,07051196848  9,74181305462  9,54752619085  9,37588896030 10,28171565601 10,14579094798 10,57201215367 10,20173317506  9,07793030504  9,41634777986  9,58335698871  9,42158950787 10,45450592028 12,68325215507  8,94513240550  8,64719808229  9,29749498584
Com_Chim                    9,35216378487  7,82667938501  0,00000000000  8,37908629414  8,49538376573  8,93579736125  8,87445762037  8,46733692417  8,59595647561  8,11189804901 10,57016395881  9,53975217733 11,55581825070 10,39271196229 10,30486809097  9,97178347974  9,73787404790  9,41478125148 10,29454806271 10,13582189753 10,75598047405 10,49164341291  8,94918681407  9,31382145670  9,46985910789  9,68627435857 10,50889384486 12,79126492979  9,13774286053  8,93699426824  9,59868753188
Gibbon                      9,31253255517  8,34525202979  8,37908629414  0,00000000000  8,56758470814  9,08264119855  9,38015460588  7,99621034553  8,39227384430  8,33872984517 11,02981946508  9,82954037933 12,19859914254 11,04151784642 10,91266595390 10,47466991028 10,32757815503  9,98469897851 10,86176889248 10,70035589913 11,45243148976 10,95713648403  9,54698745796  9,65457618870  9,89968150779  9,76418741696 10,91791405230 13,33175541211  9,63674540547  9,25659888354  9,99388227452
Baboon                      9,14225598707  8,38331010901  8,49538376573  8,56758470814  0,00000000000  8,60017932739  9,08998398837  8,75958668606  8,81043646021  8,92161443052 10,14764149666  9,35695635592 11,32109064804 10,25274488083 10,13189773665  9,81728871956  9,79100331839  9,62148747187 10,19957491787 10,00872112719 10,61099798165 10,13078465246  9,20858512491  9,52025089647  9,70271700656  9,01642499862 10,44560199433 12,63985488389  8,71026094565  8,40128718729  9,34661688521
Ver_Monkey                  9,64295918760  8,75428788956  8,93579736125  9,08264119855  8,60017932739  0,00000000000  9,17278759835  9,20849147372  9,24385336262  8,99941270951 10,75422944934  9,99100849210 11,15509557418 10,01225663475  9,95113248671  9,37726869262  9,18957554741 10,13975657505 10,94398056240 10,56546987863 10,51380977727 10,23183056602  9,67851136142 10,08456112005 10,37443798864  9,51629000647 11,26036836645 13,00475143340  8,92062616419  8,67391436788  9,17300222973
Macaca_Thibet               9,42572320893  8,62310517893  8,87445762037  9,38015460588  9,08998398837  9,17278759835  0,00000000000  9,50749467749  9,58710591668  9,21876632905 10,02024048426  9,05167233872 10,59417918559  9,52402346337  9,58890953411  9,32968881170  9,10121593918  8,88462139974  9,88713079993  9,81678886464  9,82932718724  9,66120015462  9,22984481435  9,53432067744  9,81375193498  9,17636165773 10,25570332086 12,22684722491  8,65509336304  8,58072563047  8,91060055513
Bor_Oran                    9,37142022898  8,56524793328  8,46733692417  7,99621034553  8,75958668606  9,20849147372  9,50749467749  0,00000000000  8,14740622272  8,27260246994 11,24242330064  9,81071139646 12,34445653807 11,18183562025 10,97361740359 10,56582907271 10,37242864747  9,95231970961 11,04911993100 10,79982334641 11,63522653199 11,21700436365  9,65266936530  9,73521998019  9,88255678965  9,92967236020 11,13997341626 13,45500146313  9,73311682728  9,41632661812 10,14172190261
Sum_Oran                    9,36338735286  8,82028548550  8,59595647561  8,39227384430  8,81043646021  9,24385336262  9,58710591668  8,14740622272  0,00000000000  8,54178896089 11,29041304702  9,85161678564 12,31091593533 11,19636784275 11,01190534338 10,73680212950 10,36233301334  9,92452024513 11,03992309391 10,64611202413 11,56362749672 11,26463676798  9,43123660721  9,70833497569  9,88013612771  9,91808755238 11,12710799188 13,41546067337  9,64812501434  9,51952390546 10,22872533539
Gorilla                     9,27017182693  8,28599870663  8,11189804901  8,33872984517  8,92161443052  8,99941270951  9,21876632905  8,27260246994  8,54178896089  0,00000000000 11,15405171826  9,96689690313 12,05892321025 10,84499108442 10,71907589405 10,27938763969  9,97686293438  9,85621003658 10,87083701508 10,55323400415 11,20539728430 11,01037109050  9,30781451265  9,59595380950  9,75801877356  9,99555169289 11,03813423863 13,30651933328  9,60686963310  9,33750028397  9,90344893754
Cat                        10,57023293981 10,38041435967 10,57016395881 11,02981946508 10,14764149666 10,75422944934 10,02024048426 11,24242330064 11,29041304702 11,15405171826  0,00000000000  9,72746267596 10,41432749786 10,22278254142 10,29938946241 10,49940618010 10,76577788944  9,78679761987  8,63628079963  9,15976941163  9,53080636287  9,10850981835 10,11488412620  9,90927960873 10,04101946635  9,56883429122  9,18799086436 10,56424003449  9,68875629469  9,80352493205 10,20196598602
Dog                         9,59556301708  9,35839199780  9,53975217733  9,82954037933  9,35695635592  9,99100849210  9,05167233872  9,81071139646  9,85161678564  9,96689690313  9,72746267596  0,00000000000 10,95412082382 10,20658735742  9,97780377851 10,22096345591  9,96206908818  8,32479695769  9,76682908490  9,63705263938 10,15862551255  9,64165640190  9,57999548988  9,63228605166  9,84646832671  9,17219127399  9,76152471757 11,68679719691  8,92999115122  8,91982963411  9,70840954647
Pig                        11,97683872321 11,34191433415 11,55581825070 12,19859914254 11,32109064804 11,15509557418 10,59417918559 12,34445653807 12,31091593533 12,05892321025 10,41432749786 10,95412082382  0,00000000000  8,81222915545  9,09207653747 10,04024777332  9,86717637237 10,92522385945 10,99008682666 10,98355440111  9,27008103809  9,36060879167 11,33182992511 11,82925816115 11,91561218051 11,12913910834 11,54069069726 11,63491327046 10,05095030286 10,49373413277 10,20785774100
Sheep                      10,83401777374 10,16853223436 10,39271196229 11,04151784642 10,25274488083 10,01225663475  9,52402346337 11,18183562025 11,19636784275 10,84499108442 10,22278254142 10,20658735742  8,81222915545  0,00000000000  8,16219862832  8,98767925788  8,63250073628 10,21559218634 10,56882544326 10,44226019664  9,27080723431  9,23144222132 10,23977871983 10,93614892888 11,03781989291 10,17455412757 11,24595459254 12,18020951124  9,05604562460  9,45801544245  8,87736402749
Goat                       10,74810704394 10,07051196848 10,30486809097 10,91266595390 10,13189773665  9,95113248671  9,58890953411 10,97361740359 11,01190534338 10,71907589405 10,29938946241  9,97780377851  9,09207653747  8,16219862832  0,00000000000  9,17743257979  8,54313895412 10,18001639596 10,70197506887 10,41264773385  9,57185666727  9,38621517971 10,25945055567 10,90392741810 10,87745907650 10,22216602722 11,23206362280 12,00536570090  8,93285587858  9,36525214380  8,84311540603
Cow                        10,53532447347  9,74181305462  9,97178347974 10,47466991028  9,81728871956  9,37726869262  9,32968881170 10,56582907271 10,73680212950 10,27938763969 10,49940618010 10,22096345591 10,04024777332  8,98767925788  9,17743257979  0,00000000000  8,96990188598 10,31142948205 10,78746702132 10,82995167053  9,87616070463  9,77343021213 10,23044744771 10,75297444494 11,06814279614  9,94219457506 11,50687643782 12,70072419609  9,17097419677  9,34504185768  8,85385042585
Buffalo                    10,35726550424  9,54752619085  9,73787404790 10,32757815503  9,79100331839  9,18957554741  9,10121593918 10,37242864747 10,36233301334  9,97686293438 10,76577788944  9,96206908818  9,86717637237  8,63250073628  8,54313895412  8,96990188598  0,00000000000  9,99396576960 10,93284248262 10,50323836520  9,76861291576  9,76188963809  9,92515409751 10,63863178108 10,76594724445 10,10385989478 11,43127180440 12,61089026519  8,82101582389  9,06468467097  8,62864367802
Wolf                        9,75009405647  9,37588896030  9,41478125148  9,98469897851  9,62148747187 10,13975657505  8,88462139974  9,95231970961  9,92452024513  9,85621003658  9,78679761987  8,32479695769 10,92522385945 10,21559218634 10,18001639596 10,31142948205  9,99396576960  0,00000000000  9,48250233351  9,42498562557  9,89206112597  9,72007062538  9,36940946323  9,42677646489  9,69500632451  9,51114667126  9,52402346337 11,63928646297  9,13421704442  9,17731361791  9,97921443545
Tiger                      10,41041632072 10,28171565601 10,29454806271 10,86176889248 10,19957491787 10,94398056240  9,88713079993 11,04911993100 11,03992309391 10,87083701508  8,63628079963  9,76682908490 10,99008682666 10,56882544326 10,70197506887 10,78746702132 10,93284248262  9,48250233351  0,00000000000  8,66661050759  9,89722460470  9,82317253645  9,65939369898  9,38301511231  9,52428549422  9,81208902949  8,80380611688 10,91434116482  9,91468481446 10,00511455099 10,39762043950
Leopard                     9,89171422168 10,14579094798 10,13582189753 10,70035589913 10,00872112719 10,56546987863  9,81678886464 10,79982334641 10,64611202413 10,55323400415  9,15976941163  9,63705263938 10,98355440111 10,44226019664 10,41264773385 10,82995167053 10,50323836520  9,42498562557  8,66661050759  0,00000000000  9,79889048859  9,88845108754  9,14097108893  9,04445349733  8,99331909423  9,59294302282  9,31542035067 11,03443297440  9,59282564096  9,77789388454 10,08985798620
Indian_Rhino               10,97019657626 10,57201215367 10,75598047405 11,45243148976 10,61099798165 10,51380977727  9,82932718724 11,63522653199 11,56362749672 11,20539728430  9,53080636287 10,15862551255  9,27008103809  9,27080723431  9,57185666727  9,87616070463  9,76861291576  9,89206112597  9,89722460470  9,79889048859  0,00000000000  8,59161762787 10,40379974592 10,73104378166 10,96963023632 10,21960612315 10,27882804405 10,89455218954  9,54203316034  9,79309454405  9,95296398325
White_Rhino                10,75694708258 10,20173317506 10,49164341291 10,95713648403 10,13078465246 10,23183056602  9,66120015462 11,21700436365 11,26463676798 11,01037109050  9,10850981835  9,64165640190  9,36060879167  9,23144222132  9,38621517971  9,77343021213  9,76188963809  9,72007062538  9,82317253645  9,88845108754  8,59161762787  0,00000000000 10,34334621746 10,52073567133 10,79374105112  9,79105742353  9,99872078932 10,88364052787  9,19326023679  9,29785324349  9,69701119652
Black_Bear                  9,03049455926  9,07793030504  8,94918681407  9,54698745796  9,20858512491  9,67851136142  9,22984481435  9,65266936530  9,43123660721  9,30781451265 10,11488412620  9,57999548988 11,33182992511 10,23977871983 10,25945055567 10,23044744771  9,92515409751  9,36940946323  9,65939369898  9,14097108893 10,40379974592 10,34334621746  0,00000000000  8,62677776821  8,83746048336  9,28026925606 10,27075531988 12,41308268980  9,15727049630  9,40998993927  9,50465013906
Brown_Bear                  9,43958529804  9,41634777986  9,31382145670  9,65457618870  9,52025089647 10,08456112005  9,53432067744  9,73521998019  9,70833497569  9,59595380950  9,90927960873  9,63228605166 11,82925816115 10,93614892888 10,90392741810 10,75297444494 10,63863178108  9,42677646489  9,38301511231  9,04445349733 10,73104378166 10,52073567133  8,62677776821  0,00000000000  8,27183806568  9,44075742905  9,80698628026 11,97110098321  9,73914478376  9,75958975113 10,16608228191
Polar_Bear                  9,55757926441  9,58335698871  9,46985910789  9,89968150779  9,70271700656 10,37443798864  9,81375193498  9,88255678965  9,88013612771  9,75801877356 10,04101946635  9,84646832671 11,91561218051 11,03781989291 10,87745907650 11,06814279614 10,76594724445  9,69500632451  9,52428549422  8,99331909423 10,96963023632 10,79374105112  8,83746048336  8,27183806568  0,00000000000  9,79549012407  9,89732846373 11,96255898589  9,92306352744  9,96108897032 10,26820633851
Giant_Panda                 8,84115577812  9,42158950787  9,68627435857  9,76418741696  9,01642499862  9,51629000647  9,17636165773  9,92967236020  9,91808755238  9,99555169289  9,56883429122  9,17219127399 11,12913910834 10,17455412757 10,22216602722  9,94219457506 10,10385989478  9,51114667126  9,81208902949  9,59294302282 10,21960612315  9,79105742353  9,28026925606  9,44075742905  9,79549012407  0,00000000000 10,24755293123 12,28022856178  8,94905182346  8,91636441388  9,29166446623
Rabbit                     10,69267438485 10,45450592028 10,50889384486 10,91791405230 10,44560199433 11,26036836645 10,25570332086 11,13997341626 11,12710799188 11,03813423863  9,18799086436  9,76152471757 11,54069069726 11,24595459254 11,23206362280 11,50687643782 11,43127180440  9,52402346337  8,80380611688  9,31542035067 10,27882804405  9,99872078932 10,27075531988  9,80698628026  9,89732846373 10,24755293123  0,00000000000 10,45866308615 10,32105132329 10,24519831706 11,10260341423
Hedgehog                   13,06249791765 12,68325215507 12,79126492979 13,33175541211 12,63985488389 13,00475143340 12,22684722491 13,45500146313 13,41546067337 13,30651933328 10,56424003449 11,68679719691 11,63491327046 12,18020951124 12,00536570090 12,70072419609 12,61089026519 11,63928646297 10,91434116482 11,03443297440 10,89455218954 10,88364052787 12,41308268980 11,97110098321 11,96255898589 12,28022856178 10,45866308615  0,00000000000 11,97449407109 12,15458704244 12,57842706380
Dormouse                    9,49409392505  8,94513240550  9,13774286053  9,63674540547  8,71026094565  8,92062616419  8,65509336304  9,73311682728  9,64812501434  9,60686963310  9,68875629469  8,92999115122 10,05095030286  9,05604562460  8,93285587858  9,17097419677  8,82101582389  9,13421704442  9,91468481446  9,59282564096  9,54203316034  9,19326023679  9,15727049630  9,73914478376  9,92306352744  8,94905182346 10,32105132329 11,97449407109  0,00000000000  8,11221825952  8,69741235479
Squirrel                    9,36767824102  8,64719808229  8,93699426824  9,25659888354  8,40128718729  8,67391436788  8,58072563047  9,41632661812  9,51952390546  9,33750028397  9,80352493205  8,91982963411 10,49373413277  9,45801544245  9,36525214380  9,34504185768  9,06468467097  9,17731361791 10,00511455099  9,77789388454  9,79309454405  9,29785324349  9,40998993927  9,75958975113  9,96108897032  8,91636441388 10,24519831706 12,15458704244  8,11221825952  0,00000000000  8,83769169206
Blue_Whale                  9,69652418278  9,29749498584  9,59868753188  9,99388227452  9,34661688521  9,17300222973  8,91060055513 10,14172190261 10,22872533539  9,90344893754 10,20196598602  9,70840954647 10,20785774100  8,87736402749  8,84311540603  8,85385042585  8,62864367802  9,97921443545 10,39762043950 10,08985798620  9,95296398325  9,69701119652  9,50465013906 10,16608228191 10,26820633851  9,29166446623 11,10260341423 12,57842706380  8,69741235479  8,83769169206  0,00000000000
