                           |canTro         |canSoj         |canVis         |canFri         |canNer         |canDub         |canAlb         |canMal         |debHan         |picFar         
canTro                    |  0,00000000000|  8,04318930705|  8,04318930705|  8,04318930705|  8,04318930705|  8,04318930705|  8,04318930705|  8,04318930705|  8,04318930705|  8,04318930705
canSoj                    |  8,04318930705|  0,00000000000|  5,37270929124|  5,37270929124|  5,37270929124|  5,81993985337|  5,64884258880|  5,67860252016|  5,99807884018|  5,99807884018
canVis                    |  8,04318930705|  5,37270929124|  0,00000000000|  4,95908465704|  4,95908465704|  5,81993985337|  5,64884258880|  5,67860252016|  5,99807884018|  5,99807884018
canFri                    |  8,04318930705|  5,37270929124|  4,95908465704|  0,00000000000|  4,09800811988|  5,81993985337|  5,64884258880|  5,67860252016|  5,99807884018|  5,99807884018
canNer                    |  8,04318930705|  5,37270929124|  4,95908465704|  4,09800811988|  0,00000000000|  5,81993985337|  5,64884258880|  5,67860252016|  5,99807884018|  5,99807884018
canDub                    |  8,04318930705|  5,81993985337|  5,81993985337|  5,81993985337|  5,81993985337|  0,00000000000|  5,81993985337|  5,81993985337|  5,99807884018|  5,99807884018
canAlb                    |  8,04318930705|  5,64884258880|  5,64884258880|  5,64884258880|  5,64884258880|  5,81993985337|  0,00000000000|  5,67860252016|  5,99807884018|  5,99807884018
canMal                    |  8,04318930705|  5,67860252016|  5,67860252016|  5,67860252016|  5,67860252016|  5,81993985337|  5,67860252016|  0,00000000000|  5,99807884018|  5,99807884018
debHan                    |  8,04318930705|  5,99807884018|  5,99807884018|  5,99807884018|  5,99807884018|  5,99807884018|  5,99807884018|  5,99807884018|  0,00000000000|  5,60732536222
picFar                    |  8,04318930705|  5,99807884018|  5,99807884018|  5,99807884018|  5,99807884018|  5,99807884018|  5,99807884018|  5,99807884018|  5,60732536222|  0,00000000000
                           |canTro         |canSoj         |canVis         |canFri         |canNer         |canDub         |canAlb         |canMal         |debHan         |picFar         
canTro                    |  0,00000000000| 11,87626239609| 11,87626239609| 11,87626239609| 11,87626239609| 11,87626239609| 11,87626239609| 11,87626239609| 11,87626239609| 11,87626239609
canSoj                    | 11,87626239609|  0,00000000000|  9,18988177585|  9,18988177585|  9,18988177585|  9,63977524360|  9,46765922963|  9,49759635793|  9,81897490773|  9,81897490773
canVis                    | 11,87626239609|  9,18988177585|  0,00000000000|  8,77379433285|  8,77379433285|  9,63977524360|  9,46765922963|  9,49759635793|  9,81897490773|  9,81897490773
canFri                    | 11,87626239609|  9,18988177585|  8,77379433285|  0,00000000000|  7,90759076336|  9,63977524360|  9,46765922963|  9,49759635793|  9,81897490773|  9,81897490773
canNer                    | 11,87626239609|  9,18988177585|  8,77379433285|  7,90759076336|  0,00000000000|  9,63977524360|  9,46765922963|  9,49759635793|  9,81897490773|  9,81897490773
canDub                    | 11,87626239609|  9,63977524360|  9,63977524360|  9,63977524360|  9,63977524360|  0,00000000000|  9,63977524360|  9,63977524360|  9,81897490773|  9,81897490773
canAlb                    | 11,87626239609|  9,46765922963|  9,46765922963|  9,46765922963|  9,46765922963|  9,63977524360|  0,00000000000|  9,49759635793|  9,81897490773|  9,81897490773
canMal                    | 11,87626239609|  9,49759635793|  9,49759635793|  9,49759635793|  9,49759635793|  9,63977524360|  9,49759635793|  0,00000000000|  9,81897490773|  9,81897490773
debHan                    | 11,87626239609|  9,81897490773|  9,81897490773|  9,81897490773|  9,81897490773|  9,81897490773|  9,81897490773|  9,81897490773|  0,00000000000|  9,42589480068
picFar                    | 11,87626239609|  9,81897490773|  9,81897490773|  9,81897490773|  9,81897490773|  9,81897490773|  9,81897490773|  9,81897490773|  9,42589480068|  0,00000000000
                           |canTro         |canSoj         |canVis         |canFri         |canNer         |canDub         |canAlb         |canMal         |debHan         |picFar         
canTro                    |  0,00000000000|  7,00000000000|  8,00000000000|  9,00000000000|  9,00000000000|  4,00000000000|  6,00000000000|  5,00000000000|  4,00000000000|  4,00000000000
canSoj                    |  7,00000000000|  0,00000000000|  3,00000000000|  4,00000000000|  4,00000000000|  5,00000000000|  3,00000000000|  4,00000000000|  7,00000000000|  7,00000000000
canVis                    |  8,00000000000|  3,00000000000|  0,00000000000|  3,00000000000|  3,00000000000|  6,00000000000|  4,00000000000|  5,00000000000|  8,00000000000|  8,00000000000
canFri                    |  9,00000000000|  4,00000000000|  3,00000000000|  0,00000000000|  2,00000000000|  7,00000000000|  5,00000000000|  6,00000000000|  9,00000000000|  9,00000000000
canNer                    |  9,00000000000|  4,00000000000|  3,00000000000|  2,00000000000|  0,00000000000|  7,00000000000|  5,00000000000|  6,00000000000|  9,00000000000|  9,00000000000
canDub                    |  4,00000000000|  5,00000000000|  6,00000000000|  7,00000000000|  7,00000000000|  0,00000000000|  4,00000000000|  3,00000000000|  4,00000000000|  4,00000000000
canAlb                    |  6,00000000000|  3,00000000000|  4,00000000000|  5,00000000000|  5,00000000000|  4,00000000000|  0,00000000000|  3,00000000000|  6,00000000000|  6,00000000000
canMal                    |  5,00000000000|  4,00000000000|  5,00000000000|  6,00000000000|  6,00000000000|  3,00000000000|  3,00000000000|  0,00000000000|  5,00000000000|  5,00000000000
debHan                    |  4,00000000000|  7,00000000000|  8,00000000000|  9,00000000000|  9,00000000000|  4,00000000000|  6,00000000000|  5,00000000000|  0,00000000000|  2,00000000000
picFar                    |  4,00000000000|  7,00000000000|  8,00000000000|  9,00000000000|  9,00000000000|  4,00000000000|  6,00000000000|  5,00000000000|  2,00000000000|  0,00000000000
