                           |canTro         |canSoj         |canVis         |canFri         |canNer         |canDub         |canAlb         |canMal         |debHan         |picFar         
canTro                    |  0,00000000000|3997,13574056054|3958,96948989834|4087,77384441085|4087,77384441085|4076,07034381569|4076,07034381569|4292,60696028387|4608,60620615132|4617,26041728879
canSoj                    |3997,13574056054|  0,00000000000|3997,13574056054|4087,77384441085|4087,77384441085|4076,07034381569|4076,07034381569|4292,60696028387|4608,60620615132|4617,26041728879
canVis                    |3958,96948989834|3997,13574056054|  0,00000000000|4087,77384441085|4087,77384441085|4076,07034381569|4076,07034381569|4292,60696028387|4608,60620615132|4617,26041728879
canFri                    |4087,77384441085|4087,77384441085|4087,77384441085|  0,00000000000|2734,92979046683|4087,77384441085|4087,77384441085|4292,60696028387|4608,60620615132|4617,26041728879
canNer                    |4087,77384441085|4087,77384441085|4087,77384441085|2734,92979046683|  0,00000000000|4087,77384441085|4087,77384441085|4292,60696028387|4608,60620615132|4617,26041728879
canDub                    |4076,07034381569|4076,07034381569|4076,07034381569|4087,77384441085|4087,77384441085|  0,00000000000|2925,65607088717|4292,60696028387|4608,60620615132|4617,26041728879
canAlb                    |4076,07034381569|4076,07034381569|4076,07034381569|4087,77384441085|4087,77384441085|2925,65607088717|  0,00000000000|4292,60696028387|4608,60620615132|4617,26041728879
canMal                    |4292,60696028387|4292,60696028387|4292,60696028387|4292,60696028387|4292,60696028387|4292,60696028387|4292,60696028387|  0,00000000000|4608,60620615132|4617,26041728879
debHan                    |4608,60620615132|4608,60620615132|4608,60620615132|4608,60620615132|4608,60620615132|4608,60620615132|4608,60620615132|4608,60620615132|  0,00000000000|4617,26041728879
picFar                    |4617,26041728879|4617,26041728879|4617,26041728879|4617,26041728879|4617,26041728879|4617,26041728879|4617,26041728879|4617,26041728879|4617,26041728879|  0,00000000000
                           |canTro         |canSoj         |canVis         |canFri         |canNer         |canDub         |canAlb         |canMal         |debHan         |picFar         
canTro                    |  0,00000000000|  9,34746587607|  9,25042855859|  9,57791236497|  9,57791236497|  9,54815632964|  9,54815632964| 10,09869855044| 10,90212352968| 10,92412677651
canSoj                    |  9,34746587607|  0,00000000000|  9,34746587607|  9,57791236497|  9,57791236497|  9,54815632964|  9,54815632964| 10,09869855044| 10,90212352968| 10,92412677651
canVis                    |  9,25042855859|  9,34746587607|  0,00000000000|  9,57791236497|  9,57791236497|  9,54815632964|  9,54815632964| 10,09869855044| 10,90212352968| 10,92412677651
canFri                    |  9,57791236497|  9,57791236497|  9,57791236497|  0,00000000000|  6,13831964387|  9,57791236497|  9,57791236497| 10,09869855044| 10,90212352968| 10,92412677651
canNer                    |  9,57791236497|  9,57791236497|  9,57791236497|  6,13831964387|  0,00000000000|  9,57791236497|  9,57791236497| 10,09869855044| 10,90212352968| 10,92412677651
canDub                    |  9,54815632964|  9,54815632964|  9,54815632964|  9,57791236497|  9,57791236497|  0,00000000000|  6,62323933875| 10,09869855044| 10,90212352968| 10,92412677651
canAlb                    |  9,54815632964|  9,54815632964|  9,54815632964|  9,57791236497|  9,57791236497|  6,62323933875|  0,00000000000| 10,09869855044| 10,90212352968| 10,92412677651
canMal                    | 10,09869855044| 10,09869855044| 10,09869855044| 10,09869855044| 10,09869855044| 10,09869855044| 10,09869855044|  0,00000000000| 10,90212352968| 10,92412677651
debHan                    | 10,90212352968| 10,90212352968| 10,90212352968| 10,90212352968| 10,90212352968| 10,90212352968| 10,90212352968| 10,90212352968|  0,00000000000| 10,92412677651
picFar                    | 10,92412677651| 10,92412677651| 10,92412677651| 10,92412677651| 10,92412677651| 10,92412677651| 10,92412677651| 10,92412677651| 10,92412677651|  0,00000000000
                           |canTro         |canSoj         |canVis         |canFri         |canNer         |canDub         |canAlb         |canMal         |debHan         |picFar         
canTro                    |  0,00000000000|  3,00000000000|  2,00000000000|  6,00000000000|  6,00000000000|  5,00000000000|  5,00000000000|  6,00000000000|  7,00000000000|  8,00000000000
canSoj                    |  3,00000000000|  0,00000000000|  3,00000000000|  5,00000000000|  5,00000000000|  4,00000000000|  4,00000000000|  5,00000000000|  6,00000000000|  7,00000000000
canVis                    |  2,00000000000|  3,00000000000|  0,00000000000|  6,00000000000|  6,00000000000|  5,00000000000|  5,00000000000|  6,00000000000|  7,00000000000|  8,00000000000
canFri                    |  6,00000000000|  5,00000000000|  6,00000000000|  0,00000000000|  2,00000000000|  5,00000000000|  5,00000000000|  4,00000000000|  5,00000000000|  6,00000000000
canNer                    |  6,00000000000|  5,00000000000|  6,00000000000|  2,00000000000|  0,00000000000|  5,00000000000|  5,00000000000|  4,00000000000|  5,00000000000|  6,00000000000
canDub                    |  5,00000000000|  4,00000000000|  5,00000000000|  5,00000000000|  5,00000000000|  0,00000000000|  2,00000000000|  5,00000000000|  6,00000000000|  7,00000000000
canAlb                    |  5,00000000000|  4,00000000000|  5,00000000000|  5,00000000000|  5,00000000000|  2,00000000000|  0,00000000000|  5,00000000000|  6,00000000000|  7,00000000000
canMal                    |  6,00000000000|  5,00000000000|  6,00000000000|  4,00000000000|  4,00000000000|  5,00000000000|  5,00000000000|  0,00000000000|  3,00000000000|  4,00000000000
debHan                    |  7,00000000000|  6,00000000000|  7,00000000000|  5,00000000000|  5,00000000000|  6,00000000000|  6,00000000000|  3,00000000000|  0,00000000000|  3,00000000000
picFar                    |  8,00000000000|  7,00000000000|  8,00000000000|  6,00000000000|  6,00000000000|  7,00000000000|  7,00000000000|  4,00000000000|  3,00000000000|  0,00000000000
