                           |canTro         |canSoj         |canVis         |canFri         |canNer         |canDub         |canAlb         |canMal         |debHan         |picFar         
canTro                    |  0,00000000000|1907,30777866034|2102,83042645503|1923,60406351308|1923,60406351308|1923,60406351308|1923,60406351308|1954,19034214065|2268,34687645589|2285,68878834472
canSoj                    |1907,30777866034|  0,00000000000|2102,83042645503|1923,60406351308|1923,60406351308|1923,60406351308|1923,60406351308|1954,19034214065|2268,34687645589|2285,68878834472
canVis                    |2102,83042645503|2102,83042645503|  0,00000000000|2102,83042645503|2102,83042645503|2102,83042645503|2102,83042645503|2102,83042645503|2268,34687645589|2285,68878834472
canFri                    |1923,60406351308|1923,60406351308|2102,83042645503|  0,00000000000|1347,74560863006|1868,61897286412|1868,61897286412|1954,19034214065|2268,34687645589|2285,68878834472
canNer                    |1923,60406351308|1923,60406351308|2102,83042645503|1347,74560863006|  0,00000000000|1868,61897286412|1868,61897286412|1954,19034214065|2268,34687645589|2285,68878834472
canDub                    |1923,60406351308|1923,60406351308|2102,83042645503|1868,61897286412|1868,61897286412|  0,00000000000|1444,27241665188|1954,19034214065|2268,34687645589|2285,68878834472
canAlb                    |1923,60406351308|1923,60406351308|2102,83042645503|1868,61897286412|1868,61897286412|1444,27241665188|  0,00000000000|1954,19034214065|2268,34687645589|2285,68878834472
canMal                    |1954,19034214065|1954,19034214065|2102,83042645503|1954,19034214065|1954,19034214065|1954,19034214065|1954,19034214065|  0,00000000000|2268,34687645589|2285,68878834472
debHan                    |2268,34687645589|2268,34687645589|2268,34687645589|2268,34687645589|2268,34687645589|2268,34687645589|2268,34687645589|2268,34687645589|  0,00000000000|2285,68878834472
picFar                    |2285,68878834472|2285,68878834472|2285,68878834472|2285,68878834472|2285,68878834472|2285,68878834472|2285,68878834472|2285,68878834472|2285,68878834472|  0,00000000000
                           |canTro         |canSoj         |canVis         |canFri         |canNer         |canDub         |canAlb         |canMal         |debHan         |picFar         
canTro                    |  0,00000000000|  9,28897777043| 10,19606820954|  9,36458130971|  9,36458130971|  9,36458130971|  9,36458130971|  9,50648057930| 10,96395055466| 11,04440508332
canSoj                    |  9,28897777043|  0,00000000000| 10,19606820954|  9,36458130971|  9,36458130971|  9,36458130971|  9,36458130971|  9,50648057930| 10,96395055466| 11,04440508332
canVis                    | 10,19606820954| 10,19606820954|  0,00000000000| 10,19606820954| 10,19606820954| 10,19606820954| 10,19606820954| 10,19606820954| 10,96395055466| 11,04440508332
canFri                    |  9,36458130971|  9,36458130971| 10,19606820954|  0,00000000000|  6,69299464392|  9,10948835457|  9,10948835457|  9,50648057930| 10,96395055466| 11,04440508332
canNer                    |  9,36458130971|  9,36458130971| 10,19606820954|  6,69299464392|  0,00000000000|  9,10948835457|  9,10948835457|  9,50648057930| 10,96395055466| 11,04440508332
canDub                    |  9,36458130971|  9,36458130971| 10,19606820954|  9,10948835457|  9,10948835457|  0,00000000000|  7,14081255996|  9,50648057930| 10,96395055466| 11,04440508332
canAlb                    |  9,36458130971|  9,36458130971| 10,19606820954|  9,10948835457|  9,10948835457|  7,14081255996|  0,00000000000|  9,50648057930| 10,96395055466| 11,04440508332
canMal                    |  9,50648057930|  9,50648057930| 10,19606820954|  9,50648057930|  9,50648057930|  9,50648057930|  9,50648057930|  0,00000000000| 10,96395055466| 11,04440508332
debHan                    | 10,96395055466| 10,96395055466| 10,96395055466| 10,96395055466| 10,96395055466| 10,96395055466| 10,96395055466| 10,96395055466|  0,00000000000| 11,04440508332
picFar                    | 11,04440508332| 11,04440508332| 11,04440508332| 11,04440508332| 11,04440508332| 11,04440508332| 11,04440508332| 11,04440508332| 11,04440508332|  0,00000000000
                           |canTro         |canSoj         |canVis         |canFri         |canNer         |canDub         |canAlb         |canMal         |debHan         |picFar         
canTro                    |  0,00000000000|  2,00000000000|  5,00000000000|  5,00000000000|  5,00000000000|  5,00000000000|  5,00000000000|  4,00000000000|  6,00000000000|  7,00000000000
canSoj                    |  2,00000000000|  0,00000000000|  5,00000000000|  5,00000000000|  5,00000000000|  5,00000000000|  5,00000000000|  4,00000000000|  6,00000000000|  7,00000000000
canVis                    |  5,00000000000|  5,00000000000|  0,00000000000|  6,00000000000|  6,00000000000|  6,00000000000|  6,00000000000|  3,00000000000|  3,00000000000|  4,00000000000
canFri                    |  5,00000000000|  5,00000000000|  6,00000000000|  0,00000000000|  2,00000000000|  4,00000000000|  4,00000000000|  5,00000000000|  7,00000000000|  8,00000000000
canNer                    |  5,00000000000|  5,00000000000|  6,00000000000|  2,00000000000|  0,00000000000|  4,00000000000|  4,00000000000|  5,00000000000|  7,00000000000|  8,00000000000
canDub                    |  5,00000000000|  5,00000000000|  6,00000000000|  4,00000000000|  4,00000000000|  0,00000000000|  2,00000000000|  5,00000000000|  7,00000000000|  8,00000000000
canAlb                    |  5,00000000000|  5,00000000000|  6,00000000000|  4,00000000000|  4,00000000000|  2,00000000000|  0,00000000000|  5,00000000000|  7,00000000000|  8,00000000000
canMal                    |  4,00000000000|  4,00000000000|  3,00000000000|  5,00000000000|  5,00000000000|  5,00000000000|  5,00000000000|  0,00000000000|  4,00000000000|  5,00000000000
debHan                    |  6,00000000000|  6,00000000000|  3,00000000000|  7,00000000000|  7,00000000000|  7,00000000000|  7,00000000000|  4,00000000000|  0,00000000000|  3,00000000000
picFar                    |  7,00000000000|  7,00000000000|  4,00000000000|  8,00000000000|  8,00000000000|  8,00000000000|  8,00000000000|  5,00000000000|  3,00000000000|  0,00000000000
