                           |canTro         |canSoj         |canVis         |canFri         |canNer         |canDub         |canAlb         |canMal         |debHan         |picFar         
canTro                    |  0,00000000000|7672,02344634569|8087,93215043213|7887,52720874151|7887,52720874151|7887,52720874151|7887,52720874151|7992,09712797570|8770,29127692411|8770,29127692411
canSoj                    |7672,02344634569|  0,00000000000|8087,93215043213|7887,52720874151|7887,52720874151|7887,52720874151|7887,52720874151|7992,09712797570|8770,29127692411|8770,29127692411
canVis                    |8087,93215043213|8087,93215043213|  0,00000000000|8087,93215043213|8087,93215043213|8087,93215043213|8087,93215043213|8087,93215043213|8770,29127692411|8770,29127692411
canFri                    |7887,52720874151|7887,52720874151|8087,93215043213|  0,00000000000|5308,54728108380|7650,24842993942|7650,24842993942|7992,09712797570|8770,29127692411|8770,29127692411
canNer                    |7887,52720874151|7887,52720874151|8087,93215043213|5308,54728108380|  0,00000000000|7650,24842993942|7650,24842993942|7992,09712797570|8770,29127692411|8770,29127692411
canDub                    |7887,52720874151|7887,52720874151|8087,93215043213|7650,24842993942|7650,24842993942|  0,00000000000|5846,04621999276|7992,09712797570|8770,29127692411|8770,29127692411
canAlb                    |7887,52720874151|7887,52720874151|8087,93215043213|7650,24842993942|7650,24842993942|5846,04621999276|  0,00000000000|7992,09712797570|8770,29127692411|8770,29127692411
canMal                    |7992,09712797570|7992,09712797570|8087,93215043213|7992,09712797570|7992,09712797570|7992,09712797570|7992,09712797570|  0,00000000000|8770,29127692411|8770,29127692411
debHan                    |8770,29127692411|8770,29127692411|8770,29127692411|8770,29127692411|8770,29127692411|8770,29127692411|8770,29127692411|8770,29127692411|  0,00000000000|8756,91473117193
picFar                    |8770,29127692411|8770,29127692411|8770,29127692411|8770,29127692411|8770,29127692411|8770,29127692411|8770,29127692411|8770,29127692411|8756,91473117193|  0,00000000000
                           |canTro         |canSoj         |canVis         |canFri         |canNer         |canDub         |canAlb         |canMal         |debHan         |picFar         
canTro                    |  0,00000000000|  9,33238393460|  9,92919123697|  9,64162059597|  9,64162059597|  9,64162059597|  9,64162059597|  9,79167297716| 10,90834100116| 10,90834100116
canSoj                    |  9,33238393460|  0,00000000000|  9,92919123697|  9,64162059597|  9,64162059597|  9,64162059597|  9,64162059597|  9,79167297716| 10,90834100116| 10,90834100116
canVis                    |  9,92919123697|  9,92919123697|  0,00000000000|  9,92919123697|  9,92919123697|  9,92919123697|  9,92919123697|  9,92919123697| 10,90834100116| 10,90834100116
canFri                    |  9,64162059597|  9,64162059597|  9,92919123697|  0,00000000000|  5,94091888335|  9,30113792153|  9,30113792153|  9,79167297716| 10,90834100116| 10,90834100116
canNer                    |  9,64162059597|  9,64162059597|  9,92919123697|  5,94091888335|  0,00000000000|  9,30113792153|  9,30113792153|  9,79167297716| 10,90834100116| 10,90834100116
canDub                    |  9,64162059597|  9,64162059597|  9,92919123697|  9,30113792153|  9,30113792153|  0,00000000000|  6,71220183225|  9,79167297716| 10,90834100116| 10,90834100116
canAlb                    |  9,64162059597|  9,64162059597|  9,92919123697|  9,30113792153|  9,30113792153|  6,71220183225|  0,00000000000|  9,79167297716| 10,90834100116| 10,90834100116
canMal                    |  9,79167297716|  9,79167297716|  9,92919123697|  9,79167297716|  9,79167297716|  9,79167297716|  9,79167297716|  0,00000000000| 10,90834100116| 10,90834100116
debHan                    | 10,90834100116| 10,90834100116| 10,90834100116| 10,90834100116| 10,90834100116| 10,90834100116| 10,90834100116| 10,90834100116|  0,00000000000| 10,88914635554
picFar                    | 10,90834100116| 10,90834100116| 10,90834100116| 10,90834100116| 10,90834100116| 10,90834100116| 10,90834100116| 10,90834100116| 10,88914635554|  0,00000000000
                           |canTro         |canSoj         |canVis         |canFri         |canNer         |canDub         |canAlb         |canMal         |debHan         |picFar         
canTro                    |  0,00000000000|  2,00000000000|  5,00000000000|  5,00000000000|  5,00000000000|  5,00000000000|  5,00000000000|  4,00000000000|  7,00000000000|  7,00000000000
canSoj                    |  2,00000000000|  0,00000000000|  5,00000000000|  5,00000000000|  5,00000000000|  5,00000000000|  5,00000000000|  4,00000000000|  7,00000000000|  7,00000000000
canVis                    |  5,00000000000|  5,00000000000|  0,00000000000|  6,00000000000|  6,00000000000|  6,00000000000|  6,00000000000|  3,00000000000|  4,00000000000|  4,00000000000
canFri                    |  5,00000000000|  5,00000000000|  6,00000000000|  0,00000000000|  2,00000000000|  4,00000000000|  4,00000000000|  5,00000000000|  8,00000000000|  8,00000000000
canNer                    |  5,00000000000|  5,00000000000|  6,00000000000|  2,00000000000|  0,00000000000|  4,00000000000|  4,00000000000|  5,00000000000|  8,00000000000|  8,00000000000
canDub                    |  5,00000000000|  5,00000000000|  6,00000000000|  4,00000000000|  4,00000000000|  0,00000000000|  2,00000000000|  5,00000000000|  8,00000000000|  8,00000000000
canAlb                    |  5,00000000000|  5,00000000000|  6,00000000000|  4,00000000000|  4,00000000000|  2,00000000000|  0,00000000000|  5,00000000000|  8,00000000000|  8,00000000000
canMal                    |  4,00000000000|  4,00000000000|  3,00000000000|  5,00000000000|  5,00000000000|  5,00000000000|  5,00000000000|  0,00000000000|  5,00000000000|  5,00000000000
debHan                    |  7,00000000000|  7,00000000000|  4,00000000000|  8,00000000000|  8,00000000000|  8,00000000000|  8,00000000000|  5,00000000000|  0,00000000000|  2,00000000000
picFar                    |  7,00000000000|  7,00000000000|  4,00000000000|  8,00000000000|  8,00000000000|  8,00000000000|  8,00000000000|  5,00000000000|  2,00000000000|  0,00000000000
