                           |aspNig         |canZem         |yarLip         |canSub         |canAlb         |canNer         |canFri         |canPar         |sacPas         |sacCer         |sacSer         
aspNig                    |  0,00000000000|  8,71641312025|  9,00195454199| 11,16268834692|  8,94258599403|  8,94258599403|  8,94258599403|  8,94258599403|  8,71641312025|  8,71641312025|  8,71641312025
canZem                    |  8,71641312025|  0,00000000000|  9,00195454199| 11,16268834692|  8,94258599403|  8,94258599403|  8,94258599403|  8,94258599403|  8,38760137486|  8,38760137486|  8,38760137486
yarLip                    |  9,00195454199|  9,00195454199|  0,00000000000| 11,16268834692|  9,00195454199|  9,00195454199|  9,00195454199|  9,00195454199|  9,00195454199|  9,00195454199|  9,00195454199
canSub                    | 11,16268834692| 11,16268834692| 11,16268834692|  0,00000000000| 11,16268834692| 11,16268834692| 11,16268834692| 11,16268834692| 11,16268834692| 11,16268834692| 11,16268834692
canAlb                    |  8,94258599403|  8,94258599403|  9,00195454199| 11,16268834692|  0,00000000000|  7,04339142220|  7,04339142220|  7,55664111299|  8,94258599403|  8,94258599403|  8,94258599403
canNer                    |  8,94258599403|  8,94258599403|  9,00195454199| 11,16268834692|  7,04339142220|  0,00000000000|  5,80292671203|  7,55664111299|  8,94258599403|  8,94258599403|  8,94258599403
canFri                    |  8,94258599403|  8,94258599403|  9,00195454199| 11,16268834692|  7,04339142220|  5,80292671203|  0,00000000000|  7,55664111299|  8,94258599403|  8,94258599403|  8,94258599403
canPar                    |  8,94258599403|  8,94258599403|  9,00195454199| 11,16268834692|  7,55664111299|  7,55664111299|  7,55664111299|  0,00000000000|  8,94258599403|  8,94258599403|  8,94258599403
sacPas                    |  8,71641312025|  8,38760137486|  9,00195454199| 11,16268834692|  8,94258599403|  8,94258599403|  8,94258599403|  8,94258599403|  0,00000000000|  4,40401518248|  7,15531081882
sacCer                    |  8,71641312025|  8,38760137486|  9,00195454199| 11,16268834692|  8,94258599403|  8,94258599403|  8,94258599403|  8,94258599403|  4,40401518248|  0,00000000000|  7,15531081882
sacSer                    |  8,71641312025|  8,38760137486|  9,00195454199| 11,16268834692|  8,94258599403|  8,94258599403|  8,94258599403|  8,94258599403|  7,15531081882|  7,15531081882|  0,00000000000
                           |aspNig         |canZem         |yarLip         |canSub         |canAlb         |canNer         |canFri         |canPar         |sacPas         |sacCer         |sacSer         
aspNig                    |  0,00000000000|  9,81959417925| 10,03108950070| 11,63150560798|  9,98711630040|  9,98711630040|  9,98711630040|  9,98711630040|  9,81959417925|  9,81959417925|  9,81959417925
canZem                    |  9,81959417925|  0,00000000000| 10,03108950070| 11,63150560798|  9,98711630040|  9,98711630040|  9,98711630040|  9,98711630040|  9,57604931853|  9,57604931853|  9,57604931853
yarLip                    | 10,03108950070| 10,03108950070|  0,00000000000| 11,63150560798| 10,03108950070| 10,03108950070| 10,03108950070| 10,03108950070| 10,03108950070| 10,03108950070| 10,03108950070
canSub                    | 11,63150560798| 11,63150560798| 11,63150560798|  0,00000000000| 11,63150560798| 11,63150560798| 11,63150560798| 11,63150560798| 11,63150560798| 11,63150560798| 11,63150560798
canAlb                    |  9,98711630040|  9,98711630040| 10,03108950070| 11,63150560798|  0,00000000000|  8,58041753136|  8,58041753136|  8,96057221323|  9,98711630040|  9,98711630040|  9,98711630040
canNer                    |  9,98711630040|  9,98711630040| 10,03108950070| 11,63150560798|  8,58041753136|  0,00000000000|  7,66162795250|  8,96057221323|  9,98711630040|  9,98711630040|  9,98711630040
canFri                    |  9,98711630040|  9,98711630040| 10,03108950070| 11,63150560798|  8,58041753136|  7,66162795250|  0,00000000000|  8,96057221323|  9,98711630040|  9,98711630040|  9,98711630040
canPar                    |  9,98711630040|  9,98711630040| 10,03108950070| 11,63150560798|  8,96057221323|  8,96057221323|  8,96057221323|  0,00000000000|  9,98711630040|  9,98711630040|  9,98711630040
sacPas                    |  9,81959417925|  9,57604931853| 10,03108950070| 11,63150560798|  9,98711630040|  9,98711630040|  9,98711630040|  9,98711630040|  0,00000000000|  6,62547970535|  8,66331418650
sacCer                    |  9,81959417925|  9,57604931853| 10,03108950070| 11,63150560798|  9,98711630040|  9,98711630040|  9,98711630040|  9,98711630040|  6,62547970535|  0,00000000000|  8,66331418650
sacSer                    |  9,81959417925|  9,57604931853| 10,03108950070| 11,63150560798|  9,98711630040|  9,98711630040|  9,98711630040|  9,98711630040|  8,66331418650|  8,66331418650|  0,00000000000
                           |aspNig         |canZem         |yarLip         |canSub         |canAlb         |canNer         |canFri         |canPar         |sacPas         |sacCer         |sacSer         
aspNig                    |  0,00000000000|  3,00000000000|  4,00000000000|  5,00000000000|  5,00000000000|  6,00000000000|  6,00000000000|  4,00000000000|  5,00000000000|  5,00000000000|  4,00000000000
canZem                    |  3,00000000000|  0,00000000000|  5,00000000000|  6,00000000000|  6,00000000000|  7,00000000000|  7,00000000000|  5,00000000000|  4,00000000000|  4,00000000000|  3,00000000000
yarLip                    |  4,00000000000|  5,00000000000|  0,00000000000|  3,00000000000|  5,00000000000|  6,00000000000|  6,00000000000|  4,00000000000|  7,00000000000|  7,00000000000|  6,00000000000
canSub                    |  5,00000000000|  6,00000000000|  3,00000000000|  0,00000000000|  6,00000000000|  7,00000000000|  7,00000000000|  5,00000000000|  8,00000000000|  8,00000000000|  7,00000000000
canAlb                    |  5,00000000000|  6,00000000000|  5,00000000000|  6,00000000000|  0,00000000000|  3,00000000000|  3,00000000000|  3,00000000000|  8,00000000000|  8,00000000000|  7,00000000000
canNer                    |  6,00000000000|  7,00000000000|  6,00000000000|  7,00000000000|  3,00000000000|  0,00000000000|  2,00000000000|  4,00000000000|  9,00000000000|  9,00000000000|  8,00000000000
canFri                    |  6,00000000000|  7,00000000000|  6,00000000000|  7,00000000000|  3,00000000000|  2,00000000000|  0,00000000000|  4,00000000000|  9,00000000000|  9,00000000000|  8,00000000000
canPar                    |  4,00000000000|  5,00000000000|  4,00000000000|  5,00000000000|  3,00000000000|  4,00000000000|  4,00000000000|  0,00000000000|  7,00000000000|  7,00000000000|  6,00000000000
sacPas                    |  5,00000000000|  4,00000000000|  7,00000000000|  8,00000000000|  8,00000000000|  9,00000000000|  9,00000000000|  7,00000000000|  0,00000000000|  2,00000000000|  3,00000000000
sacCer                    |  5,00000000000|  4,00000000000|  7,00000000000|  8,00000000000|  8,00000000000|  9,00000000000|  9,00000000000|  7,00000000000|  2,00000000000|  0,00000000000|  3,00000000000
sacSer                    |  4,00000000000|  3,00000000000|  6,00000000000|  7,00000000000|  7,00000000000|  8,00000000000|  8,00000000000|  6,00000000000|  3,00000000000|  3,00000000000|  0,00000000000
