                           |aspNig         |canZem         |yarLip         |canSub         |canAlb         |canNer         |canFri         |canPar         |sacPas         |sacCer         |sacSer         
aspNig                    |  0,00000000000|  9,30994001864|  9,30994001864|  9,46979946103|  9,30994001864|  9,30994001864|  9,30994001864|  9,30994001864|  9,30994001864|  9,30994001864|  9,30994001864
canZem                    |  9,30994001864|  0,00000000000|  9,25040820022|  9,46979946103|  8,67402635865|  8,67402635865|  8,67402635865|  8,67402635865|  8,67402635865|  8,67402635865|  8,67402635865
yarLip                    |  9,30994001864|  9,25040820022|  0,00000000000|  9,46979946103|  9,25040820022|  9,25040820022|  9,25040820022|  9,25040820022|  9,25040820022|  9,25040820022|  9,25040820022
canSub                    |  9,46979946103|  9,46979946103|  9,46979946103|  0,00000000000|  9,46979946103|  9,46979946103|  9,46979946103|  9,46979946103|  9,46979946103|  9,46979946103|  9,46979946103
canAlb                    |  9,30994001864|  8,67402635865|  9,25040820022|  9,46979946103|  0,00000000000|  7,61713719397|  7,61713719397|  7,61713719397|  8,59722384343|  8,59722384343|  8,59722384343
canNer                    |  9,30994001864|  8,67402635865|  9,25040820022|  9,46979946103|  7,61713719397|  0,00000000000|  6,06936977848|  7,17485247026|  8,59722384343|  8,59722384343|  8,59722384343
canFri                    |  9,30994001864|  8,67402635865|  9,25040820022|  9,46979946103|  7,61713719397|  6,06936977848|  0,00000000000|  7,17485247026|  8,59722384343|  8,59722384343|  8,59722384343
canPar                    |  9,30994001864|  8,67402635865|  9,25040820022|  9,46979946103|  7,61713719397|  7,17485247026|  7,17485247026|  0,00000000000|  8,59722384343|  8,59722384343|  8,59722384343
sacPas                    |  9,30994001864|  8,67402635865|  9,25040820022|  9,46979946103|  8,59722384343|  8,59722384343|  8,59722384343|  8,59722384343|  0,00000000000|  4,00415553299|  7,13902846782
sacCer                    |  9,30994001864|  8,67402635865|  9,25040820022|  9,46979946103|  8,59722384343|  8,59722384343|  8,59722384343|  8,59722384343|  4,00415553299|  0,00000000000|  7,13902846782
sacSer                    |  9,30994001864|  8,67402635865|  9,25040820022|  9,46979946103|  8,59722384343|  8,59722384343|  8,59722384343|  8,59722384343|  7,13902846782|  7,13902846782|  0,00000000000
                           |aspNig         |canZem         |yarLip         |canSub         |canAlb         |canNer         |canFri         |canPar         |sacPas         |sacCer         |sacSer         
aspNig                    |  0,00000000000| 10,62699552093| 10,62699552093| 10,78857143518| 10,62699552093| 10,62699552093| 10,62699552093| 10,62699552093| 10,62699552093| 10,62699552093| 10,62699552093
canZem                    | 10,62699552093|  0,00000000000| 10,56682448665| 10,78857143518|  9,98425381320|  9,98425381320|  9,98425381320|  9,98425381320|  9,98425381320|  9,98425381320|  9,98425381320
yarLip                    | 10,62699552093| 10,56682448665|  0,00000000000| 10,78857143518| 10,56682448665| 10,56682448665| 10,56682448665| 10,56682448665| 10,56682448665| 10,56682448665| 10,56682448665
canSub                    | 10,78857143518| 10,78857143518| 10,78857143518|  0,00000000000| 10,78857143518| 10,78857143518| 10,78857143518| 10,78857143518| 10,78857143518| 10,78857143518| 10,78857143518
canAlb                    | 10,62699552093|  9,98425381320| 10,56682448665| 10,78857143518|  0,00000000000|  8,91601642606|  8,91601642606|  8,91601642606|  9,90662664005|  9,90662664005|  9,90662664005
canNer                    | 10,62699552093|  9,98425381320| 10,56682448665| 10,78857143518|  8,91601642606|  0,00000000000|  7,35163004092|  8,46898272242|  9,90662664005|  9,90662664005|  9,90662664005
canFri                    | 10,62699552093|  9,98425381320| 10,56682448665| 10,78857143518|  8,91601642606|  7,35163004092|  0,00000000000|  8,46898272242|  9,90662664005|  9,90662664005|  9,90662664005
canPar                    | 10,62699552093|  9,98425381320| 10,56682448665| 10,78857143518|  8,91601642606|  8,46898272242|  8,46898272242|  0,00000000000|  9,90662664005|  9,90662664005|  9,90662664005
sacPas                    | 10,62699552093|  9,98425381320| 10,56682448665| 10,78857143518|  9,90662664005|  9,90662664005|  9,90662664005|  9,90662664005|  0,00000000000|  5,26424080162|  8,43277406399
sacCer                    | 10,62699552093|  9,98425381320| 10,56682448665| 10,78857143518|  9,90662664005|  9,90662664005|  9,90662664005|  9,90662664005|  5,26424080162|  0,00000000000|  8,43277406399
sacSer                    | 10,62699552093|  9,98425381320| 10,56682448665| 10,78857143518|  9,90662664005|  9,90662664005|  9,90662664005|  9,90662664005|  8,43277406399|  8,43277406399|  0,00000000000
                           |aspNig         |canZem         |yarLip         |canSub         |canAlb         |canNer         |canFri         |canPar         |sacPas         |sacCer         |sacSer         
aspNig                    |  0,00000000000|  4,00000000000|  3,00000000000|  3,00000000000|  6,00000000000|  8,00000000000|  8,00000000000|  7,00000000000|  7,00000000000|  7,00000000000|  6,00000000000
canZem                    |  4,00000000000|  0,00000000000|  3,00000000000|  5,00000000000|  4,00000000000|  6,00000000000|  6,00000000000|  5,00000000000|  5,00000000000|  5,00000000000|  4,00000000000
yarLip                    |  3,00000000000|  3,00000000000|  0,00000000000|  4,00000000000|  5,00000000000|  7,00000000000|  7,00000000000|  6,00000000000|  6,00000000000|  6,00000000000|  5,00000000000
canSub                    |  3,00000000000|  5,00000000000|  4,00000000000|  0,00000000000|  7,00000000000|  9,00000000000|  9,00000000000|  8,00000000000|  8,00000000000|  8,00000000000|  7,00000000000
canAlb                    |  6,00000000000|  4,00000000000|  5,00000000000|  7,00000000000|  0,00000000000|  4,00000000000|  4,00000000000|  3,00000000000|  5,00000000000|  5,00000000000|  4,00000000000
canNer                    |  8,00000000000|  6,00000000000|  7,00000000000|  9,00000000000|  4,00000000000|  0,00000000000|  2,00000000000|  3,00000000000|  7,00000000000|  7,00000000000|  6,00000000000
canFri                    |  8,00000000000|  6,00000000000|  7,00000000000|  9,00000000000|  4,00000000000|  2,00000000000|  0,00000000000|  3,00000000000|  7,00000000000|  7,00000000000|  6,00000000000
canPar                    |  7,00000000000|  5,00000000000|  6,00000000000|  8,00000000000|  3,00000000000|  3,00000000000|  3,00000000000|  0,00000000000|  6,00000000000|  6,00000000000|  5,00000000000
sacPas                    |  7,00000000000|  5,00000000000|  6,00000000000|  8,00000000000|  5,00000000000|  7,00000000000|  7,00000000000|  6,00000000000|  0,00000000000|  2,00000000000|  3,00000000000
sacCer                    |  7,00000000000|  5,00000000000|  6,00000000000|  8,00000000000|  5,00000000000|  7,00000000000|  7,00000000000|  6,00000000000|  2,00000000000|  0,00000000000|  3,00000000000
sacSer                    |  6,00000000000|  4,00000000000|  5,00000000000|  7,00000000000|  4,00000000000|  6,00000000000|  6,00000000000|  5,00000000000|  3,00000000000|  3,00000000000|  0,00000000000
