                           |aspNig         |canZem         |yarLip         |canSub         |canAlb         |canNer         |canFri         |canPar         |sacPas         |sacCer         |sacSer         
aspNig                    |  0,00000000000|2521,04620904443|2521,04620904443|3424,36329969714|2521,04620904443|2521,04620904443|2521,04620904443|2521,04620904443|2521,04620904443|2521,04620904443|2521,04620904443
canZem                    |2521,04620904443|  0,00000000000|2379,13477335523|3424,36329969714|2351,46959900828|2351,46959900828|2351,46959900828|2351,46959900828|2242,58300148195|2242,58300148195|2242,58300148195
yarLip                    |2521,04620904443|2379,13477335523|  0,00000000000|3424,36329969714|2379,13477335523|2379,13477335523|2379,13477335523|2379,13477335523|2379,13477335523|2379,13477335523|2379,13477335523
canSub                    |3424,36329969714|3424,36329969714|3424,36329969714|  0,00000000000|3424,36329969714|3424,36329969714|3424,36329969714|3424,36329969714|3424,36329969714|3424,36329969714|3424,36329969714
canAlb                    |2521,04620904443|2351,46959900828|2379,13477335523|3424,36329969714|  0,00000000000|2058,82666194481|2058,82666194481|2058,82666194481|2351,46959900828|2351,46959900828|2351,46959900828
canNer                    |2521,04620904443|2351,46959900828|2379,13477335523|3424,36329969714|2058,82666194481|  0,00000000000|1269,56959864361|1956,72975407968|2351,46959900828|2351,46959900828|2351,46959900828
canFri                    |2521,04620904443|2351,46959900828|2379,13477335523|3424,36329969714|2058,82666194481|1269,56959864361|  0,00000000000|1956,72975407968|2351,46959900828|2351,46959900828|2351,46959900828
canPar                    |2521,04620904443|2351,46959900828|2379,13477335523|3424,36329969714|2058,82666194481|1956,72975407968|1956,72975407968|  0,00000000000|2351,46959900828|2351,46959900828|2351,46959900828
sacPas                    |2521,04620904443|2242,58300148195|2379,13477335523|3424,36329969714|2351,46959900828|2351,46959900828|2351,46959900828|2351,46959900828|  0,00000000000|982,34457561534|1811,43582325433
sacCer                    |2521,04620904443|2242,58300148195|2379,13477335523|3424,36329969714|2351,46959900828|2351,46959900828|2351,46959900828|2351,46959900828|982,34457561534|  0,00000000000|1811,43582325433
sacSer                    |2521,04620904443|2242,58300148195|2379,13477335523|3424,36329969714|2351,46959900828|2351,46959900828|2351,46959900828|2351,46959900828|1811,43582325433|1811,43582325433|  0,00000000000
                           |aspNig         |canZem         |yarLip         |canSub         |canAlb         |canNer         |canFri         |canPar         |sacPas         |sacCer         |sacSer         
aspNig                    |  0,00000000000| 10,08234622786| 10,08234622786| 11,80463124645| 10,08234622786| 10,08234622786| 10,08234622786| 10,08234622786| 10,08234622786| 10,08234622786| 10,08234622786
canZem                    | 10,08234622786|  0,00000000000|  9,81177463989| 11,80463124645|  9,75902758594|  9,75902758594|  9,75902758594|  9,75902758594|  9,55142190950|  9,55142190950|  9,55142190950
yarLip                    | 10,08234622786|  9,81177463989|  0,00000000000| 11,80463124645|  9,81177463989|  9,81177463989|  9,81177463989|  9,81177463989|  9,81177463989|  9,81177463989|  9,81177463989
canSub                    | 11,80463124645| 11,80463124645| 11,80463124645|  0,00000000000| 11,80463124645| 11,80463124645| 11,80463124645| 11,80463124645| 11,80463124645| 11,80463124645| 11,80463124645
canAlb                    | 10,08234622786|  9,75902758594|  9,81177463989| 11,80463124645|  0,00000000000|  9,20106787111|  9,20106787111|  9,20106787111|  9,75902758594|  9,75902758594|  9,75902758594
canNer                    | 10,08234622786|  9,75902758594|  9,81177463989| 11,80463124645|  9,20106787111|  0,00000000000|  7,69625230854|  9,00640757221|  9,75902758594|  9,75902758594|  9,75902758594
canFri                    | 10,08234622786|  9,75902758594|  9,81177463989| 11,80463124645|  9,20106787111|  7,69625230854|  0,00000000000|  9,00640757221|  9,75902758594|  9,75902758594|  9,75902758594
canPar                    | 10,08234622786|  9,75902758594|  9,81177463989| 11,80463124645|  9,20106787111|  9,00640757221|  9,00640757221|  0,00000000000|  9,75902758594|  9,75902758594|  9,75902758594
sacPas                    | 10,08234622786|  9,55142190950|  9,81177463989| 11,80463124645|  9,75902758594|  9,75902758594|  9,75902758594|  9,75902758594|  0,00000000000|  7,14862251248|  8,72938684168
sacCer                    | 10,08234622786|  9,55142190950|  9,81177463989| 11,80463124645|  9,75902758594|  9,75902758594|  9,75902758594|  9,75902758594|  7,14862251248|  0,00000000000|  8,72938684168
sacSer                    | 10,08234622786|  9,55142190950|  9,81177463989| 11,80463124645|  9,75902758594|  9,75902758594|  9,75902758594|  9,75902758594|  8,72938684168|  8,72938684168|  0,00000000000
                           |aspNig         |canZem         |yarLip         |canSub         |canAlb         |canNer         |canFri         |canPar         |sacPas         |sacCer         |sacSer         
aspNig                    |  0,00000000000|  5,00000000000|  3,00000000000|  3,00000000000|  5,00000000000|  7,00000000000|  7,00000000000|  6,00000000000|  7,00000000000|  7,00000000000|  6,00000000000
canZem                    |  5,00000000000|  0,00000000000|  4,00000000000|  6,00000000000|  4,00000000000|  6,00000000000|  6,00000000000|  5,00000000000|  4,00000000000|  4,00000000000|  3,00000000000
yarLip                    |  3,00000000000|  4,00000000000|  0,00000000000|  4,00000000000|  4,00000000000|  6,00000000000|  6,00000000000|  5,00000000000|  6,00000000000|  6,00000000000|  5,00000000000
canSub                    |  3,00000000000|  6,00000000000|  4,00000000000|  0,00000000000|  6,00000000000|  8,00000000000|  8,00000000000|  7,00000000000|  8,00000000000|  8,00000000000|  7,00000000000
canAlb                    |  5,00000000000|  4,00000000000|  4,00000000000|  6,00000000000|  0,00000000000|  4,00000000000|  4,00000000000|  3,00000000000|  6,00000000000|  6,00000000000|  5,00000000000
canNer                    |  7,00000000000|  6,00000000000|  6,00000000000|  8,00000000000|  4,00000000000|  0,00000000000|  2,00000000000|  3,00000000000|  8,00000000000|  8,00000000000|  7,00000000000
canFri                    |  7,00000000000|  6,00000000000|  6,00000000000|  8,00000000000|  4,00000000000|  2,00000000000|  0,00000000000|  3,00000000000|  8,00000000000|  8,00000000000|  7,00000000000
canPar                    |  6,00000000000|  5,00000000000|  5,00000000000|  7,00000000000|  3,00000000000|  3,00000000000|  3,00000000000|  0,00000000000|  7,00000000000|  7,00000000000|  6,00000000000
sacPas                    |  7,00000000000|  4,00000000000|  6,00000000000|  8,00000000000|  6,00000000000|  8,00000000000|  8,00000000000|  7,00000000000|  0,00000000000|  2,00000000000|  3,00000000000
sacCer                    |  7,00000000000|  4,00000000000|  6,00000000000|  8,00000000000|  6,00000000000|  8,00000000000|  8,00000000000|  7,00000000000|  2,00000000000|  0,00000000000|  3,00000000000
sacSer                    |  6,00000000000|  3,00000000000|  5,00000000000|  7,00000000000|  5,00000000000|  7,00000000000|  7,00000000000|  6,00000000000|  3,00000000000|  3,00000000000|  0,00000000000
