                           |aspNig         |canZem         |yarLip         |canSub         |canAlb         |canNer         |canFri         |canPar         |sacPas         |sacCer         |sacSer         
aspNig                    |  0,00000000000|3572,82536348204|3572,82536348204|3609,69245971578|3572,82536348204|3572,82536348204|3572,82536348204|3572,82536348204|3572,82536348204|3572,82536348204|3572,82536348204
canZem                    |3572,82536348204|  0,00000000000|3552,71431125293|3609,69245971578|3492,96613990521|3492,96613990521|3492,96613990521|3492,96613990521|3492,96613990521|3492,96613990521|3492,96613990521
yarLip                    |3572,82536348204|3552,71431125293|  0,00000000000|3609,69245971578|3552,71431125293|3552,71431125293|3552,71431125293|3552,71431125293|3552,71431125293|3552,71431125293|3552,71431125293
canSub                    |3609,69245971578|3609,69245971578|3609,69245971578|  0,00000000000|3609,69245971578|3609,69245971578|3609,69245971578|3609,69245971578|3609,69245971578|3609,69245971578|3609,69245971578
canAlb                    |3572,82536348204|3492,96613990521|3552,71431125293|3609,69245971578|  0,00000000000|2686,92717170353|2686,92717170353|2964,66427861772|3366,95571301828|3366,95571301828|3366,95571301828
canNer                    |3572,82536348204|3492,96613990521|3552,71431125293|3609,69245971578|2686,92717170353|  0,00000000000|2024,17278908717|2964,66427861772|3366,95571301828|3366,95571301828|3366,95571301828
canFri                    |3572,82536348204|3492,96613990521|3552,71431125293|3609,69245971578|2686,92717170353|2024,17278908717|  0,00000000000|2964,66427861772|3366,95571301828|3366,95571301828|3366,95571301828
canPar                    |3572,82536348204|3492,96613990521|3552,71431125293|3609,69245971578|2964,66427861772|2964,66427861772|2964,66427861772|  0,00000000000|3366,95571301828|3366,95571301828|3366,95571301828
sacPas                    |3572,82536348204|3492,96613990521|3552,71431125293|3609,69245971578|3366,95571301828|3366,95571301828|3366,95571301828|3366,95571301828|  0,00000000000|1405,27604244999|2664,93778470376
sacCer                    |3572,82536348204|3492,96613990521|3552,71431125293|3609,69245971578|3366,95571301828|3366,95571301828|3366,95571301828|3366,95571301828|1405,27604244999|  0,00000000000|2664,93778470376
sacSer                    |3572,82536348204|3492,96613990521|3552,71431125293|3609,69245971578|3366,95571301828|3366,95571301828|3366,95571301828|3366,95571301828|2664,93778470376|2664,93778470376|  0,00000000000
                           |aspNig         |canZem         |yarLip         |canSub         |canAlb         |canNer         |canFri         |canPar         |sacPas         |sacCer         |sacSer         
aspNig                    |  0,00000000000| 10,52561280586| 10,52561280586| 10,61479997877| 10,52561280586| 10,52561280586| 10,52561280586| 10,52561280586| 10,52561280586| 10,52561280586| 10,52561280586
canZem                    | 10,52561280586|  0,00000000000| 10,47696107909| 10,61479997877| 10,33242106825| 10,33242106825| 10,33242106825| 10,33242106825| 10,33242106825| 10,33242106825| 10,33242106825
yarLip                    | 10,52561280586| 10,47696107909|  0,00000000000| 10,61479997877| 10,47696107909| 10,47696107909| 10,47696107909| 10,47696107909| 10,47696107909| 10,47696107909| 10,47696107909
canSub                    | 10,61479997877| 10,61479997877| 10,61479997877|  0,00000000000| 10,61479997877| 10,61479997877| 10,61479997877| 10,61479997877| 10,61479997877| 10,61479997877| 10,61479997877
canAlb                    | 10,52561280586| 10,33242106825| 10,47696107909| 10,61479997877|  0,00000000000|  8,38248890170|  8,38248890170|  9,05437765644| 10,02758247558| 10,02758247558| 10,02758247558
canNer                    | 10,52561280586| 10,33242106825| 10,47696107909| 10,61479997877|  8,38248890170|  0,00000000000|  6,77918417306|  9,05437765644| 10,02758247558| 10,02758247558| 10,02758247558
canFri                    | 10,52561280586| 10,33242106825| 10,47696107909| 10,61479997877|  8,38248890170|  6,77918417306|  0,00000000000|  9,05437765644| 10,02758247558| 10,02758247558| 10,02758247558
canPar                    | 10,52561280586| 10,33242106825| 10,47696107909| 10,61479997877|  9,05437765644|  9,05437765644|  9,05437765644|  0,00000000000| 10,02758247558| 10,02758247558| 10,02758247558
sacPas                    | 10,52561280586| 10,33242106825| 10,47696107909| 10,61479997877| 10,02758247558| 10,02758247558| 10,02758247558| 10,02758247558|  0,00000000000|  5,28197780755|  8,32929319439
sacCer                    | 10,52561280586| 10,33242106825| 10,47696107909| 10,61479997877| 10,02758247558| 10,02758247558| 10,02758247558| 10,02758247558|  5,28197780755|  0,00000000000|  8,32929319439
sacSer                    | 10,52561280586| 10,33242106825| 10,47696107909| 10,61479997877| 10,02758247558| 10,02758247558| 10,02758247558| 10,02758247558|  8,32929319439|  8,32929319439|  0,00000000000
                           |aspNig         |canZem         |yarLip         |canSub         |canAlb         |canNer         |canFri         |canPar         |sacPas         |sacCer         |sacSer         
aspNig                    |  0,00000000000|  4,00000000000|  3,00000000000|  3,00000000000|  7,00000000000|  8,00000000000|  8,00000000000|  6,00000000000|  7,00000000000|  7,00000000000|  6,00000000000
canZem                    |  4,00000000000|  0,00000000000|  3,00000000000|  5,00000000000|  5,00000000000|  6,00000000000|  6,00000000000|  4,00000000000|  5,00000000000|  5,00000000000|  4,00000000000
yarLip                    |  3,00000000000|  3,00000000000|  0,00000000000|  4,00000000000|  6,00000000000|  7,00000000000|  7,00000000000|  5,00000000000|  6,00000000000|  6,00000000000|  5,00000000000
canSub                    |  3,00000000000|  5,00000000000|  4,00000000000|  0,00000000000|  8,00000000000|  9,00000000000|  9,00000000000|  7,00000000000|  8,00000000000|  8,00000000000|  7,00000000000
canAlb                    |  7,00000000000|  5,00000000000|  6,00000000000|  8,00000000000|  0,00000000000|  3,00000000000|  3,00000000000|  3,00000000000|  6,00000000000|  6,00000000000|  5,00000000000
canNer                    |  8,00000000000|  6,00000000000|  7,00000000000|  9,00000000000|  3,00000000000|  0,00000000000|  2,00000000000|  4,00000000000|  7,00000000000|  7,00000000000|  6,00000000000
canFri                    |  8,00000000000|  6,00000000000|  7,00000000000|  9,00000000000|  3,00000000000|  2,00000000000|  0,00000000000|  4,00000000000|  7,00000000000|  7,00000000000|  6,00000000000
canPar                    |  6,00000000000|  4,00000000000|  5,00000000000|  7,00000000000|  3,00000000000|  4,00000000000|  4,00000000000|  0,00000000000|  5,00000000000|  5,00000000000|  4,00000000000
sacPas                    |  7,00000000000|  5,00000000000|  6,00000000000|  8,00000000000|  6,00000000000|  7,00000000000|  7,00000000000|  5,00000000000|  0,00000000000|  2,00000000000|  3,00000000000
sacCer                    |  7,00000000000|  5,00000000000|  6,00000000000|  8,00000000000|  6,00000000000|  7,00000000000|  7,00000000000|  5,00000000000|  2,00000000000|  0,00000000000|  3,00000000000
sacSer                    |  6,00000000000|  4,00000000000|  5,00000000000|  7,00000000000|  5,00000000000|  6,00000000000|  6,00000000000|  4,00000000000|  3,00000000000|  3,00000000000|  0,00000000000
