 | sacSerM | sacCerM | sacPasM | canParM | canFriM | canNerM | canAlbM | canLusM | canSubM | yarLipM | canZemM | aspNigM
sacSerM | 0 | 3 | 3 | 6 | 8 | 8 | 7 | 5 | 4 | 5 | 5 | 5
sacCerM | 3 | 0 | 2 | 7 | 9 | 9 | 8 | 6 | 5 | 6 | 6 | 6
sacPasM | 3 | 2 | 0 | 7 | 9 | 9 | 8 | 6 | 5 | 6 | 6 | 6
canParM | 6 | 7 | 7 | 0 | 4 | 4 | 3 | 3 | 4 | 7 | 7 | 7
canFriM | 8 | 9 | 9 | 4 | 0 | 2 | 3 | 5 | 6 | 9 | 9 | 9
canNerM | 8 | 9 | 9 | 4 | 2 | 0 | 3 | 5 | 6 | 9 | 9 | 9
canAlbM | 7 | 8 | 8 | 3 | 3 | 3 | 0 | 4 | 5 | 8 | 8 | 8
canLusM | 5 | 6 | 6 | 3 | 5 | 5 | 4 | 0 | 3 | 6 | 6 | 6
canSubM | 4 | 5 | 5 | 4 | 6 | 6 | 5 | 3 | 0 | 5 | 5 | 5
yarLipM | 5 | 6 | 6 | 7 | 9 | 9 | 8 | 6 | 5 | 0 | 2 | 4
canZemM | 5 | 6 | 6 | 7 | 9 | 9 | 8 | 6 | 5 | 2 | 0 | 4
aspNigM | 5 | 6 | 6 | 7 | 9 | 9 | 8 | 6 | 5 | 4 | 4 | 0
