                           |Human          |P_Chim         |Com_Chim       |Gibbon         |Baboon         |Ver_Monkey     |Macaca_Thibet  |Bor_Oran       |Sum_Oran       |Gorilla        |Cat            |Dog            |Pig            |Sheep          |Goat           |Cow            |Buffalo        |Wolf           |Tiger          |Leopard        |Indian_Rhino   |White_Rhino    |Black_Bear     |Brown_Bear     |Polar_Bear     |Giant_Panda    |Rabbit         |Hedgehog       |Dormouse       |Squirrel       |Blue_Whale     
Human                     |  0,00000000000|1730,00000000000|1730,00000000000|3324,00000000000|4008,00000000000|4008,00000000000|4008,00000000000|2900,00000000000|2900,00000000000|2050,00000000000|4678,00000000000|4678,00000000000|4678,00000000000|4678,00000000000|4678,00000000000|4678,00000000000|4678,00000000000|4678,00000000000|4678,00000000000|4678,00000000000|4678,00000000000|4678,00000000000|4678,00000000000|4678,00000000000|4678,00000000000|4678,00000000000|4734,00000000000|4440,00000000000|5052,00000000000|4678,00000000000|4678,00000000000
P_Chim                    |1730,00000000000|  0,00000000000|754,00000000000|3324,00000000000|4008,00000000000|4008,00000000000|4008,00000000000|2900,00000000000|2900,00000000000|2050,00000000000|4678,00000000000|4678,00000000000|4678,00000000000|4678,00000000000|4678,00000000000|4678,00000000000|4678,00000000000|4678,00000000000|4678,00000000000|4678,00000000000|4678,00000000000|4678,00000000000|4678,00000000000|4678,00000000000|4678,00000000000|4678,00000000000|4734,00000000000|4440,00000000000|5052,00000000000|4678,00000000000|4678,00000000000
Com_Chim                  |1730,00000000000|754,00000000000|  0,00000000000|3324,00000000000|4008,00000000000|4008,00000000000|4008,00000000000|2900,00000000000|2900,00000000000|2050,00000000000|4678,00000000000|4678,00000000000|4678,00000000000|4678,00000000000|4678,00000000000|4678,00000000000|4678,00000000000|4678,00000000000|4678,00000000000|4678,00000000000|4678,00000000000|4678,00000000000|4678,00000000000|4678,00000000000|4678,00000000000|4678,00000000000|4734,00000000000|4440,00000000000|5052,00000000000|4678,00000000000|4678,00000000000
Gibbon                    |3324,00000000000|3324,00000000000|3324,00000000000|  0,00000000000|4008,00000000000|4008,00000000000|4008,00000000000|3324,00000000000|3324,00000000000|3324,00000000000|4678,00000000000|4678,00000000000|4678,00000000000|4678,00000000000|4678,00000000000|4678,00000000000|4678,00000000000|4678,00000000000|4678,00000000000|4678,00000000000|4678,00000000000|4678,00000000000|4678,00000000000|4678,00000000000|4678,00000000000|4678,00000000000|4734,00000000000|4440,00000000000|5052,00000000000|4678,00000000000|4678,00000000000
Baboon                    |4008,00000000000|4008,00000000000|4008,00000000000|4008,00000000000|  0,00000000000|3028,00000000000|3028,00000000000|4008,00000000000|4008,00000000000|4008,00000000000|4678,00000000000|4678,00000000000|4678,00000000000|4678,00000000000|4678,00000000000|4678,00000000000|4678,00000000000|4678,00000000000|4678,00000000000|4678,00000000000|4678,00000000000|4678,00000000000|4678,00000000000|4678,00000000000|4678,00000000000|4678,00000000000|4734,00000000000|4440,00000000000|5052,00000000000|4678,00000000000|4678,00000000000
Ver_Monkey                |4008,00000000000|4008,00000000000|4008,00000000000|4008,00000000000|3028,00000000000|  0,00000000000|2934,00000000000|4008,00000000000|4008,00000000000|4008,00000000000|4678,00000000000|4678,00000000000|4678,00000000000|4678,00000000000|4678,00000000000|4678,00000000000|4678,00000000000|4678,00000000000|4678,00000000000|4678,00000000000|4678,00000000000|4678,00000000000|4678,00000000000|4678,00000000000|4678,00000000000|4678,00000000000|4734,00000000000|4440,00000000000|5052,00000000000|4678,00000000000|4678,00000000000
Macaca_Thibet             |4008,00000000000|4008,00000000000|4008,00000000000|4008,00000000000|3028,00000000000|2934,00000000000|  0,00000000000|4008,00000000000|4008,00000000000|4008,00000000000|4678,00000000000|4678,00000000000|4678,00000000000|4678,00000000000|4678,00000000000|4678,00000000000|4678,00000000000|4678,00000000000|4678,00000000000|4678,00000000000|4678,00000000000|4678,00000000000|4678,00000000000|4678,00000000000|4678,00000000000|4678,00000000000|4734,00000000000|4440,00000000000|5052,00000000000|4678,00000000000|4678,00000000000
Bor_Oran                  |2900,00000000000|2900,00000000000|2900,00000000000|3324,00000000000|4008,00000000000|4008,00000000000|4008,00000000000|  0,00000000000|1272,00000000000|2900,00000000000|4678,00000000000|4678,00000000000|4678,00000000000|4678,00000000000|4678,00000000000|4678,00000000000|4678,00000000000|4678,00000000000|4678,00000000000|4678,00000000000|4678,00000000000|4678,00000000000|4678,00000000000|4678,00000000000|4678,00000000000|4678,00000000000|4734,00000000000|4440,00000000000|5052,00000000000|4678,00000000000|4678,00000000000
Sum_Oran                  |2900,00000000000|2900,00000000000|2900,00000000000|3324,00000000000|4008,00000000000|4008,00000000000|4008,00000000000|1272,00000000000|  0,00000000000|2900,00000000000|4678,00000000000|4678,00000000000|4678,00000000000|4678,00000000000|4678,00000000000|4678,00000000000|4678,00000000000|4678,00000000000|4678,00000000000|4678,00000000000|4678,00000000000|4678,00000000000|4678,00000000000|4678,00000000000|4678,00000000000|4678,00000000000|4734,00000000000|4440,00000000000|5052,00000000000|4678,00000000000|4678,00000000000
Gorilla                   |2050,00000000000|2050,00000000000|2050,00000000000|3324,00000000000|4008,00000000000|4008,00000000000|4008,00000000000|2900,00000000000|2900,00000000000|  0,00000000000|4678,00000000000|4678,00000000000|4678,00000000000|4678,00000000000|4678,00000000000|4678,00000000000|4678,00000000000|4678,00000000000|4678,00000000000|4678,00000000000|4678,00000000000|4678,00000000000|4678,00000000000|4678,00000000000|4678,00000000000|4678,00000000000|4734,00000000000|4440,00000000000|5052,00000000000|4678,00000000000|4678,00000000000
Cat                       |4678,00000000000|4678,00000000000|4678,00000000000|4678,00000000000|4678,00000000000|4678,00000000000|4678,00000000000|4678,00000000000|4678,00000000000|4678,00000000000|  0,00000000000|4006,00000000000|4092,00000000000|4092,00000000000|4092,00000000000|4092,00000000000|4092,00000000000|4006,00000000000|2312,00000000000|2312,00000000000|3962,00000000000|3962,00000000000|4226,00000000000|4226,00000000000|4226,00000000000|4226,00000000000|4734,00000000000|4678,00000000000|5052,00000000000|4432,00000000000|4092,00000000000
Dog                       |4678,00000000000|4678,00000000000|4678,00000000000|4678,00000000000|4678,00000000000|4678,00000000000|4678,00000000000|4678,00000000000|4678,00000000000|4678,00000000000|4006,00000000000|  0,00000000000|4092,00000000000|4092,00000000000|4092,00000000000|4092,00000000000|4092,00000000000|552,00000000000|4006,00000000000|4006,00000000000|4006,00000000000|4006,00000000000|4226,00000000000|4226,00000000000|4226,00000000000|4226,00000000000|4734,00000000000|4678,00000000000|5052,00000000000|4432,00000000000|4092,00000000000
Pig                       |4678,00000000000|4678,00000000000|4678,00000000000|4678,00000000000|4678,00000000000|4678,00000000000|4678,00000000000|4678,00000000000|4678,00000000000|4678,00000000000|4092,00000000000|4092,00000000000|  0,00000000000|3966,00000000000|3966,00000000000|3966,00000000000|3966,00000000000|4092,00000000000|4092,00000000000|4092,00000000000|4092,00000000000|4092,00000000000|4226,00000000000|4226,00000000000|4226,00000000000|4226,00000000000|4734,00000000000|4678,00000000000|5052,00000000000|4432,00000000000|3976,00000000000
Sheep                     |4678,00000000000|4678,00000000000|4678,00000000000|4678,00000000000|4678,00000000000|4678,00000000000|4678,00000000000|4678,00000000000|4678,00000000000|4678,00000000000|4092,00000000000|4092,00000000000|3966,00000000000|  0,00000000000|2074,00000000000|2730,00000000000|2730,00000000000|4092,00000000000|4092,00000000000|4092,00000000000|4092,00000000000|4092,00000000000|4226,00000000000|4226,00000000000|4226,00000000000|4226,00000000000|4734,00000000000|4678,00000000000|5052,00000000000|4432,00000000000|3976,00000000000
Goat                      |4678,00000000000|4678,00000000000|4678,00000000000|4678,00000000000|4678,00000000000|4678,00000000000|4678,00000000000|4678,00000000000|4678,00000000000|4678,00000000000|4092,00000000000|4092,00000000000|3966,00000000000|2074,00000000000|  0,00000000000|2730,00000000000|2730,00000000000|4092,00000000000|4092,00000000000|4092,00000000000|4092,00000000000|4092,00000000000|4226,00000000000|4226,00000000000|4226,00000000000|4226,00000000000|4734,00000000000|4678,00000000000|5052,00000000000|4432,00000000000|3976,00000000000
Cow                       |4678,00000000000|4678,00000000000|4678,00000000000|4678,00000000000|4678,00000000000|4678,00000000000|4678,00000000000|4678,00000000000|4678,00000000000|4678,00000000000|4092,00000000000|4092,00000000000|3966,00000000000|2730,00000000000|2730,00000000000|  0,00000000000|2396,00000000000|4092,00000000000|4092,00000000000|4092,00000000000|4092,00000000000|4092,00000000000|4226,00000000000|4226,00000000000|4226,00000000000|4226,00000000000|4734,00000000000|4678,00000000000|5052,00000000000|4432,00000000000|3976,00000000000
Buffalo                   |4678,00000000000|4678,00000000000|4678,00000000000|4678,00000000000|4678,00000000000|4678,00000000000|4678,00000000000|4678,00000000000|4678,00000000000|4678,00000000000|4092,00000000000|4092,00000000000|3966,00000000000|2730,00000000000|2730,00000000000|2396,00000000000|  0,00000000000|4092,00000000000|4092,00000000000|4092,00000000000|4092,00000000000|4092,00000000000|4226,00000000000|4226,00000000000|4226,00000000000|4226,00000000000|4734,00000000000|4678,00000000000|5052,00000000000|4432,00000000000|3976,00000000000
Wolf                      |4678,00000000000|4678,00000000000|4678,00000000000|4678,00000000000|4678,00000000000|4678,00000000000|4678,00000000000|4678,00000000000|4678,00000000000|4678,00000000000|4006,00000000000|552,00000000000|4092,00000000000|4092,00000000000|4092,00000000000|4092,00000000000|4092,00000000000|  0,00000000000|4006,00000000000|4006,00000000000|4006,00000000000|4006,00000000000|4226,00000000000|4226,00000000000|4226,00000000000|4226,00000000000|4734,00000000000|4678,00000000000|5052,00000000000|4432,00000000000|4092,00000000000
Tiger                     |4678,00000000000|4678,00000000000|4678,00000000000|4678,00000000000|4678,00000000000|4678,00000000000|4678,00000000000|4678,00000000000|4678,00000000000|4678,00000000000|2312,00000000000|4006,00000000000|4092,00000000000|4092,00000000000|4092,00000000000|4092,00000000000|4092,00000000000|4006,00000000000|  0,00000000000|1724,00000000000|3962,00000000000|3962,00000000000|4226,00000000000|4226,00000000000|4226,00000000000|4226,00000000000|4734,00000000000|4678,00000000000|5052,00000000000|4432,00000000000|4092,00000000000
Leopard                   |4678,00000000000|4678,00000000000|4678,00000000000|4678,00000000000|4678,00000000000|4678,00000000000|4678,00000000000|4678,00000000000|4678,00000000000|4678,00000000000|2312,00000000000|4006,00000000000|4092,00000000000|4092,00000000000|4092,00000000000|4092,00000000000|4092,00000000000|4006,00000000000|1724,00000000000|  0,00000000000|3962,00000000000|3962,00000000000|4226,00000000000|4226,00000000000|4226,00000000000|4226,00000000000|4734,00000000000|4678,00000000000|5052,00000000000|4432,00000000000|4092,00000000000
Indian_Rhino              |4678,00000000000|4678,00000000000|4678,00000000000|4678,00000000000|4678,00000000000|4678,00000000000|4678,00000000000|4678,00000000000|4678,00000000000|4678,00000000000|3962,00000000000|4006,00000000000|4092,00000000000|4092,00000000000|4092,00000000000|4092,00000000000|4092,00000000000|4006,00000000000|3962,00000000000|3962,00000000000|  0,00000000000|2222,00000000000|4226,00000000000|4226,00000000000|4226,00000000000|4226,00000000000|4734,00000000000|4678,00000000000|5052,00000000000|4432,00000000000|4092,00000000000
White_Rhino               |4678,00000000000|4678,00000000000|4678,00000000000|4678,00000000000|4678,00000000000|4678,00000000000|4678,00000000000|4678,00000000000|4678,00000000000|4678,00000000000|3962,00000000000|4006,00000000000|4092,00000000000|4092,00000000000|4092,00000000000|4092,00000000000|4092,00000000000|4006,00000000000|3962,00000000000|3962,00000000000|2222,00000000000|  0,00000000000|4226,00000000000|4226,00000000000|4226,00000000000|4226,00000000000|4734,00000000000|4678,00000000000|5052,00000000000|4432,00000000000|4092,00000000000
Black_Bear                |4678,00000000000|4678,00000000000|4678,00000000000|4678,00000000000|4678,00000000000|4678,00000000000|4678,00000000000|4678,00000000000|4678,00000000000|4678,00000000000|4226,00000000000|4226,00000000000|4226,00000000000|4226,00000000000|4226,00000000000|4226,00000000000|4226,00000000000|4226,00000000000|4226,00000000000|4226,00000000000|4226,00000000000|4226,00000000000|  0,00000000000|1658,00000000000|1658,00000000000|3368,00000000000|4734,00000000000|4678,00000000000|5052,00000000000|4432,00000000000|4226,00000000000
Brown_Bear                |4678,00000000000|4678,00000000000|4678,00000000000|4678,00000000000|4678,00000000000|4678,00000000000|4678,00000000000|4678,00000000000|4678,00000000000|4678,00000000000|4226,00000000000|4226,00000000000|4226,00000000000|4226,00000000000|4226,00000000000|4226,00000000000|4226,00000000000|4226,00000000000|4226,00000000000|4226,00000000000|4226,00000000000|4226,00000000000|1658,00000000000|  0,00000000000|396,00000000000|3368,00000000000|4734,00000000000|4678,00000000000|5052,00000000000|4432,00000000000|4226,00000000000
Polar_Bear                |4678,00000000000|4678,00000000000|4678,00000000000|4678,00000000000|4678,00000000000|4678,00000000000|4678,00000000000|4678,00000000000|4678,00000000000|4678,00000000000|4226,00000000000|4226,00000000000|4226,00000000000|4226,00000000000|4226,00000000000|4226,00000000000|4226,00000000000|4226,00000000000|4226,00000000000|4226,00000000000|4226,00000000000|4226,00000000000|1658,00000000000|396,00000000000|  0,00000000000|3368,00000000000|4734,00000000000|4678,00000000000|5052,00000000000|4432,00000000000|4226,00000000000
Giant_Panda               |4678,00000000000|4678,00000000000|4678,00000000000|4678,00000000000|4678,00000000000|4678,00000000000|4678,00000000000|4678,00000000000|4678,00000000000|4678,00000000000|4226,00000000000|4226,00000000000|4226,00000000000|4226,00000000000|4226,00000000000|4226,00000000000|4226,00000000000|4226,00000000000|4226,00000000000|4226,00000000000|4226,00000000000|4226,00000000000|3368,00000000000|3368,00000000000|3368,00000000000|  0,00000000000|4734,00000000000|4678,00000000000|5052,00000000000|4432,00000000000|4226,00000000000
Rabbit                    |4734,00000000000|4734,00000000000|4734,00000000000|4734,00000000000|4734,00000000000|4734,00000000000|4734,00000000000|4734,00000000000|4734,00000000000|4734,00000000000|4734,00000000000|4734,00000000000|4734,00000000000|4734,00000000000|4734,00000000000|4734,00000000000|4734,00000000000|4734,00000000000|4734,00000000000|4734,00000000000|4734,00000000000|4734,00000000000|4734,00000000000|4734,00000000000|4734,00000000000|4734,00000000000|  0,00000000000|4734,00000000000|5052,00000000000|4734,00000000000|4734,00000000000
Hedgehog                  |4440,00000000000|4440,00000000000|4440,00000000000|4440,00000000000|4440,00000000000|4440,00000000000|4440,00000000000|4440,00000000000|4440,00000000000|4440,00000000000|4678,00000000000|4678,00000000000|4678,00000000000|4678,00000000000|4678,00000000000|4678,00000000000|4678,00000000000|4678,00000000000|4678,00000000000|4678,00000000000|4678,00000000000|4678,00000000000|4678,00000000000|4678,00000000000|4678,00000000000|4678,00000000000|4734,00000000000|  0,00000000000|5052,00000000000|4678,00000000000|4678,00000000000
Dormouse                  |5052,00000000000|5052,00000000000|5052,00000000000|5052,00000000000|5052,00000000000|5052,00000000000|5052,00000000000|5052,00000000000|5052,00000000000|5052,00000000000|5052,00000000000|5052,00000000000|5052,00000000000|5052,00000000000|5052,00000000000|5052,00000000000|5052,00000000000|5052,00000000000|5052,00000000000|5052,00000000000|5052,00000000000|5052,00000000000|5052,00000000000|5052,00000000000|5052,00000000000|5052,00000000000|5052,00000000000|5052,00000000000|  0,00000000000|5052,00000000000|5052,00000000000
Squirrel                  |4678,00000000000|4678,00000000000|4678,00000000000|4678,00000000000|4678,00000000000|4678,00000000000|4678,00000000000|4678,00000000000|4678,00000000000|4678,00000000000|4432,00000000000|4432,00000000000|4432,00000000000|4432,00000000000|4432,00000000000|4432,00000000000|4432,00000000000|4432,00000000000|4432,00000000000|4432,00000000000|4432,00000000000|4432,00000000000|4432,00000000000|4432,00000000000|4432,00000000000|4432,00000000000|4734,00000000000|4678,00000000000|5052,00000000000|  0,00000000000|4432,00000000000
Blue_Whale                |4678,00000000000|4678,00000000000|4678,00000000000|4678,00000000000|4678,00000000000|4678,00000000000|4678,00000000000|4678,00000000000|4678,00000000000|4678,00000000000|4092,00000000000|4092,00000000000|3976,00000000000|3976,00000000000|3976,00000000000|3976,00000000000|3976,00000000000|4092,00000000000|4092,00000000000|4092,00000000000|4092,00000000000|4092,00000000000|4226,00000000000|4226,00000000000|4226,00000000000|4226,00000000000|4734,00000000000|4678,00000000000|5052,00000000000|4432,00000000000|  0,00000000000
                           |Human          |P_Chim         |Com_Chim       |Gibbon         |Baboon         |Ver_Monkey     |Macaca_Thibet  |Bor_Oran       |Sum_Oran       |Gorilla        |Cat            |Dog            |Pig            |Sheep          |Goat           |Cow            |Buffalo        |Wolf           |Tiger          |Leopard        |Indian_Rhino   |White_Rhino    |Black_Bear     |Brown_Bear     |Polar_Bear     |Giant_Panda    |Rabbit         |Hedgehog       |Dormouse       |Squirrel       |Blue_Whale     
Human                     |  0,00000000000|  6,19818378959|  6,19818378959|  8,53122419829|  9,53235320678|  9,53235320678|  9,53235320678|  7,91064130413|  7,91064130413|  6,66654823801| 10,51299127066| 10,51299127066| 10,51299127066| 10,51299127066| 10,51299127066| 10,51299127066| 10,51299127066| 10,51299127066| 10,51299127066| 10,51299127066| 10,51299127066| 10,51299127066| 10,51299127066| 10,51299127066| 10,51299127066| 10,51299127066| 10,59495504914| 10,16464521215| 11,06039221975| 10,51299127066| 10,51299127066
P_Chim                    |  6,19818378959|  0,00000000000|  4,76967222191|  8,53122419829|  9,53235320678|  9,53235320678|  9,53235320678|  7,91064130413|  7,91064130413|  6,66654823801| 10,51299127066| 10,51299127066| 10,51299127066| 10,51299127066| 10,51299127066| 10,51299127066| 10,51299127066| 10,51299127066| 10,51299127066| 10,51299127066| 10,51299127066| 10,51299127066| 10,51299127066| 10,51299127066| 10,51299127066| 10,51299127066| 10,59495504914| 10,16464521215| 11,06039221975| 10,51299127066| 10,51299127066
Com_Chim                  |  6,19818378959|  4,76967222191|  0,00000000000|  8,53122419829|  9,53235320678|  9,53235320678|  9,53235320678|  7,91064130413|  7,91064130413|  6,66654823801| 10,51299127066| 10,51299127066| 10,51299127066| 10,51299127066| 10,51299127066| 10,51299127066| 10,51299127066| 10,51299127066| 10,51299127066| 10,51299127066| 10,51299127066| 10,51299127066| 10,51299127066| 10,51299127066| 10,51299127066| 10,51299127066| 10,59495504914| 10,16464521215| 11,06039221975| 10,51299127066| 10,51299127066
Gibbon                    |  8,53122419829|  8,53122419829|  8,53122419829|  0,00000000000|  9,53235320678|  9,53235320678|  9,53235320678|  8,53122419829|  8,53122419829|  8,53122419829| 10,51299127066| 10,51299127066| 10,51299127066| 10,51299127066| 10,51299127066| 10,51299127066| 10,51299127066| 10,51299127066| 10,51299127066| 10,51299127066| 10,51299127066| 10,51299127066| 10,51299127066| 10,51299127066| 10,51299127066| 10,51299127066| 10,59495504914| 10,16464521215| 11,06039221975| 10,51299127066| 10,51299127066
Baboon                    |  9,53235320678|  9,53235320678|  9,53235320678|  9,53235320678|  0,00000000000|  8,09798708350|  8,09798708350|  9,53235320678|  9,53235320678|  9,53235320678| 10,51299127066| 10,51299127066| 10,51299127066| 10,51299127066| 10,51299127066| 10,51299127066| 10,51299127066| 10,51299127066| 10,51299127066| 10,51299127066| 10,51299127066| 10,51299127066| 10,51299127066| 10,51299127066| 10,51299127066| 10,51299127066| 10,59495504914| 10,16464521215| 11,06039221975| 10,51299127066| 10,51299127066
Ver_Monkey                |  9,53235320678|  9,53235320678|  9,53235320678|  9,53235320678|  8,09798708350|  0,00000000000|  7,96040502677|  9,53235320678|  9,53235320678|  9,53235320678| 10,51299127066| 10,51299127066| 10,51299127066| 10,51299127066| 10,51299127066| 10,51299127066| 10,51299127066| 10,51299127066| 10,51299127066| 10,51299127066| 10,51299127066| 10,51299127066| 10,51299127066| 10,51299127066| 10,51299127066| 10,51299127066| 10,59495504914| 10,16464521215| 11,06039221975| 10,51299127066| 10,51299127066
Macaca_Thibet             |  9,53235320678|  9,53235320678|  9,53235320678|  9,53235320678|  8,09798708350|  7,96040502677|  0,00000000000|  9,53235320678|  9,53235320678|  9,53235320678| 10,51299127066| 10,51299127066| 10,51299127066| 10,51299127066| 10,51299127066| 10,51299127066| 10,51299127066| 10,51299127066| 10,51299127066| 10,51299127066| 10,51299127066| 10,51299127066| 10,51299127066| 10,51299127066| 10,51299127066| 10,51299127066| 10,59495504914| 10,16464521215| 11,06039221975| 10,51299127066| 10,51299127066
Bor_Oran                  |  7,91064130413|  7,91064130413|  7,91064130413|  8,53122419829|  9,53235320678|  9,53235320678|  9,53235320678|  0,00000000000|  5,52783717279|  7,91064130413| 10,51299127066| 10,51299127066| 10,51299127066| 10,51299127066| 10,51299127066| 10,51299127066| 10,51299127066| 10,51299127066| 10,51299127066| 10,51299127066| 10,51299127066| 10,51299127066| 10,51299127066| 10,51299127066| 10,51299127066| 10,51299127066| 10,59495504914| 10,16464521215| 11,06039221975| 10,51299127066| 10,51299127066
Sum_Oran                  |  7,91064130413|  7,91064130413|  7,91064130413|  8,53122419829|  9,53235320678|  9,53235320678|  9,53235320678|  5,52783717279|  0,00000000000|  7,91064130413| 10,51299127066| 10,51299127066| 10,51299127066| 10,51299127066| 10,51299127066| 10,51299127066| 10,51299127066| 10,51299127066| 10,51299127066| 10,51299127066| 10,51299127066| 10,51299127066| 10,51299127066| 10,51299127066| 10,51299127066| 10,51299127066| 10,59495504914| 10,16464521215| 11,06039221975| 10,51299127066| 10,51299127066
Gorilla                   |  6,66654823801|  6,66654823801|  6,66654823801|  8,53122419829|  9,53235320678|  9,53235320678|  9,53235320678|  7,91064130413|  7,91064130413|  0,00000000000| 10,51299127066| 10,51299127066| 10,51299127066| 10,51299127066| 10,51299127066| 10,51299127066| 10,51299127066| 10,51299127066| 10,51299127066| 10,51299127066| 10,51299127066| 10,51299127066| 10,51299127066| 10,51299127066| 10,51299127066| 10,51299127066| 10,59495504914| 10,16464521215| 11,06039221975| 10,51299127066| 10,51299127066
Cat                       | 10,51299127066| 10,51299127066| 10,51299127066| 10,51299127066| 10,51299127066| 10,51299127066| 10,51299127066| 10,51299127066| 10,51299127066| 10,51299127066|  0,00000000000|  9,52942592898|  9,65529887449|  9,65529887449|  9,65529887449|  9,65529887449|  9,65529887449|  9,52942592898|  7,05002163016|  7,05002163016|  9,46502581732|  9,46502581732|  9,85142648727|  9,85142648727|  9,85142648727|  9,85142648727| 10,59495504914| 10,51299127066| 11,06039221975| 10,15293610094|  9,65529887449
Dog                       | 10,51299127066| 10,51299127066| 10,51299127066| 10,51299127066| 10,51299127066| 10,51299127066| 10,51299127066| 10,51299127066| 10,51299127066| 10,51299127066|  9,52942592898|  0,00000000000|  9,65529887449|  9,65529887449|  9,65529887449|  9,65529887449|  9,65529887449|  4,47401716385|  9,52942592898|  9,52942592898|  9,52942592898|  9,52942592898|  9,85142648727|  9,85142648727|  9,85142648727|  9,85142648727| 10,59495504914| 10,51299127066| 11,06039221975| 10,15293610094|  9,65529887449
Pig                       | 10,51299127066| 10,51299127066| 10,51299127066| 10,51299127066| 10,51299127066| 10,51299127066| 10,51299127066| 10,51299127066| 10,51299127066| 10,51299127066|  9,65529887449|  9,65529887449|  0,00000000000|  9,47088037293|  9,47088037293|  9,47088037293|  9,47088037293|  9,65529887449|  9,65529887449|  9,65529887449|  9,65529887449|  9,65529887449|  9,85142648727|  9,85142648727|  9,85142648727|  9,85142648727| 10,59495504914| 10,51299127066| 11,06039221975| 10,15293610094|  9,48551676194
Sheep                     | 10,51299127066| 10,51299127066| 10,51299127066| 10,51299127066| 10,51299127066| 10,51299127066| 10,51299127066| 10,51299127066| 10,51299127066| 10,51299127066|  9,65529887449|  9,65529887449|  9,47088037293|  0,00000000000|  6,70167557165|  7,66182269091|  7,66182269091|  9,65529887449|  9,65529887449|  9,65529887449|  9,65529887449|  9,65529887449|  9,85142648727|  9,85142648727|  9,85142648727|  9,85142648727| 10,59495504914| 10,51299127066| 11,06039221975| 10,15293610094|  9,48551676194
Goat                      | 10,51299127066| 10,51299127066| 10,51299127066| 10,51299127066| 10,51299127066| 10,51299127066| 10,51299127066| 10,51299127066| 10,51299127066| 10,51299127066|  9,65529887449|  9,65529887449|  9,47088037293|  6,70167557165|  0,00000000000|  7,66182269091|  7,66182269091|  9,65529887449|  9,65529887449|  9,65529887449|  9,65529887449|  9,65529887449|  9,85142648727|  9,85142648727|  9,85142648727|  9,85142648727| 10,59495504914| 10,51299127066| 11,06039221975| 10,15293610094|  9,48551676194
Cow                       | 10,51299127066| 10,51299127066| 10,51299127066| 10,51299127066| 10,51299127066| 10,51299127066| 10,51299127066| 10,51299127066| 10,51299127066| 10,51299127066|  9,65529887449|  9,65529887449|  9,47088037293|  7,66182269091|  7,66182269091|  0,00000000000|  7,17296729787|  9,65529887449|  9,65529887449|  9,65529887449|  9,65529887449|  9,65529887449|  9,85142648727|  9,85142648727|  9,85142648727|  9,85142648727| 10,59495504914| 10,51299127066| 11,06039221975| 10,15293610094|  9,48551676194
Buffalo                   | 10,51299127066| 10,51299127066| 10,51299127066| 10,51299127066| 10,51299127066| 10,51299127066| 10,51299127066| 10,51299127066| 10,51299127066| 10,51299127066|  9,65529887449|  9,65529887449|  9,47088037293|  7,66182269091|  7,66182269091|  7,17296729787|  0,00000000000|  9,65529887449|  9,65529887449|  9,65529887449|  9,65529887449|  9,65529887449|  9,85142648727|  9,85142648727|  9,85142648727|  9,85142648727| 10,59495504914| 10,51299127066| 11,06039221975| 10,15293610094|  9,48551676194
Wolf                      | 10,51299127066| 10,51299127066| 10,51299127066| 10,51299127066| 10,51299127066| 10,51299127066| 10,51299127066| 10,51299127066| 10,51299127066| 10,51299127066|  9,52942592898|  4,47401716385|  9,65529887449|  9,65529887449|  9,65529887449|  9,65529887449|  9,65529887449|  0,00000000000|  9,52942592898|  9,52942592898|  9,52942592898|  9,52942592898|  9,85142648727|  9,85142648727|  9,85142648727|  9,85142648727| 10,59495504914| 10,51299127066| 11,06039221975| 10,15293610094|  9,65529887449
Tiger                     | 10,51299127066| 10,51299127066| 10,51299127066| 10,51299127066| 10,51299127066| 10,51299127066| 10,51299127066| 10,51299127066| 10,51299127066| 10,51299127066|  7,05002163016|  9,52942592898|  9,65529887449|  9,65529887449|  9,65529887449|  9,65529887449|  9,65529887449|  9,52942592898|  0,00000000000|  6,18940195619|  9,46502581732|  9,46502581732|  9,85142648727|  9,85142648727|  9,85142648727|  9,85142648727| 10,59495504914| 10,51299127066| 11,06039221975| 10,15293610094|  9,65529887449
Leopard                   | 10,51299127066| 10,51299127066| 10,51299127066| 10,51299127066| 10,51299127066| 10,51299127066| 10,51299127066| 10,51299127066| 10,51299127066| 10,51299127066|  7,05002163016|  9,52942592898|  9,65529887449|  9,65529887449|  9,65529887449|  9,65529887449|  9,65529887449|  9,52942592898|  6,18940195619|  0,00000000000|  9,46502581732|  9,46502581732|  9,85142648727|  9,85142648727|  9,85142648727|  9,85142648727| 10,59495504914| 10,51299127066| 11,06039221975| 10,15293610094|  9,65529887449
Indian_Rhino              | 10,51299127066| 10,51299127066| 10,51299127066| 10,51299127066| 10,51299127066| 10,51299127066| 10,51299127066| 10,51299127066| 10,51299127066| 10,51299127066|  9,46502581732|  9,52942592898|  9,65529887449|  9,65529887449|  9,65529887449|  9,65529887449|  9,65529887449|  9,52942592898|  9,46502581732|  9,46502581732|  0,00000000000|  6,91829412904|  9,85142648727|  9,85142648727|  9,85142648727|  9,85142648727| 10,59495504914| 10,51299127066| 11,06039221975| 10,15293610094|  9,65529887449
White_Rhino               | 10,51299127066| 10,51299127066| 10,51299127066| 10,51299127066| 10,51299127066| 10,51299127066| 10,51299127066| 10,51299127066| 10,51299127066| 10,51299127066|  9,46502581732|  9,52942592898|  9,65529887449|  9,65529887449|  9,65529887449|  9,65529887449|  9,65529887449|  9,52942592898|  9,46502581732|  9,46502581732|  6,91829412904|  0,00000000000|  9,85142648727|  9,85142648727|  9,85142648727|  9,85142648727| 10,59495504914| 10,51299127066| 11,06039221975| 10,15293610094|  9,65529887449
Black_Bear                | 10,51299127066| 10,51299127066| 10,51299127066| 10,51299127066| 10,51299127066| 10,51299127066| 10,51299127066| 10,51299127066| 10,51299127066| 10,51299127066|  9,85142648727|  9,85142648727|  9,85142648727|  9,85142648727|  9,85142648727|  9,85142648727|  9,85142648727|  9,85142648727|  9,85142648727|  9,85142648727|  9,85142648727|  9,85142648727|  0,00000000000|  6,09280178870|  6,09280178870|  8,59562430994| 10,59495504914| 10,51299127066| 11,06039221975| 10,15293610094|  9,85142648727
Brown_Bear                | 10,51299127066| 10,51299127066| 10,51299127066| 10,51299127066| 10,51299127066| 10,51299127066| 10,51299127066| 10,51299127066| 10,51299127066| 10,51299127066|  9,85142648727|  9,85142648727|  9,85142648727|  9,85142648727|  9,85142648727|  9,85142648727|  9,85142648727|  9,85142648727|  9,85142648727|  9,85142648727|  9,85142648727|  9,85142648727|  6,09280178870|  0,00000000000|  4,24568949524|  8,59562430994| 10,59495504914| 10,51299127066| 11,06039221975| 10,15293610094|  9,85142648727
Polar_Bear                | 10,51299127066| 10,51299127066| 10,51299127066| 10,51299127066| 10,51299127066| 10,51299127066| 10,51299127066| 10,51299127066| 10,51299127066| 10,51299127066|  9,85142648727|  9,85142648727|  9,85142648727|  9,85142648727|  9,85142648727|  9,85142648727|  9,85142648727|  9,85142648727|  9,85142648727|  9,85142648727|  9,85142648727|  9,85142648727|  6,09280178870|  4,24568949524|  0,00000000000|  8,59562430994| 10,59495504914| 10,51299127066| 11,06039221975| 10,15293610094|  9,85142648727
Giant_Panda               | 10,51299127066| 10,51299127066| 10,51299127066| 10,51299127066| 10,51299127066| 10,51299127066| 10,51299127066| 10,51299127066| 10,51299127066| 10,51299127066|  9,85142648727|  9,85142648727|  9,85142648727|  9,85142648727|  9,85142648727|  9,85142648727|  9,85142648727|  9,85142648727|  9,85142648727|  9,85142648727|  9,85142648727|  9,85142648727|  8,59562430994|  8,59562430994|  8,59562430994|  0,00000000000| 10,59495504914| 10,51299127066| 11,06039221975| 10,15293610094|  9,85142648727
Rabbit                    | 10,59495504914| 10,59495504914| 10,59495504914| 10,59495504914| 10,59495504914| 10,59495504914| 10,59495504914| 10,59495504914| 10,59495504914| 10,59495504914| 10,59495504914| 10,59495504914| 10,59495504914| 10,59495504914| 10,59495504914| 10,59495504914| 10,59495504914| 10,59495504914| 10,59495504914| 10,59495504914| 10,59495504914| 10,59495504914| 10,59495504914| 10,59495504914| 10,59495504914| 10,59495504914|  0,00000000000| 10,59495504914| 11,06039221975| 10,59495504914| 10,59495504914
Hedgehog                  | 10,16464521215| 10,16464521215| 10,16464521215| 10,16464521215| 10,16464521215| 10,16464521215| 10,16464521215| 10,16464521215| 10,16464521215| 10,16464521215| 10,51299127066| 10,51299127066| 10,51299127066| 10,51299127066| 10,51299127066| 10,51299127066| 10,51299127066| 10,51299127066| 10,51299127066| 10,51299127066| 10,51299127066| 10,51299127066| 10,51299127066| 10,51299127066| 10,51299127066| 10,51299127066| 10,59495504914|  0,00000000000| 11,06039221975| 10,51299127066| 10,51299127066
Dormouse                  | 11,06039221975| 11,06039221975| 11,06039221975| 11,06039221975| 11,06039221975| 11,06039221975| 11,06039221975| 11,06039221975| 11,06039221975| 11,06039221975| 11,06039221975| 11,06039221975| 11,06039221975| 11,06039221975| 11,06039221975| 11,06039221975| 11,06039221975| 11,06039221975| 11,06039221975| 11,06039221975| 11,06039221975| 11,06039221975| 11,06039221975| 11,06039221975| 11,06039221975| 11,06039221975| 11,06039221975| 11,06039221975|  0,00000000000| 11,06039221975| 11,06039221975
Squirrel                  | 10,51299127066| 10,51299127066| 10,51299127066| 10,51299127066| 10,51299127066| 10,51299127066| 10,51299127066| 10,51299127066| 10,51299127066| 10,51299127066| 10,15293610094| 10,15293610094| 10,15293610094| 10,15293610094| 10,15293610094| 10,15293610094| 10,15293610094| 10,15293610094| 10,15293610094| 10,15293610094| 10,15293610094| 10,15293610094| 10,15293610094| 10,15293610094| 10,15293610094| 10,15293610094| 10,59495504914| 10,51299127066| 11,06039221975|  0,00000000000| 10,15293610094
Blue_Whale                | 10,51299127066| 10,51299127066| 10,51299127066| 10,51299127066| 10,51299127066| 10,51299127066| 10,51299127066| 10,51299127066| 10,51299127066| 10,51299127066|  9,65529887449|  9,65529887449|  9,48551676194|  9,48551676194|  9,48551676194|  9,48551676194|  9,48551676194|  9,65529887449|  9,65529887449|  9,65529887449|  9,65529887449|  9,65529887449|  9,85142648727|  9,85142648727|  9,85142648727|  9,85142648727| 10,59495504914| 10,51299127066| 11,06039221975| 10,15293610094|  0,00000000000
                           |Human          |P_Chim         |Com_Chim       |Gibbon         |Baboon         |Ver_Monkey     |Macaca_Thibet  |Bor_Oran       |Sum_Oran       |Gorilla        |Cat            |Dog            |Pig            |Sheep          |Goat           |Cow            |Buffalo        |Wolf           |Tiger          |Leopard        |Indian_Rhino   |White_Rhino    |Black_Bear     |Brown_Bear     |Polar_Bear     |Giant_Panda    |Rabbit         |Hedgehog       |Dormouse       |Squirrel       |Blue_Whale     
Human                     |  0,00000000000|  3,00000000000|  3,00000000000|  5,00000000000|  7,00000000000|  8,00000000000|  8,00000000000|  5,00000000000|  5,00000000000|  3,00000000000| 14,00000000000| 13,00000000000| 13,00000000000| 15,00000000000| 15,00000000000| 15,00000000000| 15,00000000000| 13,00000000000| 15,00000000000| 15,00000000000| 14,00000000000| 14,00000000000| 12,00000000000| 13,00000000000| 13,00000000000| 11,00000000000|  9,00000000000|  7,00000000000| 10,00000000000|  9,00000000000| 12,00000000000
P_Chim                    |  3,00000000000|  0,00000000000|  2,00000000000|  6,00000000000|  8,00000000000|  9,00000000000|  9,00000000000|  6,00000000000|  6,00000000000|  4,00000000000| 15,00000000000| 14,00000000000| 14,00000000000| 16,00000000000| 16,00000000000| 16,00000000000| 16,00000000000| 14,00000000000| 16,00000000000| 16,00000000000| 15,00000000000| 15,00000000000| 13,00000000000| 14,00000000000| 14,00000000000| 12,00000000000| 10,00000000000|  8,00000000000| 11,00000000000| 10,00000000000| 13,00000000000
Com_Chim                  |  3,00000000000|  2,00000000000|  0,00000000000|  6,00000000000|  8,00000000000|  9,00000000000|  9,00000000000|  6,00000000000|  6,00000000000|  4,00000000000| 15,00000000000| 14,00000000000| 14,00000000000| 16,00000000000| 16,00000000000| 16,00000000000| 16,00000000000| 14,00000000000| 16,00000000000| 16,00000000000| 15,00000000000| 15,00000000000| 13,00000000000| 14,00000000000| 14,00000000000| 12,00000000000| 10,00000000000|  8,00000000000| 11,00000000000| 10,00000000000| 13,00000000000
Gibbon                    |  5,00000000000|  6,00000000000|  6,00000000000|  0,00000000000|  4,00000000000|  5,00000000000|  5,00000000000|  4,00000000000|  4,00000000000|  4,00000000000| 11,00000000000| 10,00000000000| 10,00000000000| 12,00000000000| 12,00000000000| 12,00000000000| 12,00000000000| 10,00000000000| 12,00000000000| 12,00000000000| 11,00000000000| 11,00000000000|  9,00000000000| 10,00000000000| 10,00000000000|  8,00000000000|  6,00000000000|  4,00000000000|  7,00000000000|  6,00000000000|  9,00000000000
Baboon                    |  7,00000000000|  8,00000000000|  8,00000000000|  4,00000000000|  0,00000000000|  3,00000000000|  3,00000000000|  6,00000000000|  6,00000000000|  6,00000000000| 11,00000000000| 10,00000000000| 10,00000000000| 12,00000000000| 12,00000000000| 12,00000000000| 12,00000000000| 10,00000000000| 12,00000000000| 12,00000000000| 11,00000000000| 11,00000000000|  9,00000000000| 10,00000000000| 10,00000000000|  8,00000000000|  6,00000000000|  4,00000000000|  7,00000000000|  6,00000000000|  9,00000000000
Ver_Monkey                |  8,00000000000|  9,00000000000|  9,00000000000|  5,00000000000|  3,00000000000|  0,00000000000|  2,00000000000|  7,00000000000|  7,00000000000|  7,00000000000| 12,00000000000| 11,00000000000| 11,00000000000| 13,00000000000| 13,00000000000| 13,00000000000| 13,00000000000| 11,00000000000| 13,00000000000| 13,00000000000| 12,00000000000| 12,00000000000| 10,00000000000| 11,00000000000| 11,00000000000|  9,00000000000|  7,00000000000|  5,00000000000|  8,00000000000|  7,00000000000| 10,00000000000
Macaca_Thibet             |  8,00000000000|  9,00000000000|  9,00000000000|  5,00000000000|  3,00000000000|  2,00000000000|  0,00000000000|  7,00000000000|  7,00000000000|  7,00000000000| 12,00000000000| 11,00000000000| 11,00000000000| 13,00000000000| 13,00000000000| 13,00000000000| 13,00000000000| 11,00000000000| 13,00000000000| 13,00000000000| 12,00000000000| 12,00000000000| 10,00000000000| 11,00000000000| 11,00000000000|  9,00000000000|  7,00000000000|  5,00000000000|  8,00000000000|  7,00000000000| 10,00000000000
Bor_Oran                  |  5,00000000000|  6,00000000000|  6,00000000000|  4,00000000000|  6,00000000000|  7,00000000000|  7,00000000000|  0,00000000000|  2,00000000000|  4,00000000000| 13,00000000000| 12,00000000000| 12,00000000000| 14,00000000000| 14,00000000000| 14,00000000000| 14,00000000000| 12,00000000000| 14,00000000000| 14,00000000000| 13,00000000000| 13,00000000000| 11,00000000000| 12,00000000000| 12,00000000000| 10,00000000000|  8,00000000000|  6,00000000000|  9,00000000000|  8,00000000000| 11,00000000000
Sum_Oran                  |  5,00000000000|  6,00000000000|  6,00000000000|  4,00000000000|  6,00000000000|  7,00000000000|  7,00000000000|  2,00000000000|  0,00000000000|  4,00000000000| 13,00000000000| 12,00000000000| 12,00000000000| 14,00000000000| 14,00000000000| 14,00000000000| 14,00000000000| 12,00000000000| 14,00000000000| 14,00000000000| 13,00000000000| 13,00000000000| 11,00000000000| 12,00000000000| 12,00000000000| 10,00000000000|  8,00000000000|  6,00000000000|  9,00000000000|  8,00000000000| 11,00000000000
Gorilla                   |  3,00000000000|  4,00000000000|  4,00000000000|  4,00000000000|  6,00000000000|  7,00000000000|  7,00000000000|  4,00000000000|  4,00000000000|  0,00000000000| 13,00000000000| 12,00000000000| 12,00000000000| 14,00000000000| 14,00000000000| 14,00000000000| 14,00000000000| 12,00000000000| 14,00000000000| 14,00000000000| 13,00000000000| 13,00000000000| 11,00000000000| 12,00000000000| 12,00000000000| 10,00000000000|  8,00000000000|  6,00000000000|  9,00000000000|  8,00000000000| 11,00000000000
Cat                       | 14,00000000000| 15,00000000000| 15,00000000000| 11,00000000000| 11,00000000000| 12,00000000000| 12,00000000000| 13,00000000000| 13,00000000000| 13,00000000000|  0,00000000000|  5,00000000000|  7,00000000000|  9,00000000000|  9,00000000000|  9,00000000000|  9,00000000000|  5,00000000000|  3,00000000000|  3,00000000000|  4,00000000000|  4,00000000000|  8,00000000000|  9,00000000000|  9,00000000000|  7,00000000000|  9,00000000000|  9,00000000000| 10,00000000000|  7,00000000000|  6,00000000000
Dog                       | 13,00000000000| 14,00000000000| 14,00000000000| 10,00000000000| 10,00000000000| 11,00000000000| 11,00000000000| 12,00000000000| 12,00000000000| 12,00000000000|  5,00000000000|  0,00000000000|  6,00000000000|  8,00000000000|  8,00000000000|  8,00000000000|  8,00000000000|  2,00000000000|  6,00000000000|  6,00000000000|  5,00000000000|  5,00000000000|  7,00000000000|  8,00000000000|  8,00000000000|  6,00000000000|  8,00000000000|  8,00000000000|  9,00000000000|  6,00000000000|  5,00000000000
Pig                       | 13,00000000000| 14,00000000000| 14,00000000000| 10,00000000000| 10,00000000000| 11,00000000000| 11,00000000000| 12,00000000000| 12,00000000000| 12,00000000000|  7,00000000000|  6,00000000000|  0,00000000000|  4,00000000000|  4,00000000000|  4,00000000000|  4,00000000000|  6,00000000000|  8,00000000000|  8,00000000000|  7,00000000000|  7,00000000000|  7,00000000000|  8,00000000000|  8,00000000000|  6,00000000000|  8,00000000000|  8,00000000000|  9,00000000000|  6,00000000000|  3,00000000000
Sheep                     | 15,00000000000| 16,00000000000| 16,00000000000| 12,00000000000| 12,00000000000| 13,00000000000| 13,00000000000| 14,00000000000| 14,00000000000| 14,00000000000|  9,00000000000|  8,00000000000|  4,00000000000|  0,00000000000|  2,00000000000|  4,00000000000|  4,00000000000|  8,00000000000| 10,00000000000| 10,00000000000|  9,00000000000|  9,00000000000|  9,00000000000| 10,00000000000| 10,00000000000|  8,00000000000| 10,00000000000| 10,00000000000| 11,00000000000|  8,00000000000|  5,00000000000
Goat                      | 15,00000000000| 16,00000000000| 16,00000000000| 12,00000000000| 12,00000000000| 13,00000000000| 13,00000000000| 14,00000000000| 14,00000000000| 14,00000000000|  9,00000000000|  8,00000000000|  4,00000000000|  2,00000000000|  0,00000000000|  4,00000000000|  4,00000000000|  8,00000000000| 10,00000000000| 10,00000000000|  9,00000000000|  9,00000000000|  9,00000000000| 10,00000000000| 10,00000000000|  8,00000000000| 10,00000000000| 10,00000000000| 11,00000000000|  8,00000000000|  5,00000000000
Cow                       | 15,00000000000| 16,00000000000| 16,00000000000| 12,00000000000| 12,00000000000| 13,00000000000| 13,00000000000| 14,00000000000| 14,00000000000| 14,00000000000|  9,00000000000|  8,00000000000|  4,00000000000|  4,00000000000|  4,00000000000|  0,00000000000|  2,00000000000|  8,00000000000| 10,00000000000| 10,00000000000|  9,00000000000|  9,00000000000|  9,00000000000| 10,00000000000| 10,00000000000|  8,00000000000| 10,00000000000| 10,00000000000| 11,00000000000|  8,00000000000|  5,00000000000
Buffalo                   | 15,00000000000| 16,00000000000| 16,00000000000| 12,00000000000| 12,00000000000| 13,00000000000| 13,00000000000| 14,00000000000| 14,00000000000| 14,00000000000|  9,00000000000|  8,00000000000|  4,00000000000|  4,00000000000|  4,00000000000|  2,00000000000|  0,00000000000|  8,00000000000| 10,00000000000| 10,00000000000|  9,00000000000|  9,00000000000|  9,00000000000| 10,00000000000| 10,00000000000|  8,00000000000| 10,00000000000| 10,00000000000| 11,00000000000|  8,00000000000|  5,00000000000
Wolf                      | 13,00000000000| 14,00000000000| 14,00000000000| 10,00000000000| 10,00000000000| 11,00000000000| 11,00000000000| 12,00000000000| 12,00000000000| 12,00000000000|  5,00000000000|  2,00000000000|  6,00000000000|  8,00000000000|  8,00000000000|  8,00000000000|  8,00000000000|  0,00000000000|  6,00000000000|  6,00000000000|  5,00000000000|  5,00000000000|  7,00000000000|  8,00000000000|  8,00000000000|  6,00000000000|  8,00000000000|  8,00000000000|  9,00000000000|  6,00000000000|  5,00000000000
Tiger                     | 15,00000000000| 16,00000000000| 16,00000000000| 12,00000000000| 12,00000000000| 13,00000000000| 13,00000000000| 14,00000000000| 14,00000000000| 14,00000000000|  3,00000000000|  6,00000000000|  8,00000000000| 10,00000000000| 10,00000000000| 10,00000000000| 10,00000000000|  6,00000000000|  0,00000000000|  2,00000000000|  5,00000000000|  5,00000000000|  9,00000000000| 10,00000000000| 10,00000000000|  8,00000000000| 10,00000000000| 10,00000000000| 11,00000000000|  8,00000000000|  7,00000000000
Leopard                   | 15,00000000000| 16,00000000000| 16,00000000000| 12,00000000000| 12,00000000000| 13,00000000000| 13,00000000000| 14,00000000000| 14,00000000000| 14,00000000000|  3,00000000000|  6,00000000000|  8,00000000000| 10,00000000000| 10,00000000000| 10,00000000000| 10,00000000000|  6,00000000000|  2,00000000000|  0,00000000000|  5,00000000000|  5,00000000000|  9,00000000000| 10,00000000000| 10,00000000000|  8,00000000000| 10,00000000000| 10,00000000000| 11,00000000000|  8,00000000000|  7,00000000000
Indian_Rhino              | 14,00000000000| 15,00000000000| 15,00000000000| 11,00000000000| 11,00000000000| 12,00000000000| 12,00000000000| 13,00000000000| 13,00000000000| 13,00000000000|  4,00000000000|  5,00000000000|  7,00000000000|  9,00000000000|  9,00000000000|  9,00000000000|  9,00000000000|  5,00000000000|  5,00000000000|  5,00000000000|  0,00000000000|  2,00000000000|  8,00000000000|  9,00000000000|  9,00000000000|  7,00000000000|  9,00000000000|  9,00000000000| 10,00000000000|  7,00000000000|  6,00000000000
White_Rhino               | 14,00000000000| 15,00000000000| 15,00000000000| 11,00000000000| 11,00000000000| 12,00000000000| 12,00000000000| 13,00000000000| 13,00000000000| 13,00000000000|  4,00000000000|  5,00000000000|  7,00000000000|  9,00000000000|  9,00000000000|  9,00000000000|  9,00000000000|  5,00000000000|  5,00000000000|  5,00000000000|  2,00000000000|  0,00000000000|  8,00000000000|  9,00000000000|  9,00000000000|  7,00000000000|  9,00000000000|  9,00000000000| 10,00000000000|  7,00000000000|  6,00000000000
Black_Bear                | 12,00000000000| 13,00000000000| 13,00000000000|  9,00000000000|  9,00000000000| 10,00000000000| 10,00000000000| 11,00000000000| 11,00000000000| 11,00000000000|  8,00000000000|  7,00000000000|  7,00000000000|  9,00000000000|  9,00000000000|  9,00000000000|  9,00000000000|  7,00000000000|  9,00000000000|  9,00000000000|  8,00000000000|  8,00000000000|  0,00000000000|  3,00000000000|  3,00000000000|  3,00000000000|  7,00000000000|  7,00000000000|  8,00000000000|  5,00000000000|  6,00000000000
Brown_Bear                | 13,00000000000| 14,00000000000| 14,00000000000| 10,00000000000| 10,00000000000| 11,00000000000| 11,00000000000| 12,00000000000| 12,00000000000| 12,00000000000|  9,00000000000|  8,00000000000|  8,00000000000| 10,00000000000| 10,00000000000| 10,00000000000| 10,00000000000|  8,00000000000| 10,00000000000| 10,00000000000|  9,00000000000|  9,00000000000|  3,00000000000|  0,00000000000|  2,00000000000|  4,00000000000|  8,00000000000|  8,00000000000|  9,00000000000|  6,00000000000|  7,00000000000
Polar_Bear                | 13,00000000000| 14,00000000000| 14,00000000000| 10,00000000000| 10,00000000000| 11,00000000000| 11,00000000000| 12,00000000000| 12,00000000000| 12,00000000000|  9,00000000000|  8,00000000000|  8,00000000000| 10,00000000000| 10,00000000000| 10,00000000000| 10,00000000000|  8,00000000000| 10,00000000000| 10,00000000000|  9,00000000000|  9,00000000000|  3,00000000000|  2,00000000000|  0,00000000000|  4,00000000000|  8,00000000000|  8,00000000000|  9,00000000000|  6,00000000000|  7,00000000000
Giant_Panda               | 11,00000000000| 12,00000000000| 12,00000000000|  8,00000000000|  8,00000000000|  9,00000000000|  9,00000000000| 10,00000000000| 10,00000000000| 10,00000000000|  7,00000000000|  6,00000000000|  6,00000000000|  8,00000000000|  8,00000000000|  8,00000000000|  8,00000000000|  6,00000000000|  8,00000000000|  8,00000000000|  7,00000000000|  7,00000000000|  3,00000000000|  4,00000000000|  4,00000000000|  0,00000000000|  6,00000000000|  6,00000000000|  7,00000000000|  4,00000000000|  5,00000000000
Rabbit                    |  9,00000000000| 10,00000000000| 10,00000000000|  6,00000000000|  6,00000000000|  7,00000000000|  7,00000000000|  8,00000000000|  8,00000000000|  8,00000000000|  9,00000000000|  8,00000000000|  8,00000000000| 10,00000000000| 10,00000000000| 10,00000000000| 10,00000000000|  8,00000000000| 10,00000000000| 10,00000000000|  9,00000000000|  9,00000000000|  7,00000000000|  8,00000000000|  8,00000000000|  6,00000000000|  0,00000000000|  4,00000000000|  3,00000000000|  4,00000000000|  7,00000000000
Hedgehog                  |  7,00000000000|  8,00000000000|  8,00000000000|  4,00000000000|  4,00000000000|  5,00000000000|  5,00000000000|  6,00000000000|  6,00000000000|  6,00000000000|  9,00000000000|  8,00000000000|  8,00000000000| 10,00000000000| 10,00000000000| 10,00000000000| 10,00000000000|  8,00000000000| 10,00000000000| 10,00000000000|  9,00000000000|  9,00000000000|  7,00000000000|  8,00000000000|  8,00000000000|  6,00000000000|  4,00000000000|  0,00000000000|  5,00000000000|  4,00000000000|  7,00000000000
Dormouse                  | 10,00000000000| 11,00000000000| 11,00000000000|  7,00000000000|  7,00000000000|  8,00000000000|  8,00000000000|  9,00000000000|  9,00000000000|  9,00000000000| 10,00000000000|  9,00000000000|  9,00000000000| 11,00000000000| 11,00000000000| 11,00000000000| 11,00000000000|  9,00000000000| 11,00000000000| 11,00000000000| 10,00000000000| 10,00000000000|  8,00000000000|  9,00000000000|  9,00000000000|  7,00000000000|  3,00000000000|  5,00000000000|  0,00000000000|  5,00000000000|  8,00000000000
Squirrel                  |  9,00000000000| 10,00000000000| 10,00000000000|  6,00000000000|  6,00000000000|  7,00000000000|  7,00000000000|  8,00000000000|  8,00000000000|  8,00000000000|  7,00000000000|  6,00000000000|  6,00000000000|  8,00000000000|  8,00000000000|  8,00000000000|  8,00000000000|  6,00000000000|  8,00000000000|  8,00000000000|  7,00000000000|  7,00000000000|  5,00000000000|  6,00000000000|  6,00000000000|  4,00000000000|  4,00000000000|  4,00000000000|  5,00000000000|  0,00000000000|  5,00000000000
Blue_Whale                | 12,00000000000| 13,00000000000| 13,00000000000|  9,00000000000|  9,00000000000| 10,00000000000| 10,00000000000| 11,00000000000| 11,00000000000| 11,00000000000|  6,00000000000|  5,00000000000|  3,00000000000|  5,00000000000|  5,00000000000|  5,00000000000|  5,00000000000|  5,00000000000|  7,00000000000|  7,00000000000|  6,00000000000|  6,00000000000|  6,00000000000|  7,00000000000|  7,00000000000|  5,00000000000|  7,00000000000|  7,00000000000|  8,00000000000|  5,00000000000|  0,00000000000
