<?xml version="1.0" encoding="UTF-8"?>
<svg xmlns="http://www.w3.org/2000/svg" xmlns:xlink="http://www.w3.org/1999/xlink" contentScriptType="text/ecmascript" width="20cm" zoomAndPan="magnify" contentStyleType="text/css" height="15.037593984962406cm" viewBox="0 0 1.33 1.0" preserveAspectRatio="xMidYMid meet" version="1.0">
<defs/>
<style type="text/css" xml:space="preserve">
.axis-label{fill:black;
font-family:'Times New Roman', serif;
font-size:2.0;
}

.key-caption{font-size:0.7000000000000001;
font-family:'Times New Roman', serif;
fill:black;
font-weight:bold;
}

.key-hierarchy{stroke:black;
stroke-width:0.25433477814404226;
stroke-linecap:round;
fill:none;
}

.axis{stroke:black;
stroke-width:0.2;
}

.key-hierarchy_0{stroke:#ed420e;
stroke-width:0.25433477814404226;
stroke-linecap:round;
fill:none;
}

.key-hierarchy_1{stroke:#fdca19;
stroke-width:0.25433477814404226;
stroke-linecap:round;
fill:none;
}

.axis-tick{stroke:grey;
stroke-width:0.2;
}
</style>
<g transform="scale(0.0105055292) translate(13.3 10)">
<line y2="0" x1="0" x2="0" class="axis" y1="75.1879699248"/>
<line y2="75.1879699248" x1="0.7518796992" x2="-0.7518796992" class="axis-tick" y1="75.1879699248"/>
<text x="-1.8796992481" y="75.8879699248" class="axis-label" text-anchor="end">0</text>
<line y2="67.6691729323" x1="0.7518796992" x2="-0.7518796992" class="axis-tick" y1="67.6691729323"/>
<text x="-1.8796992481" y="68.3691729323" class="axis-label" text-anchor="end">100,000,000</text>
<line y2="60.1503759398" x1="0.7518796992" x2="-0.7518796992" class="axis-tick" y1="60.1503759398"/>
<text x="-1.8796992481" y="60.8503759398" class="axis-label" text-anchor="end">200,000,000</text>
<line y2="52.6315789474" x1="0.7518796992" x2="-0.7518796992" class="axis-tick" y1="52.6315789474"/>
<text x="-1.8796992481" y="53.3315789474" class="axis-label" text-anchor="end">300,000,000</text>
<line y2="45.1127819549" x1="0.7518796992" x2="-0.7518796992" class="axis-tick" y1="45.1127819549"/>
<text x="-1.8796992481" y="45.8127819549" class="axis-label" text-anchor="end">400,000,000</text>
<line y2="37.5939849624" x1="0.7518796992" x2="-0.7518796992" class="axis-tick" y1="37.5939849624"/>
<text x="-1.8796992481" y="38.2939849624" class="axis-label" text-anchor="end">500,000,000</text>
<line y2="30.0751879699" x1="0.7518796992" x2="-0.7518796992" class="axis-tick" y1="30.0751879699"/>
<text x="-1.8796992481" y="30.7751879699" class="axis-label" text-anchor="end">600,000,000</text>
<line y2="22.5563909774" x1="0.7518796992" x2="-0.7518796992" class="axis-tick" y1="22.5563909774"/>
<text x="-1.8796992481" y="23.2563909774" class="axis-label" text-anchor="end">700,000,000</text>
<line y2="15.037593985" x1="0.7518796992" x2="-0.7518796992" class="axis-tick" y1="15.037593985"/>
<text x="-1.8796992481" y="15.737593985" class="axis-label" text-anchor="end">800,000,000</text>
<line y2="7.5187969925" x1="0.7518796992" x2="-0.7518796992" class="axis-tick" y1="7.5187969925"/>
<text x="-1.8796992481" y="8.2187969925" class="axis-label" text-anchor="end">900,000,000</text>
<line y2="0" x1="0.7518796992" x2="-0.7518796992" class="axis-tick" y1="0"/>
<text x="-1.8796992481" y="0.7" class="axis-label" text-anchor="end">1,000,000,000</text>
<path class="key-hierarchy_0" d="M21 75.1879699248 V75.1879699248 H33 V75.1879699248 M55 75.1879699248 V75.1879699248 H63 V75.1879699248 M75 75.1879699248 V75.1879699248 H83 V75.1879699248 M11 75.1879699248 V75.1879699248 H19 V75.1879699248 M1 75.1879699248 V75.1879699248 H9 V75.1879699248 M35 75.1879699248 V75.1879699248 H43 V75.1879699248 M45 75.1879699248 V75.1879699248 H53 V75.1879699248 M65 75.1879699248 V75.1879699248 H73 V75.1879699248 M85 75.1879699248 V75.1879699248 H99 V75.1879699248 M23 75.1879699248 V75.1879699248 H27 V75.1879699248 M25 75.1879699248 V75.1879699248 H25 V75.1879699248 M27 75.1879699248 V75.1879699248 H25 V75.1879699248 M57 75.1879699248 V75.1879699248 H59 V75.1879699248 M77 75.1879699248 V75.1879699248 H79 V75.1879699248 M13 75.1879699248 V75.1879699248 H15 V75.1879699248 M3 75.1879699248 V75.1879699248 H5 V75.1879699248 M37 75.1879699248 V75.1879699248 H39 V75.1879699248 M47 75.1879699248 V75.1879699248 H49 V75.1879699248 M67 75.1879699248 V75.1879699248 H69 V75.1879699248 M87 75.1879699248 V75.1879699248 H92 V75.1879699248 M29 75.1879699248 V75.1879699248 H26 V75.1879699248 M59 75.1879699248 V75.1879699248 H58 V75.1879699248 M79 75.1879699248 V75.1879699248 H78 V75.1879699248 M15 75.1879699248 V75.1879699248 H14 V75.1879699248 M5 75.1879699248 V75.1879699248 H4 V75.1879699248 M39 75.1879699248 V75.1879699248 H38 V75.1879699248 M49 75.1879699248 V75.1879699248 H48 V75.1879699248 M69 75.1879699248 V75.1879699248 H68 V75.1879699248 M89 75.1879699248 V75.1879699248 H89.5 V75.1879699248 M91 75.1879699248 V75.1879699248 H89.25 V75.1879699248 M31 75.1879699248 V75.1879699248 H27.5 V75.1879699248 M61 75.1879699248 V75.1879699248 H58.5 V75.1879699248 M81 75.1879699248 V75.1879699248 H78.5 V75.1879699248 M17 75.1879699248 V75.1879699248 H14.5 V75.1879699248 M7 75.1879699248 V75.1879699248 H4.5 V75.1879699248 M41 75.1879699248 V75.1879699248 H38.5 V75.1879699248 M51 75.1879699248 V75.1879699248 H48.5 V75.1879699248 M71 75.1879699248 V75.1879699248 H68.5 V75.1879699248 M93 75.1879699248 V75.1879699248 H90.125 V75.1879699248 M95 75.1879699248 V75.1879699248 H91.5625 V75.1879699248 M97 75.1879699248 V75.1879699248 H93.28125 V75.1879699248 M79.75 75.1879699248 V59.5086551255 H95.140625 V75.1879699248 M29.25 75.1879699248 V42.6220912107 H39.75 V75.1879699248 M59.75 75.1879699248 V32.6941694608 H69.75 V75.1879699248 M34.5 42.6220912107 V25.3880586991 H49.75 V75.1879699248 M15.75 75.1879699248 V17.2552202819 H42.125 V25.3880586991 M64.75 32.6941694608 V13.841854329 H87.4453125 V59.5086551255 M5.75 75.1879699248 V8.4006213182 H28.9375 V17.2552202819 M17.34375 8.4006213182 V5.8308998119 H76.09765625 V13.841854329 M46.720703125 5.8308998119 "/>
</g>
</svg>
