                           |Human          |P_Chim         |Com_Chim       |Gibbon         |Baboon         |Ver_Monkey     |Macaca_Thibet  |Bor_Oran       |Sum_Oran       |Gorilla        |Cat            |Dog            |Pig            |Sheep          |Goat           |Cow            |Buffalo        |Wolf           |Tiger          |Leopard        |Indian_Rhino   |White_Rhino    |Black_Bear     |Brown_Bear     |Polar_Bear     |Giant_Panda    |Rabbit         |Hedgehog       |Dormouse       |Squirrel       |Blue_Whale     
Human                     |  0,00000000000| 11,11999099937| 11,16899537723| 10,86896130060| 10,47173308646| 10,85102095833| 10,93657461364| 11,13440895408| 10,60434125219| 11,16223895968| 10,47173308646| 11,13440895408| 11,37941180817| 11,40141614082| 11,39054265481| 10,70415385005| 10,70415385005| 11,14848766280| 10,21484697933| 10,61487026404| 11,11265094969| 10,91196535632| 11,11265094969| 10,23931232287| 10,90356811467| 10,89507090586| 10,93657461364| 11,16899537723| 10,63554772104| 11,34438037062| 10,63554772104
P_Chim                    | 11,11999099937|  0,00000000000|  5,79111493776|  6,48254761683|  9,66666116438|  8,87758330919|  9,42443952522|  9,18221788606|  9,37094272148|  8,69777460773| 10,87776936020|  9,66666116438|  8,93999624689|  8,93999624689|  8,93999624689| 10,15110444271|  8,69777460773|  9,90888280355| 10,15110444271| 10,61487026404|  9,40682340601| 10,15110444271| 11,11265094969| 10,63554772104| 11,60443427769| 10,87776936020|  9,42443952522|  9,18221788606|  8,21333132940|  9,37094272148| 10,87776936020
Com_Chim                  | 11,16899537723|  5,79111493776|  0,00000000000|  7,45730621322|  9,57392487967|  9,61762242762|  8,88463130080|  8,50169042364|  9,61762242762|  6,25302597059| 11,18227656372|  9,69838066475|  9,47603703415|  8,88463130080|  9,03915130386| 10,26321845855|  9,57392487967|  9,49283151745| 11,15540351971| 11,10522138722|  8,91944410781|  9,96587613041| 11,11265094969| 10,95251203743| 11,61733365493| 10,89507090586|  9,57392487967|  9,78916406235|  9,66666116438|  9,12426301534| 10,87776936020
Gibbon                    | 10,86896130060|  6,48254761683|  7,45730621322|  0,00000000000|  9,16313375691|  8,63090360305|  9,16313375691|  8,18837516052|  9,37094272148|  7,94468551142| 10,62527165150|  9,40682340601|  9,16313375691|  9,16313375691|  8,91944410781|  9,89420270420|  9,16313375691|  8,91944410781| 10,13789235330| 10,36969470244|  9,40682340601| 10,13789235330| 10,62527165150| 11,11265094969| 10,86896130060| 10,86896130060|  9,65051305511|  8,91944410781|  9,16313375691|  9,37094272148| 10,86896130060
Baboon                    | 10,47173308646|  9,66666116438|  9,57392487967|  9,16313375691|  0,00000000000|  9,61762242762|  9,11439582709|  9,45904261653|  9,37094272148|  9,52583462999| 10,49298298484|  9,21970456831|  8,52434964714|  9,57392487967|  9,50942957405| 10,49298298484|  9,11439582709|  9,49283151745| 11,39054265481| 10,36969470244|  9,40682340601| 10,20239843689| 11,11265094969| 10,26321845855| 10,90356811467| 11,13440895408|  9,80368940597|  9,55807905027|  9,18221788606|  9,12426301534| 10,15110444271
Ver_Monkey                | 10,85102095833|  8,87758330919|  9,61762242762|  8,63090360305|  9,61762242762|  0,00000000000|  8,38422389691|  9,86430213376| 10,11098183990|  8,87758330919| 10,35766154605|  9,37094272148|  9,12426301534|  8,63090360305| 10,11098183990| 10,35766154605|  9,86430213376|  9,61762242762| 10,35766154605| 10,11098183990|  9,37094272148| 10,11098183990| 10,85102095833| 11,09770066447| 11,09770066447| 10,85102095833|  9,61762242762|  9,86430213376|  9,61762242762|  9,86430213376| 10,35766154605
Macaca_Thibet             | 10,93657461364|  9,42443952522|  8,88463130080|  9,16313375691|  9,11439582709|  8,38422389691|  0,00000000000|  8,98036652009|  9,37094272148|  9,05829053579| 10,72274751114|  9,69838066475|  9,00019334065|  9,58959064283|  8,80401216876| 10,27496778092|  9,62039410971|  9,49283151745| 10,68512524952| 10,61487026404|  9,16313375691|  9,96587613041| 10,62527165150| 10,96034491901| 10,90356811467| 11,13440895408|  9,60507939171|  9,78916406235|  9,18221788606|  9,86430213376| 10,15110444271
Bor_Oran                  | 11,13440895408|  9,18221788606|  8,50169042364|  8,18837516052|  9,45904261653|  9,86430213376|  8,98036652009|  0,00000000000|  8,63090360305|  8,26235237542| 11,13440895408|  8,74102847186|  9,69838066475|  9,21970456831|  9,45904261653| 10,65573285763|  8,74102847186|  8,74102847186| 10,17705676119| 11,35039694881|  8,43206480961| 10,17705676119| 10,86896130060| 10,89507090586| 11,13440895408| 10,89507090586|  9,93771871297| 10,17705676119|  9,42443952522|  9,12426301534| 10,87776936020
Sum_Oran                  | 10,60434125219|  9,37094272148|  9,61762242762|  9,37094272148|  9,37094272148| 10,11098183990|  9,37094272148|  8,63090360305|  0,00000000000| 10,11098183990| 10,85102095833|  9,37094272148|  9,37094272148|  9,86430213376|  9,86430213376| 10,11098183990| 10,11098183990|  9,61762242762| 10,85102095833| 10,60434125219|  9,37094272148| 10,35766154605| 11,34438037062| 11,09770066447| 10,85102095833| 10,85102095833|  9,61762242762|  9,86430213376| 10,11098183990| 10,11098183990| 10,60434125219
Gorilla                   | 11,16223895968|  8,69777460773|  6,25302597059|  7,94468551142|  9,52583462999|  8,87758330919|  9,05829053579|  8,26235237542| 10,11098183990|  0,00000000000| 10,92846691258|  9,45904261653|  9,47603703415|  9,75960667709|  9,74456870914| 10,46092281838|  9,99337872419|  9,49283151745| 10,92026438462| 10,86004582563| 10,13789235330|  9,96587613041| 10,86896130060| 11,39601100678| 11,37941180817| 10,89507090586|  9,52583462999|  9,29206258289|  9,66666116438|  9,86430213376| 10,63554772104
Cat                       | 10,47173308646| 10,87776936020| 11,18227656372| 10,62527165150| 10,49298298484| 10,35766154605| 10,72274751114| 11,13440895408| 10,85102095833| 10,92846691258|  0,00000000000| 10,89507090586| 10,66564626792| 10,49298298484| 10,68512524952| 10,03345393226| 11,18227656372| 10,91196535632|  7,15803822310|  8,89864133289| 10,62527165150| 10,43892074336|  9,65051305511|  9,80368940597|  9,95188072766| 10,41639480941| 10,95251203743| 10,48241909858| 10,15110444271| 10,85102095833| 10,39332608187
Dog                       | 11,13440895408|  9,66666116438|  9,69838066475|  9,40682340601|  9,21970456831|  9,37094272148|  9,69838066475|  8,74102847186|  9,37094272148|  9,45904261653| 10,89507090586|  0,00000000000|  9,69838066475|  9,45904261653|  9,93771871297| 10,17705676119|  8,50169042364|  2,75757726633| 11,13440895408| 11,10522138722|  8,91944410781|  9,21970456831| 11,35634059879| 11,61308505052| 11,61308505052| 11,61308505052|  9,69838066475|  9,69838066475|  9,66666116438| 10,11098183990| 11,11999099937
Pig                       | 11,37941180817|  8,93999624689|  9,47603703415|  9,16313375691|  8,52434964714|  9,12426301534|  9,00019334065|  9,69838066475|  9,37094272148|  9,47603703415| 10,66564626792|  9,69838066475|  0,00000000000|  8,52434964714|  8,52434964714| 10,66564626792|  8,28642780039|  9,71395888091| 10,42772442116| 10,36969470244|  9,16313375691|  9,00019334065| 10,38158200240| 10,42772442116| 10,42772442116| 10,41639480941|  8,76227149390|  9,23811518740|  9,18221788606|  8,87758330919| 10,87776936020
Sheep                     | 11,40141614082|  8,93999624689|  8,88463130080|  9,16313375691|  9,57392487967|  8,63090360305|  9,58959064283|  9,21970456831|  9,86430213376|  9,75960667709| 10,49298298484|  9,45904261653|  8,52434964714|  0,00000000000|  6,92289908801| 10,04650873489|  7,53345922857|  9,25630921098| 10,92026438462| 10,61487026404|  9,40682340601|  9,01978690450|  9,40682340601| 10,96034491901| 10,18980257441| 10,41639480941|  8,44729541268|  8,40265398990|  9,18221788606|  9,12426301534| 10,63554772104
Goat                      | 11,39054265481|  8,93999624689|  9,03915130386|  8,91944410781|  9,50942957405| 10,11098183990|  8,80401216876|  9,45904261653|  9,86430213376|  9,74456870914| 10,68512524952|  9,93771871297|  8,52434964714|  6,92289908801|  0,00000000000| 10,68512524952|  7,39317735820| 10,20239843689| 10,68512524952|  9,87934357926|  8,43206480961|  9,96587613041| 10,86896130060| 10,68512524952| 11,14148996142| 10,65573285763|  9,03915130386|  9,03915130386|  9,18221788606|  9,37094272148| 11,36221263853
Cow                       | 10,70415385005| 10,15110444271| 10,26321845855|  9,89420270420| 10,49298298484| 10,35766154605| 10,27496778092| 10,65573285763| 10,11098183990| 10,46092281838| 10,03345393226| 10,17705676119| 10,66564626792| 10,04650873489| 10,68512524952|  0,00000000000| 10,73188587298| 10,20239843689| 10,44998611443| 10,61487026404| 10,13789235330| 10,20239843689| 10,86896130060| 10,04650873489| 11,37941180817| 10,89507090586|  9,13267255077| 10,25133408650| 10,39332608187| 10,35766154605|  9,66666116438
Buffalo                   | 10,70415385005|  8,69777460773|  9,57392487967|  9,16313375691|  9,11439582709|  9,86430213376|  9,62039410971|  8,74102847186| 10,11098183990|  9,99337872419| 11,18227656372|  8,50169042364|  8,28642780039|  7,53345922857|  7,39317735820| 10,73188587298|  0,00000000000|  8,78326459802| 11,15540351971| 11,10522138722|  9,40682340601|  9,49283151745| 10,62527165150| 10,27496778092| 10,66564626792| 10,17705676119|  9,15074275780|  8,63373900197|  9,66666116438|  8,87758330919| 10,63554772104
Wolf                      | 11,14848766280|  9,90888280355|  9,49283151745|  8,91944410781|  9,49283151745|  9,61762242762|  9,49283151745|  8,74102847186|  9,61762242762|  9,49283151745| 10,91196535632|  2,75757726633|  9,71395888091|  9,25630921098| 10,20239843689| 10,20239843689|  8,78326459802|  0,00000000000| 10,91196535632| 10,86004582563|  9,40682340601|  9,49283151745| 11,35634059879| 11,38500996927| 11,37941180817| 10,41639480941|  9,01978690450| 10,20239843689| 10,15110444271|  9,86430213376| 10,87776936020
Tiger                     | 10,21484697933| 10,15110444271| 11,15540351971| 10,13789235330| 11,39054265481| 10,35766154605| 10,68512524952| 10,17705676119| 10,85102095833| 10,92026438462|  7,15803822310| 11,13440895408| 10,42772442116| 10,92026438462| 10,68512524952| 10,44998611443| 11,15540351971| 10,91196535632|  0,00000000000|  6,93723684015| 10,62527165150| 10,67544304984|  9,16313375691|  9,03915130386|  9,47603703415| 10,41639480941| 10,21484697933|  9,74456870914|  9,90888280355| 10,85102095833| 10,63554772104
Leopard                   | 10,61487026404| 10,61487026404| 11,10522138722| 10,36969470244| 10,36969470244| 10,11098183990| 10,61487026404| 11,35039694881| 10,60434125219| 10,86004582563|  8,89864133289| 11,10522138722| 10,36969470244| 10,61487026404|  9,87934357926| 10,61487026404| 11,10522138722| 10,86004582563|  6,93723684015|  0,00000000000| 10,61487026404| 10,36969470244|  9,14381689448|  8,16311464811| 10,12451914085|  9,87934357926| 10,86004582563|  9,87934357926| 10,61487026404| 10,35766154605| 10,12451914085
Indian_Rhino              | 11,11265094969|  9,40682340601|  8,91944410781|  9,40682340601|  9,40682340601|  9,37094272148|  9,16313375691|  8,43206480961|  9,37094272148| 10,13789235330| 10,62527165150|  8,91944410781|  9,16313375691|  9,40682340601|  8,43206480961| 10,13789235330|  9,40682340601|  9,40682340601| 10,62527165150| 10,61487026404|  0,00000000000|  8,18837516052| 11,11265094969| 10,86896130060| 10,86896130060| 10,86896130060|  9,40682340601|  9,16313375691| 10,13789235330|  9,61762242762| 11,11265094969
White_Rhino               | 10,91196535632| 10,15110444271|  9,96587613041| 10,13789235330| 10,20239843689| 10,11098183990|  9,96587613041| 10,17705676119| 10,35766154605|  9,96587613041| 10,43892074336|  9,21970456831|  9,00019334065|  9,01978690450|  9,96587613041| 10,20239843689|  9,49283151745|  9,49283151745| 10,67544304984| 10,36969470244|  8,18837516052|  0,00000000000| 11,35634059879| 11,14848766280| 11,14148996142| 10,89507090586|  9,96587613041|  9,25630921098|  9,90888280355| 10,60434125219| 10,63554772104
Black_Bear                | 11,11265094969| 11,11265094969| 11,11265094969| 10,62527165150| 11,11265094969| 10,85102095833| 10,62527165150| 10,86896130060| 11,34438037062| 10,86896130060|  9,65051305511| 11,35634059879| 10,38158200240|  9,40682340601| 10,86896130060| 10,86896130060| 10,62527165150| 11,35634059879|  9,16313375691|  9,14381689448| 11,11265094969| 11,35634059879|  0,00000000000|  9,89420270420|  9,89420270420| 10,38158200240| 10,86896130060|  9,65051305511| 10,62527165150| 11,09770066447| 10,13789235330
Brown_Bear                | 10,23931232287| 10,63554772104| 10,95251203743| 11,11265094969| 10,26321845855| 11,09770066447| 10,96034491901| 10,89507090586| 11,09770066447| 11,39601100678|  9,80368940597| 11,61308505052| 10,42772442116| 10,96034491901| 10,68512524952| 10,04650873489| 10,27496778092| 11,38500996927|  9,03915130386|  8,16311464811| 10,86896130060| 11,14848766280|  9,89420270420|  0,00000000000|  6,85889671987|  9,21970456831| 10,96034491901| 10,71350411065| 10,87776936020| 10,85102095833| 10,63554772104
Polar_Bear                | 10,90356811467| 11,60443427769| 11,61733365493| 10,86896130060| 10,90356811467| 11,09770066447| 10,90356811467| 11,13440895408| 10,85102095833| 11,37941180817|  9,95188072766| 11,61308505052| 10,42772442116| 10,18980257441| 11,14148996142| 11,37941180817| 10,66564626792| 11,37941180817|  9,47603703415| 10,12451914085| 10,86896130060| 11,14148996142|  9,89420270420|  6,85889671987|  0,00000000000|  9,93771871297| 11,37941180817| 10,66564626792| 10,87776936020| 11,59106007676| 11,36221263853
Giant_Panda               | 10,89507090586| 10,87776936020| 10,89507090586| 10,86896130060| 11,13440895408| 10,85102095833| 11,13440895408| 10,89507090586| 10,85102095833| 10,89507090586| 10,41639480941| 11,61308505052| 10,41639480941| 10,41639480941| 10,65573285763| 10,89507090586| 10,17705676119| 10,41639480941| 10,41639480941|  9,87934357926| 10,86896130060| 10,89507090586| 10,38158200240|  9,21970456831|  9,93771871297|  0,00000000000| 11,61308505052|  9,93771871297| 10,39332608187| 11,09770066447| 10,39332608187
Rabbit                    | 10,93657461364|  9,42443952522|  9,57392487967|  9,65051305511|  9,80368940597|  9,61762242762|  9,60507939171|  9,93771871297|  9,61762242762|  9,52583462999| 10,95251203743|  9,69838066475|  8,76227149390|  8,44729541268|  9,03915130386|  9,13267255077|  9,15074275780|  9,01978690450| 10,21484697933| 10,86004582563|  9,40682340601|  9,96587613041| 10,86896130060| 10,96034491901| 11,37941180817| 11,61308505052|  0,00000000000|  8,63373900197|  9,42443952522|  9,61762242762| 10,39332608187
Hedgehog                  | 11,16899537723|  9,18221788606|  9,78916406235|  8,91944410781|  9,55807905027|  9,86430213376|  9,78916406235| 10,17705676119|  9,86430213376|  9,29206258289| 10,48241909858|  9,69838066475|  9,23811518740|  8,40265398990|  9,03915130386| 10,25133408650|  8,63373900197| 10,20239843689|  9,74456870914|  9,87934357926|  9,16313375691|  9,25630921098|  9,65051305511| 10,71350411065| 10,66564626792|  9,93771871297|  8,63373900197|  0,00000000000|  8,69777460773|  9,86430213376| 10,39332608187
Dormouse                  | 10,63554772104|  8,21333132940|  9,66666116438|  9,16313375691|  9,18221788606|  9,61762242762|  9,18221788606|  9,42443952522| 10,11098183990|  9,66666116438| 10,15110444271|  9,66666116438|  9,18221788606|  9,18221788606|  9,18221788606| 10,39332608187|  9,66666116438| 10,15110444271|  9,90888280355| 10,61487026404| 10,13789235330|  9,90888280355| 10,62527165150| 10,87776936020| 10,87776936020| 10,39332608187|  9,42443952522|  8,69777460773|  0,00000000000|  9,61762242762| 10,87776936020
Squirrel                  | 11,34438037062|  9,37094272148|  9,12426301534|  9,37094272148|  9,12426301534|  9,86430213376|  9,86430213376|  9,12426301534| 10,11098183990|  9,86430213376| 10,85102095833| 10,11098183990|  8,87758330919|  9,12426301534|  9,37094272148| 10,35766154605|  8,87758330919|  9,86430213376| 10,85102095833| 10,35766154605|  9,61762242762| 10,60434125219| 11,09770066447| 10,85102095833| 11,59106007676| 11,09770066447|  9,61762242762|  9,86430213376|  9,61762242762|  0,00000000000| 11,09770066447
Blue_Whale                | 10,63554772104| 10,87776936020| 10,87776936020| 10,86896130060| 10,15110444271| 10,35766154605| 10,15110444271| 10,87776936020| 10,60434125219| 10,63554772104| 10,39332608187| 11,11999099937| 10,87776936020| 10,63554772104| 11,36221263853|  9,66666116438| 10,63554772104| 10,87776936020| 10,63554772104| 10,12451914085| 11,11265094969| 10,63554772104| 10,13789235330| 10,63554772104| 11,36221263853| 10,39332608187| 10,39332608187| 10,39332608187| 10,87776936020| 11,09770066447|  0,00000000000
