                           |Human          |P_Chim         |Com_Chim       |Gibbon         |Baboon         |Ver_Monkey     |Macaca_Thibet  |Bor_Oran       |Sum_Oran       |Gorilla        |Cat            |Dog            |Pig            |Sheep          |Goat           |Cow            |Buffalo        |Wolf           |Tiger          |Leopard        |Indian_Rhino   |White_Rhino    |Black_Bear     |Brown_Bear     |Polar_Bear     |Giant_Panda    |Rabbit         |Hedgehog       |Dormouse       |Squirrel       |Blue_Whale     
Human                     |  0,00000000000|  2,55875000264|  2,55875000264|  2,55875000264|  2,55875000264|  2,55875000264|  2,55875000264|  2,55875000264|  2,55875000264|  2,55875000264|  2,58237500116|  2,58425000124|  2,55875000264|  2,55875000264|  2,55875000264|  2,55875000264|  2,55875000264|  2,58425000124|  2,62549999449|  2,55875000264|  2,62549999449|  2,57762500644|  2,55875000264|  2,64962500986|  2,55875000264|  2,72349998355|  2,55875000264|  2,40300000645|  2,55875000264|  2,57762500644|  2,55875000264
P_Chim                    |  2,55875000264|  0,00000000000|  2,52975000534|  2,53275000956|  2,52975000534|  2,52975000534|  2,53275000956|  2,52975000534|  2,52975000534|  2,52975000534|  2,58237500116|  2,58425000124|  2,45962498989|  2,45962498989|  2,55300000217|  2,52975000534|  2,55300000217|  2,58425000124|  2,62549999449|  2,55300000217|  2,62549999449|  2,57762500644|  2,45962498989|  2,64962500986|  2,52975000534|  2,72349998355|  2,52975000534|  2,55875000264|  2,45962498989|  2,57762500644|  2,54945771117
Com_Chim                  |  2,55875000264|  2,52975000534|  0,00000000000|  2,53275000956|  2,49550000858|  2,15199998021|  2,53275000956|  2,50999999791|  2,50999999791|  2,36487499345|  2,58237500116|  2,58425000124|  2,52975000534|  2,52975000534|  2,55300000217|  2,49550000858|  2,55300000217|  2,58425000124|  2,62549999449|  2,55300000217|  2,62549999449|  2,57762500644|  2,52975000534|  2,64962500986|  2,31437500566|  2,72349998355|  2,49550000858|  2,55875000264|  2,52975000534|  2,57762500644|  2,54945771117
Gibbon                    |  2,55875000264|  2,53275000956|  2,53275000956|  0,00000000000|  2,53275000956|  2,53275000956|  1,90675000194|  2,53275000956|  2,53275000956|  2,53275000956|  2,58237500116|  2,58425000124|  2,53275000956|  2,53275000956|  2,55300000217|  2,53275000956|  2,55300000217|  2,58425000124|  2,62549999449|  2,55300000217|  2,62549999449|  2,57762500644|  2,53275000956|  2,64962500986|  2,53275000956|  2,72349998355|  2,53275000956|  2,55875000264|  2,53275000956|  2,57762500644|  2,54945771117
Baboon                    |  2,55875000264|  2,52975000534|  2,49550000858|  2,53275000956|  0,00000000000|  2,49550000858|  2,53275000956|  2,50999999791|  2,50999999791|  2,49550000858|  2,58237500116|  2,58425000124|  2,52975000534|  2,52975000534|  2,55300000217|  2,45825000200|  2,55300000217|  2,58425000124|  2,62549999449|  2,55300000217|  2,62549999449|  2,57762500644|  2,52975000534|  2,64962500986|  2,49550000858|  2,72349998355|  2,46750001330|  2,55875000264|  2,52975000534|  2,57762500644|  2,54945771117
Ver_Monkey                |  2,55875000264|  2,52975000534|  2,15199998021|  2,53275000956|  2,49550000858|  0,00000000000|  2,53275000956|  2,50999999791|  2,50999999791|  2,36487499345|  2,58237500116|  2,58425000124|  2,52975000534|  2,52975000534|  2,55300000217|  2,49550000858|  2,55300000217|  2,58425000124|  2,62549999449|  2,55300000217|  2,62549999449|  2,57762500644|  2,52975000534|  2,64962500986|  2,31437500566|  2,72349998355|  2,49550000858|  2,55875000264|  2,52975000534|  2,57762500644|  2,54945771117
Macaca_Thibet             |  2,55875000264|  2,53275000956|  2,53275000956|  1,90675000194|  2,53275000956|  2,53275000956|  0,00000000000|  2,53275000956|  2,53275000956|  2,53275000956|  2,58237500116|  2,58425000124|  2,53275000956|  2,53275000956|  2,55300000217|  2,53275000956|  2,55300000217|  2,58425000124|  2,62549999449|  2,55300000217|  2,62549999449|  2,57762500644|  2,53275000956|  2,64962500986|  2,53275000956|  2,72349998355|  2,53275000956|  2,55875000264|  2,53275000956|  2,57762500644|  2,54945771117
Bor_Oran                  |  2,55875000264|  2,52975000534|  2,50999999791|  2,53275000956|  2,50999999791|  2,50999999791|  2,53275000956|  0,00000000000|  2,24912500940|  2,50999999791|  2,58237500116|  2,58425000124|  2,52975000534|  2,52975000534|  2,55300000217|  2,50999999791|  2,55300000217|  2,58425000124|  2,62549999449|  2,55300000217|  2,62549999449|  2,57762500644|  2,52975000534|  2,64962500986|  2,50999999791|  2,72349998355|  2,50999999791|  2,55875000264|  2,52975000534|  2,57762500644|  2,54945771117
Sum_Oran                  |  2,55875000264|  2,52975000534|  2,50999999791|  2,53275000956|  2,50999999791|  2,50999999791|  2,53275000956|  2,24912500940|  0,00000000000|  2,50999999791|  2,58237500116|  2,58425000124|  2,52975000534|  2,52975000534|  2,55300000217|  2,50999999791|  2,55300000217|  2,58425000124|  2,62549999449|  2,55300000217|  2,62549999449|  2,57762500644|  2,52975000534|  2,64962500986|  2,50999999791|  2,72349998355|  2,50999999791|  2,55875000264|  2,52975000534|  2,57762500644|  2,54945771117
Gorilla                   |  2,55875000264|  2,52975000534|  2,36487499345|  2,53275000956|  2,49550000858|  2,36487499345|  2,53275000956|  2,50999999791|  2,50999999791|  0,00000000000|  2,58237500116|  2,58425000124|  2,52975000534|  2,52975000534|  2,55300000217|  2,49550000858|  2,55300000217|  2,58425000124|  2,62549999449|  2,55300000217|  2,62549999449|  2,57762500644|  2,52975000534|  2,64962500986|  2,36487499345|  2,72349998355|  2,49550000858|  2,55875000264|  2,52975000534|  2,57762500644|  2,54945771117
Cat                       |  2,58237500116|  2,58237500116|  2,58237500116|  2,58237500116|  2,58237500116|  2,58237500116|  2,58237500116|  2,58237500116|  2,58237500116|  2,58237500116|  0,00000000000|  2,58425000124|  2,58237500116|  2,58237500116|  2,58237500116|  2,58237500116|  2,58237500116|  2,58425000124|  2,62549999449|  2,58237500116|  2,62549999449|  2,58237500116|  2,58237500116|  2,64962500986|  2,58237500116|  2,72349998355|  2,58237500116|  2,58237500116|  2,58237500116|  2,58237500116|  2,58237500116
Dog                       |  2,58425000124|  2,58425000124|  2,58425000124|  2,58425000124|  2,58425000124|  2,58425000124|  2,58425000124|  2,58425000124|  2,58425000124|  2,58425000124|  2,58425000124|  0,00000000000|  2,58425000124|  2,58425000124|  2,58425000124|  2,58425000124|  2,58425000124|  1,57212501019|  2,62549999449|  2,58425000124|  2,62549999449|  2,58425000124|  2,58425000124|  2,64962500986|  2,58425000124|  2,72349998355|  2,58425000124|  2,58425000124|  2,58425000124|  2,58425000124|  2,58425000124
Pig                       |  2,55875000264|  2,45962498989|  2,52975000534|  2,53275000956|  2,52975000534|  2,52975000534|  2,53275000956|  2,52975000534|  2,52975000534|  2,52975000534|  2,58237500116|  2,58425000124|  0,00000000000|  2,33225000836|  2,55300000217|  2,52975000534|  2,55300000217|  2,58425000124|  2,62549999449|  2,55300000217|  2,62549999449|  2,57762500644|  2,45724999718|  2,64962500986|  2,52975000534|  2,72349998355|  2,52975000534|  2,55875000264|  2,41949998494|  2,57762500644|  2,54945771117
Sheep                     |  2,55875000264|  2,45962498989|  2,52975000534|  2,53275000956|  2,52975000534|  2,52975000534|  2,53275000956|  2,52975000534|  2,52975000534|  2,52975000534|  2,58237500116|  2,58425000124|  2,33225000836|  0,00000000000|  2,55300000217|  2,52975000534|  2,55300000217|  2,58425000124|  2,62549999449|  2,55300000217|  2,62549999449|  2,57762500644|  2,45724999718|  2,64962500986|  2,52975000534|  2,72349998355|  2,52975000534|  2,55875000264|  2,41949998494|  2,57762500644|  2,54945771117
Goat                      |  2,55875000264|  2,55300000217|  2,55300000217|  2,55300000217|  2,55300000217|  2,55300000217|  2,55300000217|  2,55300000217|  2,55300000217|  2,55300000217|  2,58237500116|  2,58425000124|  2,55300000217|  2,55300000217|  0,00000000000|  2,55300000217|  1,82625000179|  2,58425000124|  2,62549999449|  2,53400000464|  2,62549999449|  2,57762500644|  2,55300000217|  2,64962500986|  2,55300000217|  2,72349998355|  2,55300000217|  2,55875000264|  2,55300000217|  2,57762500644|  2,55300000217
Cow                       |  2,55875000264|  2,52975000534|  2,49550000858|  2,53275000956|  2,45825000200|  2,49550000858|  2,53275000956|  2,50999999791|  2,50999999791|  2,49550000858|  2,58237500116|  2,58425000124|  2,52975000534|  2,52975000534|  2,55300000217|  0,00000000000|  2,55300000217|  2,58425000124|  2,62549999449|  2,55300000217|  2,62549999449|  2,57762500644|  2,52975000534|  2,64962500986|  2,49550000858|  2,72349998355|  2,46750001330|  2,55875000264|  2,52975000534|  2,57762500644|  2,54945771117
Buffalo                   |  2,55875000264|  2,55300000217|  2,55300000217|  2,55300000217|  2,55300000217|  2,55300000217|  2,55300000217|  2,55300000217|  2,55300000217|  2,55300000217|  2,58237500116|  2,58425000124|  2,55300000217|  2,55300000217|  1,82625000179|  2,55300000217|  0,00000000000|  2,58425000124|  2,62549999449|  2,53400000464|  2,62549999449|  2,57762500644|  2,55300000217|  2,64962500986|  2,55300000217|  2,72349998355|  2,55300000217|  2,55875000264|  2,55300000217|  2,57762500644|  2,55300000217
Wolf                      |  2,58425000124|  2,58425000124|  2,58425000124|  2,58425000124|  2,58425000124|  2,58425000124|  2,58425000124|  2,58425000124|  2,58425000124|  2,58425000124|  2,58425000124|  1,57212501019|  2,58425000124|  2,58425000124|  2,58425000124|  2,58425000124|  2,58425000124|  0,00000000000|  2,62549999449|  2,58425000124|  2,62549999449|  2,58425000124|  2,58425000124|  2,64962500986|  2,58425000124|  2,72349998355|  2,58425000124|  2,58425000124|  2,58425000124|  2,58425000124|  2,58425000124
Tiger                     |  2,62549999449|  2,62549999449|  2,62549999449|  2,62549999449|  2,62549999449|  2,62549999449|  2,62549999449|  2,62549999449|  2,62549999449|  2,62549999449|  2,62549999449|  2,62549999449|  2,62549999449|  2,62549999449|  2,62549999449|  2,62549999449|  2,62549999449|  2,62549999449|  0,00000000000|  2,62549999449|  2,34675000701|  2,62549999449|  2,62549999449|  2,64962500986|  2,62549999449|  2,72349998355|  2,62549999449|  2,62549999449|  2,62549999449|  2,62549999449|  2,62549999449
Leopard                   |  2,55875000264|  2,55300000217|  2,55300000217|  2,55300000217|  2,55300000217|  2,55300000217|  2,55300000217|  2,55300000217|  2,55300000217|  2,55300000217|  2,58237500116|  2,58425000124|  2,55300000217|  2,55300000217|  2,53400000464|  2,55300000217|  2,53400000464|  2,58425000124|  2,62549999449|  0,00000000000|  2,62549999449|  2,57762500644|  2,55300000217|  2,64962500986|  2,55300000217|  2,72349998355|  2,55300000217|  2,55875000264|  2,55300000217|  2,57762500644|  2,55300000217
Indian_Rhino              |  2,62549999449|  2,62549999449|  2,62549999449|  2,62549999449|  2,62549999449|  2,62549999449|  2,62549999449|  2,62549999449|  2,62549999449|  2,62549999449|  2,62549999449|  2,62549999449|  2,62549999449|  2,62549999449|  2,62549999449|  2,62549999449|  2,62549999449|  2,62549999449|  2,34675000701|  2,62549999449|  0,00000000000|  2,62549999449|  2,62549999449|  2,64962500986|  2,62549999449|  2,72349998355|  2,62549999449|  2,62549999449|  2,62549999449|  2,62549999449|  2,62549999449
White_Rhino               |  2,57762500644|  2,57762500644|  2,57762500644|  2,57762500644|  2,57762500644|  2,57762500644|  2,57762500644|  2,57762500644|  2,57762500644|  2,57762500644|  2,58237500116|  2,58425000124|  2,57762500644|  2,57762500644|  2,57762500644|  2,57762500644|  2,57762500644|  2,58425000124|  2,62549999449|  2,57762500644|  2,62549999449|  0,00000000000|  2,57762500644|  2,64962500986|  2,57762500644|  2,72349998355|  2,57762500644|  2,57762500644|  2,57762500644|  2,46525000222|  2,57762500644
Black_Bear                |  2,55875000264|  2,45962498989|  2,52975000534|  2,53275000956|  2,52975000534|  2,52975000534|  2,53275000956|  2,52975000534|  2,52975000534|  2,52975000534|  2,58237500116|  2,58425000124|  2,45724999718|  2,45724999718|  2,55300000217|  2,52975000534|  2,55300000217|  2,58425000124|  2,62549999449|  2,55300000217|  2,62549999449|  2,57762500644|  0,00000000000|  2,64962500986|  2,52975000534|  2,72349998355|  2,52975000534|  2,55875000264|  2,45724999718|  2,57762500644|  2,54945771117
Brown_Bear                |  2,64962500986|  2,64962500986|  2,64962500986|  2,64962500986|  2,64962500986|  2,64962500986|  2,64962500986|  2,64962500986|  2,64962500986|  2,64962500986|  2,64962500986|  2,64962500986|  2,64962500986|  2,64962500986|  2,64962500986|  2,64962500986|  2,64962500986|  2,64962500986|  2,64962500986|  2,64962500986|  2,64962500986|  2,64962500986|  2,64962500986|  0,00000000000|  2,64962500986|  2,72349998355|  2,64962500986|  2,64962500986|  2,64962500986|  2,64962500986|  2,64962500986
Polar_Bear                |  2,55875000264|  2,52975000534|  2,31437500566|  2,53275000956|  2,49550000858|  2,31437500566|  2,53275000956|  2,50999999791|  2,50999999791|  2,36487499345|  2,58237500116|  2,58425000124|  2,52975000534|  2,52975000534|  2,55300000217|  2,49550000858|  2,55300000217|  2,58425000124|  2,62549999449|  2,55300000217|  2,62549999449|  2,57762500644|  2,52975000534|  2,64962500986|  0,00000000000|  2,72349998355|  2,49550000858|  2,55875000264|  2,52975000534|  2,57762500644|  2,54945771117
Giant_Panda               |  2,72349998355|  2,72349998355|  2,72349998355|  2,72349998355|  2,72349998355|  2,72349998355|  2,72349998355|  2,72349998355|  2,72349998355|  2,72349998355|  2,72349998355|  2,72349998355|  2,72349998355|  2,72349998355|  2,72349998355|  2,72349998355|  2,72349998355|  2,72349998355|  2,72349998355|  2,72349998355|  2,72349998355|  2,72349998355|  2,72349998355|  2,72349998355|  2,72349998355|  0,00000000000|  2,72349998355|  2,72349998355|  2,72349998355|  2,72349998355|  2,72349998355
Rabbit                    |  2,55875000264|  2,52975000534|  2,49550000858|  2,53275000956|  2,46750001330|  2,49550000858|  2,53275000956|  2,50999999791|  2,50999999791|  2,49550000858|  2,58237500116|  2,58425000124|  2,52975000534|  2,52975000534|  2,55300000217|  2,46750001330|  2,55300000217|  2,58425000124|  2,62549999449|  2,55300000217|  2,62549999449|  2,57762500644|  2,52975000534|  2,64962500986|  2,49550000858|  2,72349998355|  0,00000000000|  2,55875000264|  2,52975000534|  2,57762500644|  2,54945771117
Hedgehog                  |  2,40300000645|  2,55875000264|  2,55875000264|  2,55875000264|  2,55875000264|  2,55875000264|  2,55875000264|  2,55875000264|  2,55875000264|  2,55875000264|  2,58237500116|  2,58425000124|  2,55875000264|  2,55875000264|  2,55875000264|  2,55875000264|  2,55875000264|  2,58425000124|  2,62549999449|  2,55875000264|  2,62549999449|  2,57762500644|  2,55875000264|  2,64962500986|  2,55875000264|  2,72349998355|  2,55875000264|  0,00000000000|  2,55875000264|  2,57762500644|  2,55875000264
Dormouse                  |  2,55875000264|  2,45962498989|  2,52975000534|  2,53275000956|  2,52975000534|  2,52975000534|  2,53275000956|  2,52975000534|  2,52975000534|  2,52975000534|  2,58237500116|  2,58425000124|  2,41949998494|  2,41949998494|  2,55300000217|  2,52975000534|  2,55300000217|  2,58425000124|  2,62549999449|  2,55300000217|  2,62549999449|  2,57762500644|  2,45724999718|  2,64962500986|  2,52975000534|  2,72349998355|  2,52975000534|  2,55875000264|  0,00000000000|  2,57762500644|  2,54945771117
Squirrel                  |  2,57762500644|  2,57762500644|  2,57762500644|  2,57762500644|  2,57762500644|  2,57762500644|  2,57762500644|  2,57762500644|  2,57762500644|  2,57762500644|  2,58237500116|  2,58425000124|  2,57762500644|  2,57762500644|  2,57762500644|  2,57762500644|  2,57762500644|  2,58425000124|  2,62549999449|  2,57762500644|  2,62549999449|  2,46525000222|  2,57762500644|  2,64962500986|  2,57762500644|  2,72349998355|  2,57762500644|  2,57762500644|  2,57762500644|  0,00000000000|  2,57762500644
Blue_Whale                |  2,55875000264|  2,54945771117|  2,54945771117|  2,54945771117|  2,54945771117|  2,54945771117|  2,54945771117|  2,54945771117|  2,54945771117|  2,54945771117|  2,58237500116|  2,58425000124|  2,54945771117|  2,54945771117|  2,55300000217|  2,54945771117|  2,55300000217|  2,58425000124|  2,62549999449|  2,55300000217|  2,62549999449|  2,57762500644|  2,54945771117|  2,64962500986|  2,54945771117|  2,72349998355|  2,54945771117|  2,55875000264|  2,54945771117|  2,57762500644|  0,00000000000
                           |Human          |P_Chim         |Com_Chim       |Gibbon         |Baboon         |Ver_Monkey     |Macaca_Thibet  |Bor_Oran       |Sum_Oran       |Gorilla        |Cat            |Dog            |Pig            |Sheep          |Goat           |Cow            |Buffalo        |Wolf           |Tiger          |Leopard        |Indian_Rhino   |White_Rhino    |Black_Bear     |Brown_Bear     |Polar_Bear     |Giant_Panda    |Rabbit         |Hedgehog       |Dormouse       |Squirrel       |Blue_Whale     
Human                     |  0,00000000000|  9,91404853583|  9,91404853583|  9,91404853583|  9,91404853583|  9,91404853583|  9,91404853583|  9,91404853583|  9,91404853583|  9,91404853583| 10,16379060152| 10,18361140241|  9,91404853583|  9,91404853583|  9,91404853583|  9,91404853583|  9,91404853583| 10,18361140241| 10,61966893351|  9,91404853583| 10,61966893351| 10,11357796367|  9,91404853583| 10,87469672397|  9,91404853583| 11,65563597013|  9,91404853583|  8,26760078043|  9,91404853583| 10,11357796367|  9,91404853583
P_Chim                    |  9,91404853583|  0,00000000000|  9,60748685600|  9,63920018075|  9,60748685600|  9,60748685600|  9,63920018075|  9,60748685600|  9,60748685600|  9,60748685600| 10,16379060152| 10,18361140241|  8,86618876861|  8,86618876861|  9,85326474379|  9,60748685600|  9,85326474379| 10,18361140241| 10,61966893351|  9,85326474379| 10,61966893351| 10,11357796367|  8,86618876861| 10,87469672397|  9,60748685600| 11,65563597013|  9,60748685600|  9,91404853583|  8,86618876861| 10,11357796367|  9,81581885481
Com_Chim                  |  9,91404853583|  9,60748685600|  0,00000000000|  9,63920018075|  9,24542694154|  5,61425606190|  9,63920018075|  9,39870768301|  9,39870768301|  7,86457770746| 10,16379060152| 10,18361140241|  9,60748685600|  9,60748685600|  9,85326474379|  9,24542694154|  9,85326474379| 10,18361140241| 10,61966893351|  9,85326474379| 10,61966893351| 10,11357796367|  9,60748685600| 10,87469672397|  7,33073762031| 11,65563597013|  9,24542694154|  9,91404853583|  9,60748685600| 10,11357796367|  9,81581885481
Gibbon                    |  9,91404853583|  9,63920018075|  9,63920018075|  0,00000000000|  9,63920018075|  9,63920018075|  3,02169563752|  9,63920018075|  9,63920018075|  9,63920018075| 10,16379060152| 10,18361140241|  9,63920018075|  9,63920018075|  9,85326474379|  9,63920018075|  9,85326474379| 10,18361140241| 10,61966893351|  9,85326474379| 10,61966893351| 10,11357796367|  9,63920018075| 10,87469672397|  9,63920018075| 11,65563597013|  9,63920018075|  9,91404853583|  9,63920018075| 10,11357796367|  9,81581885481
Baboon                    |  9,91404853583|  9,60748685600|  9,24542694154|  9,63920018075|  0,00000000000|  9,24542694154|  9,63920018075|  9,39870768301|  9,39870768301|  9,24542694154| 10,16379060152| 10,18361140241|  9,60748685600|  9,60748685600|  9,85326474379|  8,85165364326|  9,85326474379| 10,18361140241| 10,61966893351|  9,85326474379| 10,61966893351| 10,11357796367|  9,60748685600| 10,87469672397|  9,24542694154| 11,65563597013|  8,94943637653|  9,91404853583|  9,60748685600| 10,11357796367|  9,81581885481
Ver_Monkey                |  9,91404853583|  9,60748685600|  5,61425606190|  9,63920018075|  9,24542694154|  0,00000000000|  9,63920018075|  9,39870768301|  9,39870768301|  7,86457770746| 10,16379060152| 10,18361140241|  9,60748685600|  9,60748685600|  9,85326474379|  9,24542694154|  9,85326474379| 10,18361140241| 10,61966893351|  9,85326474379| 10,61966893351| 10,11357796367|  9,60748685600| 10,87469672397|  7,33073762031| 11,65563597013|  9,24542694154|  9,91404853583|  9,60748685600| 10,11357796367|  9,81581885481
Macaca_Thibet             |  9,91404853583|  9,63920018075|  9,63920018075|  3,02169563752|  9,63920018075|  9,63920018075|  0,00000000000|  9,63920018075|  9,63920018075|  9,63920018075| 10,16379060152| 10,18361140241|  9,63920018075|  9,63920018075|  9,85326474379|  9,63920018075|  9,85326474379| 10,18361140241| 10,61966893351|  9,85326474379| 10,61966893351| 10,11357796367|  9,63920018075| 10,87469672397|  9,63920018075| 11,65563597013|  9,63920018075|  9,91404853583|  9,63920018075| 10,11357796367|  9,81581885481
Bor_Oran                  |  9,91404853583|  9,60748685600|  9,39870768301|  9,63920018075|  9,39870768301|  9,39870768301|  9,63920018075|  0,00000000000|  6,64097381609|  9,39870768301| 10,16379060152| 10,18361140241|  9,60748685600|  9,60748685600|  9,85326474379|  9,39870768301|  9,85326474379| 10,18361140241| 10,61966893351|  9,85326474379| 10,61966893351| 10,11357796367|  9,60748685600| 10,87469672397|  9,39870768301| 11,65563597013|  9,39870768301|  9,91404853583|  9,60748685600| 10,11357796367|  9,81581885481
Sum_Oran                  |  9,91404853583|  9,60748685600|  9,39870768301|  9,63920018075|  9,39870768301|  9,39870768301|  9,63920018075|  6,64097381609|  0,00000000000|  9,39870768301| 10,16379060152| 10,18361140241|  9,60748685600|  9,60748685600|  9,85326474379|  9,39870768301|  9,85326474379| 10,18361140241| 10,61966893351|  9,85326474379| 10,61966893351| 10,11357796367|  9,60748685600| 10,87469672397|  9,39870768301| 11,65563597013|  9,39870768301|  9,91404853583|  9,60748685600| 10,11357796367|  9,81581885481
Gorilla                   |  9,91404853583|  9,60748685600|  7,86457770746|  9,63920018075|  9,24542694154|  7,86457770746|  9,63920018075|  9,39870768301|  9,39870768301|  0,00000000000| 10,16379060152| 10,18361140241|  9,60748685600|  9,60748685600|  9,85326474379|  9,24542694154|  9,85326474379| 10,18361140241| 10,61966893351|  9,85326474379| 10,61966893351| 10,11357796367|  9,60748685600| 10,87469672397|  7,86457770746| 11,65563597013|  9,24542694154|  9,91404853583|  9,60748685600| 10,11357796367|  9,81581885481
Cat                       | 10,16379060152| 10,16379060152| 10,16379060152| 10,16379060152| 10,16379060152| 10,16379060152| 10,16379060152| 10,16379060152| 10,16379060152| 10,16379060152|  0,00000000000| 10,18361140241| 10,16379060152| 10,16379060152| 10,16379060152| 10,16379060152| 10,16379060152| 10,18361140241| 10,61966893351| 10,16379060152| 10,61966893351| 10,16379060152| 10,16379060152| 10,87469672397| 10,16379060152| 11,65563597013| 10,16379060152| 10,16379060152| 10,16379060152| 10,16379060152| 10,16379060152
Dog                       | 10,18361140241| 10,18361140241| 10,18361140241| 10,18361140241| 10,18361140241| 10,18361140241| 10,18361140241| 10,18361140241| 10,18361140241| 10,18361140241| 10,18361140241|  0,00000000000| 10,18361140241| 10,18361140241| 10,18361140241| 10,18361140241| 10,18361140241| -0,51565640125| 10,61966893351| 10,18361140241| 10,61966893351| 10,18361140241| 10,18361140241| 10,87469672397| 10,18361140241| 11,65563597013| 10,18361140241| 10,18361140241| 10,18361140241| 10,18361140241| 10,18361140241
Pig                       |  9,91404853583|  8,86618876861|  9,60748685600|  9,63920018075|  9,60748685600|  9,60748685600|  9,63920018075|  9,60748685600|  9,60748685600|  9,60748685600| 10,16379060152| 10,18361140241|  0,00000000000|  7,51969594318|  9,85326474379|  9,60748685600|  9,85326474379| 10,18361140241| 10,61966893351|  9,85326474379| 10,61966893351| 10,11357796367|  8,84108249891| 10,87469672397|  9,60748685600| 11,65563597013|  9,60748685600|  9,91404853583|  8,44202359400| 10,11357796367|  9,81581885481
Sheep                     |  9,91404853583|  8,86618876861|  9,60748685600|  9,63920018075|  9,60748685600|  9,60748685600|  9,63920018075|  9,60748685600|  9,60748685600|  9,60748685600| 10,16379060152| 10,18361140241|  7,51969594318|  0,00000000000|  9,85326474379|  9,60748685600|  9,85326474379| 10,18361140241| 10,61966893351|  9,85326474379| 10,61966893351| 10,11357796367|  8,84108249891| 10,87469672397|  9,60748685600| 11,65563597013|  9,60748685600|  9,91404853583|  8,44202359400| 10,11357796367|  9,81581885481
Goat                      |  9,91404853583|  9,85326474379|  9,85326474379|  9,85326474379|  9,85326474379|  9,85326474379|  9,85326474379|  9,85326474379|  9,85326474379|  9,85326474379| 10,16379060152| 10,18361140241|  9,85326474379|  9,85326474379|  0,00000000000|  9,85326474379|  2,17072261789| 10,18361140241| 10,61966893351|  9,65241399551| 10,61966893351| 10,11357796367|  9,85326474379| 10,87469672397|  9,85326474379| 11,65563597013|  9,85326474379|  9,91404853583|  9,85326474379| 10,11357796367|  9,85326474379
Cow                       |  9,91404853583|  9,60748685600|  9,24542694154|  9,63920018075|  8,85165364326|  9,24542694154|  9,63920018075|  9,39870768301|  9,39870768301|  9,24542694154| 10,16379060152| 10,18361140241|  9,60748685600|  9,60748685600|  9,85326474379|  0,00000000000|  9,85326474379| 10,18361140241| 10,61966893351|  9,85326474379| 10,61966893351| 10,11357796367|  9,60748685600| 10,87469672397|  9,24542694154| 11,65563597013|  8,94943637653|  9,91404853583|  9,60748685600| 10,11357796367|  9,81581885481
Buffalo                   |  9,91404853583|  9,85326474379|  9,85326474379|  9,85326474379|  9,85326474379|  9,85326474379|  9,85326474379|  9,85326474379|  9,85326474379|  9,85326474379| 10,16379060152| 10,18361140241|  9,85326474379|  9,85326474379|  2,17072261789|  9,85326474379|  0,00000000000| 10,18361140241| 10,61966893351|  9,65241399551| 10,61966893351| 10,11357796367|  9,85326474379| 10,87469672397|  9,85326474379| 11,65563597013|  9,85326474379|  9,91404853583|  9,85326474379| 10,11357796367|  9,85326474379
Wolf                      | 10,18361140241| 10,18361140241| 10,18361140241| 10,18361140241| 10,18361140241| 10,18361140241| 10,18361140241| 10,18361140241| 10,18361140241| 10,18361140241| 10,18361140241| -0,51565640125| 10,18361140241| 10,18361140241| 10,18361140241| 10,18361140241| 10,18361140241|  0,00000000000| 10,61966893351| 10,18361140241| 10,61966893351| 10,18361140241| 10,18361140241| 10,87469672397| 10,18361140241| 11,65563597013| 10,18361140241| 10,18361140241| 10,18361140241| 10,18361140241| 10,18361140241
Tiger                     | 10,61966893351| 10,61966893351| 10,61966893351| 10,61966893351| 10,61966893351| 10,61966893351| 10,61966893351| 10,61966893351| 10,61966893351| 10,61966893351| 10,61966893351| 10,61966893351| 10,61966893351| 10,61966893351| 10,61966893351| 10,61966893351| 10,61966893351| 10,61966893351|  0,00000000000| 10,61966893351|  7,67297678310| 10,61966893351| 10,61966893351| 10,87469672397| 10,61966893351| 11,65563597013| 10,61966893351| 10,61966893351| 10,61966893351| 10,61966893351| 10,61966893351
Leopard                   |  9,91404853583|  9,85326474379|  9,85326474379|  9,85326474379|  9,85326474379|  9,85326474379|  9,85326474379|  9,85326474379|  9,85326474379|  9,85326474379| 10,16379060152| 10,18361140241|  9,85326474379|  9,85326474379|  9,65241399551|  9,85326474379|  9,65241399551| 10,18361140241| 10,61966893351|  0,00000000000| 10,61966893351| 10,11357796367|  9,85326474379| 10,87469672397|  9,85326474379| 11,65563597013|  9,85326474379|  9,91404853583|  9,85326474379| 10,11357796367|  9,85326474379
Indian_Rhino              | 10,61966893351| 10,61966893351| 10,61966893351| 10,61966893351| 10,61966893351| 10,61966893351| 10,61966893351| 10,61966893351| 10,61966893351| 10,61966893351| 10,61966893351| 10,61966893351| 10,61966893351| 10,61966893351| 10,61966893351| 10,61966893351| 10,61966893351| 10,61966893351|  7,67297678310| 10,61966893351|  0,00000000000| 10,61966893351| 10,61966893351| 10,87469672397| 10,61966893351| 11,65563597013| 10,61966893351| 10,61966893351| 10,61966893351| 10,61966893351| 10,61966893351
White_Rhino               | 10,11357796367| 10,11357796367| 10,11357796367| 10,11357796367| 10,11357796367| 10,11357796367| 10,11357796367| 10,11357796367| 10,11357796367| 10,11357796367| 10,16379060152| 10,18361140241| 10,11357796367| 10,11357796367| 10,11357796367| 10,11357796367| 10,11357796367| 10,18361140241| 10,61966893351| 10,11357796367| 10,61966893351|  0,00000000000| 10,11357796367| 10,87469672397| 10,11357796367| 11,65563597013| 10,11357796367| 10,11357796367| 10,11357796367|  8,92565129928| 10,11357796367
Black_Bear                |  9,91404853583|  8,86618876861|  9,60748685600|  9,63920018075|  9,60748685600|  9,60748685600|  9,63920018075|  9,60748685600|  9,60748685600|  9,60748685600| 10,16379060152| 10,18361140241|  8,84108249891|  8,84108249891|  9,85326474379|  9,60748685600|  9,85326474379| 10,18361140241| 10,61966893351|  9,85326474379| 10,61966893351| 10,11357796367|  0,00000000000| 10,87469672397|  9,60748685600| 11,65563597013|  9,60748685600|  9,91404853583|  8,84108249891| 10,11357796367|  9,81581885481
Brown_Bear                | 10,87469672397| 10,87469672397| 10,87469672397| 10,87469672397| 10,87469672397| 10,87469672397| 10,87469672397| 10,87469672397| 10,87469672397| 10,87469672397| 10,87469672397| 10,87469672397| 10,87469672397| 10,87469672397| 10,87469672397| 10,87469672397| 10,87469672397| 10,87469672397| 10,87469672397| 10,87469672397| 10,87469672397| 10,87469672397| 10,87469672397|  0,00000000000| 10,87469672397| 11,65563597013| 10,87469672397| 10,87469672397| 10,87469672397| 10,87469672397| 10,87469672397
Polar_Bear                |  9,91404853583|  9,60748685600|  7,33073762031|  9,63920018075|  9,24542694154|  7,33073762031|  9,63920018075|  9,39870768301|  9,39870768301|  7,86457770746| 10,16379060152| 10,18361140241|  9,60748685600|  9,60748685600|  9,85326474379|  9,24542694154|  9,85326474379| 10,18361140241| 10,61966893351|  9,85326474379| 10,61966893351| 10,11357796367|  9,60748685600| 10,87469672397|  0,00000000000| 11,65563597013|  9,24542694154|  9,91404853583|  9,60748685600| 10,11357796367|  9,81581885481
Giant_Panda               | 11,65563597013| 11,65563597013| 11,65563597013| 11,65563597013| 11,65563597013| 11,65563597013| 11,65563597013| 11,65563597013| 11,65563597013| 11,65563597013| 11,65563597013| 11,65563597013| 11,65563597013| 11,65563597013| 11,65563597013| 11,65563597013| 11,65563597013| 11,65563597013| 11,65563597013| 11,65563597013| 11,65563597013| 11,65563597013| 11,65563597013| 11,65563597013| 11,65563597013|  0,00000000000| 11,65563597013| 11,65563597013| 11,65563597013| 11,65563597013| 11,65563597013
Rabbit                    |  9,91404853583|  9,60748685600|  9,24542694154|  9,63920018075|  8,94943637653|  9,24542694154|  9,63920018075|  9,39870768301|  9,39870768301|  9,24542694154| 10,16379060152| 10,18361140241|  9,60748685600|  9,60748685600|  9,85326474379|  8,94943637653|  9,85326474379| 10,18361140241| 10,61966893351|  9,85326474379| 10,61966893351| 10,11357796367|  9,60748685600| 10,87469672397|  9,24542694154| 11,65563597013|  0,00000000000|  9,91404853583|  9,60748685600| 10,11357796367|  9,81581885481
Hedgehog                  |  8,26760078043|  9,91404853583|  9,91404853583|  9,91404853583|  9,91404853583|  9,91404853583|  9,91404853583|  9,91404853583|  9,91404853583|  9,91404853583| 10,16379060152| 10,18361140241|  9,91404853583|  9,91404853583|  9,91404853583|  9,91404853583|  9,91404853583| 10,18361140241| 10,61966893351|  9,91404853583| 10,61966893351| 10,11357796367|  9,91404853583| 10,87469672397|  9,91404853583| 11,65563597013|  9,91404853583|  0,00000000000|  9,91404853583| 10,11357796367|  9,91404853583
Dormouse                  |  9,91404853583|  8,86618876861|  9,60748685600|  9,63920018075|  9,60748685600|  9,60748685600|  9,63920018075|  9,60748685600|  9,60748685600|  9,60748685600| 10,16379060152| 10,18361140241|  8,44202359400|  8,44202359400|  9,85326474379|  9,60748685600|  9,85326474379| 10,18361140241| 10,61966893351|  9,85326474379| 10,61966893351| 10,11357796367|  8,84108249891| 10,87469672397|  9,60748685600| 11,65563597013|  9,60748685600|  9,91404853583|  0,00000000000| 10,11357796367|  9,81581885481
Squirrel                  | 10,11357796367| 10,11357796367| 10,11357796367| 10,11357796367| 10,11357796367| 10,11357796367| 10,11357796367| 10,11357796367| 10,11357796367| 10,11357796367| 10,16379060152| 10,18361140241| 10,11357796367| 10,11357796367| 10,11357796367| 10,11357796367| 10,11357796367| 10,18361140241| 10,61966893351| 10,11357796367| 10,61966893351|  8,92565129928| 10,11357796367| 10,87469672397| 10,11357796367| 11,65563597013| 10,11357796367| 10,11357796367| 10,11357796367|  0,00000000000| 10,11357796367
Blue_Whale                |  9,91404853583|  9,81581885481|  9,81581885481|  9,81581885481|  9,81581885481|  9,81581885481|  9,81581885481|  9,81581885481|  9,81581885481|  9,81581885481| 10,16379060152| 10,18361140241|  9,81581885481|  9,81581885481|  9,85326474379|  9,81581885481|  9,85326474379| 10,18361140241| 10,61966893351|  9,85326474379| 10,61966893351| 10,11357796367|  9,81581885481| 10,87469672397|  9,81581885481| 11,65563597013|  9,81581885481|  9,91404853583|  9,81581885481| 10,11357796367|  0,00000000000
                           |Human          |P_Chim         |Com_Chim       |Gibbon         |Baboon         |Ver_Monkey     |Macaca_Thibet  |Bor_Oran       |Sum_Oran       |Gorilla        |Cat            |Dog            |Pig            |Sheep          |Goat           |Cow            |Buffalo        |Wolf           |Tiger          |Leopard        |Indian_Rhino   |White_Rhino    |Black_Bear     |Brown_Bear     |Polar_Bear     |Giant_Panda    |Rabbit         |Hedgehog       |Dormouse       |Squirrel       |Blue_Whale     
Human                     |  0,00000000000|  8,00000000000| 12,00000000000|  7,00000000000| 11,00000000000| 12,00000000000|  7,00000000000|  9,00000000000|  9,00000000000| 10,00000000000|  5,00000000000|  7,00000000000| 11,00000000000| 11,00000000000|  6,00000000000| 11,00000000000|  6,00000000000|  7,00000000000|  8,00000000000|  5,00000000000|  8,00000000000|  5,00000000000|  9,00000000000|  8,00000000000| 11,00000000000|  9,00000000000| 10,00000000000|  2,00000000000| 10,00000000000|  5,00000000000|  5,00000000000
P_Chim                    |  8,00000000000|  0,00000000000|  8,00000000000|  5,00000000000|  7,00000000000|  8,00000000000|  5,00000000000|  5,00000000000|  5,00000000000|  6,00000000000|  9,00000000000| 11,00000000000|  5,00000000000|  5,00000000000|  8,00000000000|  7,00000000000|  8,00000000000| 11,00000000000| 12,00000000000|  7,00000000000| 12,00000000000|  9,00000000000|  3,00000000000| 12,00000000000|  7,00000000000| 13,00000000000|  6,00000000000|  8,00000000000|  4,00000000000|  9,00000000000|  5,00000000000
Com_Chim                  | 12,00000000000|  8,00000000000|  0,00000000000|  9,00000000000|  7,00000000000|  2,00000000000|  9,00000000000|  7,00000000000|  7,00000000000|  4,00000000000| 13,00000000000| 15,00000000000| 11,00000000000| 11,00000000000| 12,00000000000|  7,00000000000| 12,00000000000| 15,00000000000| 16,00000000000| 11,00000000000| 16,00000000000| 13,00000000000|  9,00000000000| 16,00000000000|  3,00000000000| 17,00000000000|  6,00000000000| 12,00000000000| 10,00000000000| 13,00000000000|  9,00000000000
Gibbon                    |  7,00000000000|  5,00000000000|  9,00000000000|  0,00000000000|  8,00000000000|  9,00000000000|  2,00000000000|  6,00000000000|  6,00000000000|  7,00000000000|  8,00000000000| 10,00000000000|  8,00000000000|  8,00000000000|  7,00000000000|  8,00000000000|  7,00000000000| 10,00000000000| 11,00000000000|  6,00000000000| 11,00000000000|  8,00000000000|  6,00000000000| 11,00000000000|  8,00000000000| 12,00000000000|  7,00000000000|  7,00000000000|  7,00000000000|  8,00000000000|  4,00000000000
Baboon                    | 11,00000000000|  7,00000000000|  7,00000000000|  8,00000000000|  0,00000000000|  7,00000000000|  8,00000000000|  6,00000000000|  6,00000000000|  5,00000000000| 12,00000000000| 14,00000000000| 10,00000000000| 10,00000000000| 11,00000000000|  2,00000000000| 11,00000000000| 14,00000000000| 15,00000000000| 10,00000000000| 15,00000000000| 12,00000000000|  8,00000000000| 15,00000000000|  6,00000000000| 16,00000000000|  3,00000000000| 11,00000000000|  9,00000000000| 12,00000000000|  8,00000000000
Ver_Monkey                | 12,00000000000|  8,00000000000|  2,00000000000|  9,00000000000|  7,00000000000|  0,00000000000|  9,00000000000|  7,00000000000|  7,00000000000|  4,00000000000| 13,00000000000| 15,00000000000| 11,00000000000| 11,00000000000| 12,00000000000|  7,00000000000| 12,00000000000| 15,00000000000| 16,00000000000| 11,00000000000| 16,00000000000| 13,00000000000|  9,00000000000| 16,00000000000|  3,00000000000| 17,00000000000|  6,00000000000| 12,00000000000| 10,00000000000| 13,00000000000|  9,00000000000
Macaca_Thibet             |  7,00000000000|  5,00000000000|  9,00000000000|  2,00000000000|  8,00000000000|  9,00000000000|  0,00000000000|  6,00000000000|  6,00000000000|  7,00000000000|  8,00000000000| 10,00000000000|  8,00000000000|  8,00000000000|  7,00000000000|  8,00000000000|  7,00000000000| 10,00000000000| 11,00000000000|  6,00000000000| 11,00000000000|  8,00000000000|  6,00000000000| 11,00000000000|  8,00000000000| 12,00000000000|  7,00000000000|  7,00000000000|  7,00000000000|  8,00000000000|  4,00000000000
Bor_Oran                  |  9,00000000000|  5,00000000000|  7,00000000000|  6,00000000000|  6,00000000000|  7,00000000000|  6,00000000000|  0,00000000000|  2,00000000000|  5,00000000000| 10,00000000000| 12,00000000000|  8,00000000000|  8,00000000000|  9,00000000000|  6,00000000000|  9,00000000000| 12,00000000000| 13,00000000000|  8,00000000000| 13,00000000000| 10,00000000000|  6,00000000000| 13,00000000000|  6,00000000000| 14,00000000000|  5,00000000000|  9,00000000000|  7,00000000000| 10,00000000000|  6,00000000000
Sum_Oran                  |  9,00000000000|  5,00000000000|  7,00000000000|  6,00000000000|  6,00000000000|  7,00000000000|  6,00000000000|  2,00000000000|  0,00000000000|  5,00000000000| 10,00000000000| 12,00000000000|  8,00000000000|  8,00000000000|  9,00000000000|  6,00000000000|  9,00000000000| 12,00000000000| 13,00000000000|  8,00000000000| 13,00000000000| 10,00000000000|  6,00000000000| 13,00000000000|  6,00000000000| 14,00000000000|  5,00000000000|  9,00000000000|  7,00000000000| 10,00000000000|  6,00000000000
Gorilla                   | 10,00000000000|  6,00000000000|  4,00000000000|  7,00000000000|  5,00000000000|  4,00000000000|  7,00000000000|  5,00000000000|  5,00000000000|  0,00000000000| 11,00000000000| 13,00000000000|  9,00000000000|  9,00000000000| 10,00000000000|  5,00000000000| 10,00000000000| 13,00000000000| 14,00000000000|  9,00000000000| 14,00000000000| 11,00000000000|  7,00000000000| 14,00000000000|  3,00000000000| 15,00000000000|  4,00000000000| 10,00000000000|  8,00000000000| 11,00000000000|  7,00000000000
Cat                       |  5,00000000000|  9,00000000000| 13,00000000000|  8,00000000000| 12,00000000000| 13,00000000000|  8,00000000000| 10,00000000000| 10,00000000000| 11,00000000000|  0,00000000000|  4,00000000000| 12,00000000000| 12,00000000000|  7,00000000000| 12,00000000000|  7,00000000000|  4,00000000000|  5,00000000000|  6,00000000000|  5,00000000000|  4,00000000000| 10,00000000000|  5,00000000000| 12,00000000000|  6,00000000000| 11,00000000000|  5,00000000000| 11,00000000000|  4,00000000000|  6,00000000000
Dog                       |  7,00000000000| 11,00000000000| 15,00000000000| 10,00000000000| 14,00000000000| 15,00000000000| 10,00000000000| 12,00000000000| 12,00000000000| 13,00000000000|  4,00000000000|  0,00000000000| 14,00000000000| 14,00000000000|  9,00000000000| 14,00000000000|  9,00000000000|  2,00000000000|  5,00000000000|  8,00000000000|  5,00000000000|  6,00000000000| 12,00000000000|  5,00000000000| 14,00000000000|  6,00000000000| 13,00000000000|  7,00000000000| 13,00000000000|  6,00000000000|  8,00000000000
Pig                       | 11,00000000000|  5,00000000000| 11,00000000000|  8,00000000000| 10,00000000000| 11,00000000000|  8,00000000000|  8,00000000000|  8,00000000000|  9,00000000000| 12,00000000000| 14,00000000000|  0,00000000000|  2,00000000000| 11,00000000000| 10,00000000000| 11,00000000000| 14,00000000000| 15,00000000000| 10,00000000000| 15,00000000000| 12,00000000000|  4,00000000000| 15,00000000000| 10,00000000000| 16,00000000000|  9,00000000000| 11,00000000000|  3,00000000000| 12,00000000000|  8,00000000000
Sheep                     | 11,00000000000|  5,00000000000| 11,00000000000|  8,00000000000| 10,00000000000| 11,00000000000|  8,00000000000|  8,00000000000|  8,00000000000|  9,00000000000| 12,00000000000| 14,00000000000|  2,00000000000|  0,00000000000| 11,00000000000| 10,00000000000| 11,00000000000| 14,00000000000| 15,00000000000| 10,00000000000| 15,00000000000| 12,00000000000|  4,00000000000| 15,00000000000| 10,00000000000| 16,00000000000|  9,00000000000| 11,00000000000|  3,00000000000| 12,00000000000|  8,00000000000
Goat                      |  6,00000000000|  8,00000000000| 12,00000000000|  7,00000000000| 11,00000000000| 12,00000000000|  7,00000000000|  9,00000000000|  9,00000000000| 10,00000000000|  7,00000000000|  9,00000000000| 11,00000000000| 11,00000000000|  0,00000000000| 11,00000000000|  2,00000000000|  9,00000000000| 10,00000000000|  3,00000000000| 10,00000000000|  7,00000000000|  9,00000000000| 10,00000000000| 11,00000000000| 11,00000000000| 10,00000000000|  6,00000000000| 10,00000000000|  7,00000000000|  5,00000000000
Cow                       | 11,00000000000|  7,00000000000|  7,00000000000|  8,00000000000|  2,00000000000|  7,00000000000|  8,00000000000|  6,00000000000|  6,00000000000|  5,00000000000| 12,00000000000| 14,00000000000| 10,00000000000| 10,00000000000| 11,00000000000|  0,00000000000| 11,00000000000| 14,00000000000| 15,00000000000| 10,00000000000| 15,00000000000| 12,00000000000|  8,00000000000| 15,00000000000|  6,00000000000| 16,00000000000|  3,00000000000| 11,00000000000|  9,00000000000| 12,00000000000|  8,00000000000
Buffalo                   |  6,00000000000|  8,00000000000| 12,00000000000|  7,00000000000| 11,00000000000| 12,00000000000|  7,00000000000|  9,00000000000|  9,00000000000| 10,00000000000|  7,00000000000|  9,00000000000| 11,00000000000| 11,00000000000|  2,00000000000| 11,00000000000|  0,00000000000|  9,00000000000| 10,00000000000|  3,00000000000| 10,00000000000|  7,00000000000|  9,00000000000| 10,00000000000| 11,00000000000| 11,00000000000| 10,00000000000|  6,00000000000| 10,00000000000|  7,00000000000|  5,00000000000
Wolf                      |  7,00000000000| 11,00000000000| 15,00000000000| 10,00000000000| 14,00000000000| 15,00000000000| 10,00000000000| 12,00000000000| 12,00000000000| 13,00000000000|  4,00000000000|  2,00000000000| 14,00000000000| 14,00000000000|  9,00000000000| 14,00000000000|  9,00000000000|  0,00000000000|  5,00000000000|  8,00000000000|  5,00000000000|  6,00000000000| 12,00000000000|  5,00000000000| 14,00000000000|  6,00000000000| 13,00000000000|  7,00000000000| 13,00000000000|  6,00000000000|  8,00000000000
Tiger                     |  8,00000000000| 12,00000000000| 16,00000000000| 11,00000000000| 15,00000000000| 16,00000000000| 11,00000000000| 13,00000000000| 13,00000000000| 14,00000000000|  5,00000000000|  5,00000000000| 15,00000000000| 15,00000000000| 10,00000000000| 15,00000000000| 10,00000000000|  5,00000000000|  0,00000000000|  9,00000000000|  2,00000000000|  7,00000000000| 13,00000000000|  4,00000000000| 15,00000000000|  5,00000000000| 14,00000000000|  8,00000000000| 14,00000000000|  7,00000000000|  9,00000000000
Leopard                   |  5,00000000000|  7,00000000000| 11,00000000000|  6,00000000000| 10,00000000000| 11,00000000000|  6,00000000000|  8,00000000000|  8,00000000000|  9,00000000000|  6,00000000000|  8,00000000000| 10,00000000000| 10,00000000000|  3,00000000000| 10,00000000000|  3,00000000000|  8,00000000000|  9,00000000000|  0,00000000000|  9,00000000000|  6,00000000000|  8,00000000000|  9,00000000000| 10,00000000000| 10,00000000000|  9,00000000000|  5,00000000000|  9,00000000000|  6,00000000000|  4,00000000000
Indian_Rhino              |  8,00000000000| 12,00000000000| 16,00000000000| 11,00000000000| 15,00000000000| 16,00000000000| 11,00000000000| 13,00000000000| 13,00000000000| 14,00000000000|  5,00000000000|  5,00000000000| 15,00000000000| 15,00000000000| 10,00000000000| 15,00000000000| 10,00000000000|  5,00000000000|  2,00000000000|  9,00000000000|  0,00000000000|  7,00000000000| 13,00000000000|  4,00000000000| 15,00000000000|  5,00000000000| 14,00000000000|  8,00000000000| 14,00000000000|  7,00000000000|  9,00000000000
White_Rhino               |  5,00000000000|  9,00000000000| 13,00000000000|  8,00000000000| 12,00000000000| 13,00000000000|  8,00000000000| 10,00000000000| 10,00000000000| 11,00000000000|  4,00000000000|  6,00000000000| 12,00000000000| 12,00000000000|  7,00000000000| 12,00000000000|  7,00000000000|  6,00000000000|  7,00000000000|  6,00000000000|  7,00000000000|  0,00000000000| 10,00000000000|  7,00000000000| 12,00000000000|  8,00000000000| 11,00000000000|  5,00000000000| 11,00000000000|  2,00000000000|  6,00000000000
Black_Bear                |  9,00000000000|  3,00000000000|  9,00000000000|  6,00000000000|  8,00000000000|  9,00000000000|  6,00000000000|  6,00000000000|  6,00000000000|  7,00000000000| 10,00000000000| 12,00000000000|  4,00000000000|  4,00000000000|  9,00000000000|  8,00000000000|  9,00000000000| 12,00000000000| 13,00000000000|  8,00000000000| 13,00000000000| 10,00000000000|  0,00000000000| 13,00000000000|  8,00000000000| 14,00000000000|  7,00000000000|  9,00000000000|  3,00000000000| 10,00000000000|  6,00000000000
Brown_Bear                |  8,00000000000| 12,00000000000| 16,00000000000| 11,00000000000| 15,00000000000| 16,00000000000| 11,00000000000| 13,00000000000| 13,00000000000| 14,00000000000|  5,00000000000|  5,00000000000| 15,00000000000| 15,00000000000| 10,00000000000| 15,00000000000| 10,00000000000|  5,00000000000|  4,00000000000|  9,00000000000|  4,00000000000|  7,00000000000| 13,00000000000|  0,00000000000| 15,00000000000|  3,00000000000| 14,00000000000|  8,00000000000| 14,00000000000|  7,00000000000|  9,00000000000
Polar_Bear                | 11,00000000000|  7,00000000000|  3,00000000000|  8,00000000000|  6,00000000000|  3,00000000000|  8,00000000000|  6,00000000000|  6,00000000000|  3,00000000000| 12,00000000000| 14,00000000000| 10,00000000000| 10,00000000000| 11,00000000000|  6,00000000000| 11,00000000000| 14,00000000000| 15,00000000000| 10,00000000000| 15,00000000000| 12,00000000000|  8,00000000000| 15,00000000000|  0,00000000000| 16,00000000000|  5,00000000000| 11,00000000000|  9,00000000000| 12,00000000000|  8,00000000000
Giant_Panda               |  9,00000000000| 13,00000000000| 17,00000000000| 12,00000000000| 16,00000000000| 17,00000000000| 12,00000000000| 14,00000000000| 14,00000000000| 15,00000000000|  6,00000000000|  6,00000000000| 16,00000000000| 16,00000000000| 11,00000000000| 16,00000000000| 11,00000000000|  6,00000000000|  5,00000000000| 10,00000000000|  5,00000000000|  8,00000000000| 14,00000000000|  3,00000000000| 16,00000000000|  0,00000000000| 15,00000000000|  9,00000000000| 15,00000000000|  8,00000000000| 10,00000000000
Rabbit                    | 10,00000000000|  6,00000000000|  6,00000000000|  7,00000000000|  3,00000000000|  6,00000000000|  7,00000000000|  5,00000000000|  5,00000000000|  4,00000000000| 11,00000000000| 13,00000000000|  9,00000000000|  9,00000000000| 10,00000000000|  3,00000000000| 10,00000000000| 13,00000000000| 14,00000000000|  9,00000000000| 14,00000000000| 11,00000000000|  7,00000000000| 14,00000000000|  5,00000000000| 15,00000000000|  0,00000000000| 10,00000000000|  8,00000000000| 11,00000000000|  7,00000000000
Hedgehog                  |  2,00000000000|  8,00000000000| 12,00000000000|  7,00000000000| 11,00000000000| 12,00000000000|  7,00000000000|  9,00000000000|  9,00000000000| 10,00000000000|  5,00000000000|  7,00000000000| 11,00000000000| 11,00000000000|  6,00000000000| 11,00000000000|  6,00000000000|  7,00000000000|  8,00000000000|  5,00000000000|  8,00000000000|  5,00000000000|  9,00000000000|  8,00000000000| 11,00000000000|  9,00000000000| 10,00000000000|  0,00000000000| 10,00000000000|  5,00000000000|  5,00000000000
Dormouse                  | 10,00000000000|  4,00000000000| 10,00000000000|  7,00000000000|  9,00000000000| 10,00000000000|  7,00000000000|  7,00000000000|  7,00000000000|  8,00000000000| 11,00000000000| 13,00000000000|  3,00000000000|  3,00000000000| 10,00000000000|  9,00000000000| 10,00000000000| 13,00000000000| 14,00000000000|  9,00000000000| 14,00000000000| 11,00000000000|  3,00000000000| 14,00000000000|  9,00000000000| 15,00000000000|  8,00000000000| 10,00000000000|  0,00000000000| 11,00000000000|  7,00000000000
Squirrel                  |  5,00000000000|  9,00000000000| 13,00000000000|  8,00000000000| 12,00000000000| 13,00000000000|  8,00000000000| 10,00000000000| 10,00000000000| 11,00000000000|  4,00000000000|  6,00000000000| 12,00000000000| 12,00000000000|  7,00000000000| 12,00000000000|  7,00000000000|  6,00000000000|  7,00000000000|  6,00000000000|  7,00000000000|  2,00000000000| 10,00000000000|  7,00000000000| 12,00000000000|  8,00000000000| 11,00000000000|  5,00000000000| 11,00000000000|  0,00000000000|  6,00000000000
Blue_Whale                |  5,00000000000|  5,00000000000|  9,00000000000|  4,00000000000|  8,00000000000|  9,00000000000|  4,00000000000|  6,00000000000|  6,00000000000|  7,00000000000|  6,00000000000|  8,00000000000|  8,00000000000|  8,00000000000|  5,00000000000|  8,00000000000|  5,00000000000|  8,00000000000|  9,00000000000|  4,00000000000|  9,00000000000|  6,00000000000|  6,00000000000|  9,00000000000|  8,00000000000| 10,00000000000|  7,00000000000|  5,00000000000|  7,00000000000|  6,00000000000|  0,00000000000
