                           |Human          |P_Chim         |Com_Chim       |Gibbon         |Baboon         |Ver_Monkey     |Macaca_Thibet  |Bor_Oran       |Sum_Oran       |Gorilla        |Cat            |Dog            |Pig            |Sheep          |Goat           |Cow            |Buffalo        |Wolf           |Tiger          |Leopard        |Indian_Rhino   |White_Rhino    |Black_Bear     |Brown_Bear     |Polar_Bear     |Giant_Panda    |Rabbit         |Hedgehog       |Dormouse       |Squirrel       |Blue_Whale     
Human                     |  0,00000000000|2094,87500225761|2094,87500225761|2708,73873236931|3081,70484766737|3081,70484766737|3081,70484766737|2573,39409212932|2573,39409212932|2094,87500225761|3630,03460775255|3628,35769867286|3757,05338967198|3757,05338967198|3757,05338967198|3757,05338967198|3757,05338967198|3628,35769867286|3630,03460775255|3630,03460775255|3757,05338967198|3757,05338967198|3630,03460775255|3630,03460775255|3630,03460775255|3630,03460775255|3594,21028231847|3684,02845916563|3717,10774818591|3594,21028231847|3757,05338967198
P_Chim                    |2094,87500225761|  0,00000000000|1584,77393339381|2708,73873236931|3081,70484766737|3081,70484766737|3081,70484766737|2573,39409212932|2573,39409212932|1967,25059984431|3630,03460775255|3628,35769867286|3757,05338967198|3757,05338967198|3757,05338967198|3757,05338967198|3757,05338967198|3628,35769867286|3630,03460775255|3630,03460775255|3757,05338967198|3757,05338967198|3630,03460775255|3630,03460775255|3630,03460775255|3630,03460775255|3594,21028231847|3684,02845916563|3717,10774818591|3594,21028231847|3757,05338967198
Com_Chim                  |2094,87500225761|1584,77393339381|  0,00000000000|2708,73873236931|3081,70484766737|3081,70484766737|3081,70484766737|2573,39409212932|2573,39409212932|1967,25059984431|3630,03460775255|3628,35769867286|3757,05338967198|3757,05338967198|3757,05338967198|3757,05338967198|3757,05338967198|3628,35769867286|3630,03460775255|3630,03460775255|3757,05338967198|3757,05338967198|3630,03460775255|3630,03460775255|3630,03460775255|3630,03460775255|3594,21028231847|3684,02845916563|3717,10774818591|3594,21028231847|3757,05338967198
Gibbon                    |2708,73873236931|2708,73873236931|2708,73873236931|  0,00000000000|3081,70484766737|3081,70484766737|3081,70484766737|2708,73873236931|2708,73873236931|2708,73873236931|3630,03460775255|3628,35769867286|3757,05338967198|3757,05338967198|3757,05338967198|3757,05338967198|3757,05338967198|3628,35769867286|3630,03460775255|3630,03460775255|3757,05338967198|3757,05338967198|3630,03460775255|3630,03460775255|3630,03460775255|3630,03460775255|3594,21028231847|3684,02845916563|3717,10774818591|3594,21028231847|3757,05338967198
Baboon                    |3081,70484766737|3081,70484766737|3081,70484766737|3081,70484766737|  0,00000000000|2722,23259912182|2790,98158774505|3081,70484766737|3081,70484766737|3081,70484766737|3630,03460775255|3628,35769867286|3757,05338967198|3757,05338967198|3757,05338967198|3757,05338967198|3757,05338967198|3628,35769867286|3630,03460775255|3630,03460775255|3757,05338967198|3757,05338967198|3630,03460775255|3630,03460775255|3630,03460775255|3630,03460775255|3594,21028231847|3684,02845916563|3717,10774818591|3594,21028231847|3757,05338967198
Ver_Monkey                |3081,70484766737|3081,70484766737|3081,70484766737|3081,70484766737|2722,23259912182|  0,00000000000|2790,98158774505|3081,70484766737|3081,70484766737|3081,70484766737|3630,03460775255|3628,35769867286|3757,05338967198|3757,05338967198|3757,05338967198|3757,05338967198|3757,05338967198|3628,35769867286|3630,03460775255|3630,03460775255|3757,05338967198|3757,05338967198|3630,03460775255|3630,03460775255|3630,03460775255|3630,03460775255|3594,21028231847|3684,02845916563|3717,10774818591|3594,21028231847|3757,05338967198
Macaca_Thibet             |3081,70484766737|3081,70484766737|3081,70484766737|3081,70484766737|2790,98158774505|2790,98158774505|  0,00000000000|3081,70484766737|3081,70484766737|3081,70484766737|3630,03460775255|3628,35769867286|3757,05338967198|3757,05338967198|3757,05338967198|3757,05338967198|3757,05338967198|3628,35769867286|3630,03460775255|3630,03460775255|3757,05338967198|3757,05338967198|3630,03460775255|3630,03460775255|3630,03460775255|3630,03460775255|3594,21028231847|3684,02845916563|3717,10774818591|3594,21028231847|3757,05338967198
Bor_Oran                  |2573,39409212932|2573,39409212932|2573,39409212932|2708,73873236931|3081,70484766737|3081,70484766737|3081,70484766737|  0,00000000000|2183,56497140367|2573,39409212932|3630,03460775255|3628,35769867286|3757,05338967198|3757,05338967198|3757,05338967198|3757,05338967198|3757,05338967198|3628,35769867286|3630,03460775255|3630,03460775255|3757,05338967198|3757,05338967198|3630,03460775255|3630,03460775255|3630,03460775255|3630,03460775255|3594,21028231847|3684,02845916563|3717,10774818591|3594,21028231847|3757,05338967198
Sum_Oran                  |2573,39409212932|2573,39409212932|2573,39409212932|2708,73873236931|3081,70484766737|3081,70484766737|3081,70484766737|2183,56497140367|  0,00000000000|2573,39409212932|3630,03460775255|3628,35769867286|3757,05338967198|3757,05338967198|3757,05338967198|3757,05338967198|3757,05338967198|3628,35769867286|3630,03460775255|3630,03460775255|3757,05338967198|3757,05338967198|3630,03460775255|3630,03460775255|3630,03460775255|3630,03460775255|3594,21028231847|3684,02845916563|3717,10774818591|3594,21028231847|3757,05338967198
Gorilla                   |2094,87500225761|1967,25059984431|1967,25059984431|2708,73873236931|3081,70484766737|3081,70484766737|3081,70484766737|2573,39409212932|2573,39409212932|  0,00000000000|3630,03460775255|3628,35769867286|3757,05338967198|3757,05338967198|3757,05338967198|3757,05338967198|3757,05338967198|3628,35769867286|3630,03460775255|3630,03460775255|3757,05338967198|3757,05338967198|3630,03460775255|3630,03460775255|3630,03460775255|3630,03460775255|3594,21028231847|3684,02845916563|3717,10774818591|3594,21028231847|3757,05338967198
Cat                       |3630,03460775255|3630,03460775255|3630,03460775255|3630,03460775255|3630,03460775255|3630,03460775255|3630,03460775255|3630,03460775255|3630,03460775255|3630,03460775255|  0,00000000000|3630,03460775255|3757,05338967198|3757,05338967198|3757,05338967198|3757,05338967198|3757,05338967198|3630,03460775255|2886,54415767345|2886,54415767345|3757,05338967198|3757,05338967198|3476,00503607376|3476,00503607376|3476,00503607376|3476,00503607376|3630,03460775255|3684,02845916563|3717,10774818591|3630,03460775255|3757,05338967198
Dog                       |3628,35769867286|3628,35769867286|3628,35769867286|3628,35769867286|3628,35769867286|3628,35769867286|3628,35769867286|3628,35769867286|3628,35769867286|3628,35769867286|3630,03460775255|  0,00000000000|3757,05338967198|3757,05338967198|3757,05338967198|3757,05338967198|3757,05338967198|1479,41278564831|3630,03460775255|3630,03460775255|3757,05338967198|3757,05338967198|3630,03460775255|3630,03460775255|3630,03460775255|3630,03460775255|3628,35769867286|3684,02845916563|3717,10774818591|3628,35769867286|3757,05338967198
Pig                       |3757,05338967198|3757,05338967198|3757,05338967198|3757,05338967198|3757,05338967198|3757,05338967198|3757,05338967198|3757,05338967198|3757,05338967198|3757,05338967198|3757,05338967198|3757,05338967198|  0,00000000000|3683,18317266719|3683,18317266719|3683,18317266719|3683,18317266719|3757,05338967198|3757,05338967198|3757,05338967198|3683,18317266719|3683,18317266719|3757,05338967198|3757,05338967198|3757,05338967198|3757,05338967198|3757,05338967198|3757,05338967198|3757,05338967198|3757,05338967198|3683,18317266719
Sheep                     |3757,05338967198|3757,05338967198|3757,05338967198|3757,05338967198|3757,05338967198|3757,05338967198|3757,05338967198|3757,05338967198|3757,05338967198|3757,05338967198|3757,05338967198|3757,05338967198|3683,18317266719|  0,00000000000|2239,84382967879|2821,93140890816|2821,93140890816|3757,05338967198|3757,05338967198|3757,05338967198|3272,95691775725|3272,95691775725|3757,05338967198|3757,05338967198|3757,05338967198|3757,05338967198|3757,05338967198|3757,05338967198|3757,05338967198|3757,05338967198|3194,44521097572
Goat                      |3757,05338967198|3757,05338967198|3757,05338967198|3757,05338967198|3757,05338967198|3757,05338967198|3757,05338967198|3757,05338967198|3757,05338967198|3757,05338967198|3757,05338967198|3757,05338967198|3683,18317266719|2239,84382967879|  0,00000000000|2821,93140890816|2821,93140890816|3757,05338967198|3757,05338967198|3757,05338967198|3272,95691775725|3272,95691775725|3757,05338967198|3757,05338967198|3757,05338967198|3757,05338967198|3757,05338967198|3757,05338967198|3757,05338967198|3757,05338967198|3194,44521097572
Cow                       |3757,05338967198|3757,05338967198|3757,05338967198|3757,05338967198|3757,05338967198|3757,05338967198|3757,05338967198|3757,05338967198|3757,05338967198|3757,05338967198|3757,05338967198|3757,05338967198|3683,18317266719|2821,93140890816|2821,93140890816|  0,00000000000|2758,62290594470|3757,05338967198|3757,05338967198|3757,05338967198|3272,95691775725|3272,95691775725|3757,05338967198|3757,05338967198|3757,05338967198|3757,05338967198|3757,05338967198|3757,05338967198|3757,05338967198|3757,05338967198|3194,44521097572
Buffalo                   |3757,05338967198|3757,05338967198|3757,05338967198|3757,05338967198|3757,05338967198|3757,05338967198|3757,05338967198|3757,05338967198|3757,05338967198|3757,05338967198|3757,05338967198|3757,05338967198|3683,18317266719|2821,93140890816|2821,93140890816|2758,62290594470|  0,00000000000|3757,05338967198|3757,05338967198|3757,05338967198|3272,95691775725|3272,95691775725|3757,05338967198|3757,05338967198|3757,05338967198|3757,05338967198|3757,05338967198|3757,05338967198|3757,05338967198|3757,05338967198|3194,44521097572
Wolf                      |3628,35769867286|3628,35769867286|3628,35769867286|3628,35769867286|3628,35769867286|3628,35769867286|3628,35769867286|3628,35769867286|3628,35769867286|3628,35769867286|3630,03460775255|1479,41278564831|3757,05338967198|3757,05338967198|3757,05338967198|3757,05338967198|3757,05338967198|  0,00000000000|3630,03460775255|3630,03460775255|3757,05338967198|3757,05338967198|3630,03460775255|3630,03460775255|3630,03460775255|3630,03460775255|3628,35769867286|3684,02845916563|3717,10774818591|3628,35769867286|3757,05338967198
Tiger                     |3630,03460775255|3630,03460775255|3630,03460775255|3630,03460775255|3630,03460775255|3630,03460775255|3630,03460775255|3630,03460775255|3630,03460775255|3630,03460775255|2886,54415767345|3630,03460775255|3757,05338967198|3757,05338967198|3757,05338967198|3757,05338967198|3757,05338967198|3630,03460775255|  0,00000000000|2478,89440734545|3757,05338967198|3757,05338967198|3476,00503607376|3476,00503607376|3476,00503607376|3476,00503607376|3630,03460775255|3684,02845916563|3717,10774818591|3630,03460775255|3757,05338967198
Leopard                   |3630,03460775255|3630,03460775255|3630,03460775255|3630,03460775255|3630,03460775255|3630,03460775255|3630,03460775255|3630,03460775255|3630,03460775255|3630,03460775255|2886,54415767345|3630,03460775255|3757,05338967198|3757,05338967198|3757,05338967198|3757,05338967198|3757,05338967198|3630,03460775255|2478,89440734545|  0,00000000000|3757,05338967198|3757,05338967198|3476,00503607376|3476,00503607376|3476,00503607376|3476,00503607376|3630,03460775255|3684,02845916563|3717,10774818591|3630,03460775255|3757,05338967198
Indian_Rhino              |3757,05338967198|3757,05338967198|3757,05338967198|3757,05338967198|3757,05338967198|3757,05338967198|3757,05338967198|3757,05338967198|3757,05338967198|3757,05338967198|3757,05338967198|3757,05338967198|3683,18317266719|3272,95691775725|3272,95691775725|3272,95691775725|3272,95691775725|3757,05338967198|3757,05338967198|3757,05338967198|  0,00000000000|2271,51385955394|3757,05338967198|3757,05338967198|3757,05338967198|3757,05338967198|3757,05338967198|3757,05338967198|3757,05338967198|3757,05338967198|3272,95691775725
White_Rhino               |3757,05338967198|3757,05338967198|3757,05338967198|3757,05338967198|3757,05338967198|3757,05338967198|3757,05338967198|3757,05338967198|3757,05338967198|3757,05338967198|3757,05338967198|3757,05338967198|3683,18317266719|3272,95691775725|3272,95691775725|3272,95691775725|3272,95691775725|3757,05338967198|3757,05338967198|3757,05338967198|2271,51385955394|  0,00000000000|3757,05338967198|3757,05338967198|3757,05338967198|3757,05338967198|3757,05338967198|3757,05338967198|3757,05338967198|3757,05338967198|3272,95691775725
Black_Bear                |3630,03460775255|3630,03460775255|3630,03460775255|3630,03460775255|3630,03460775255|3630,03460775255|3630,03460775255|3630,03460775255|3630,03460775255|3630,03460775255|3476,00503607376|3630,03460775255|3757,05338967198|3757,05338967198|3757,05338967198|3757,05338967198|3757,05338967198|3630,03460775255|3476,00503607376|3476,00503607376|3757,05338967198|3757,05338967198|  0,00000000000|2666,64374850153|2666,64374850153|3148,41731197002|3630,03460775255|3684,02845916563|3717,10774818591|3630,03460775255|3757,05338967198
Brown_Bear                |3630,03460775255|3630,03460775255|3630,03460775255|3630,03460775255|3630,03460775255|3630,03460775255|3630,03460775255|3630,03460775255|3630,03460775255|3630,03460775255|3476,00503607376|3630,03460775255|3757,05338967198|3757,05338967198|3757,05338967198|3757,05338967198|3757,05338967198|3630,03460775255|3476,00503607376|3476,00503607376|3757,05338967198|3757,05338967198|2666,64374850153|  0,00000000000|1970,07991789718|3148,41731197002|3630,03460775255|3684,02845916563|3717,10774818591|3630,03460775255|3757,05338967198
Polar_Bear                |3630,03460775255|3630,03460775255|3630,03460775255|3630,03460775255|3630,03460775255|3630,03460775255|3630,03460775255|3630,03460775255|3630,03460775255|3630,03460775255|3476,00503607376|3630,03460775255|3757,05338967198|3757,05338967198|3757,05338967198|3757,05338967198|3757,05338967198|3630,03460775255|3476,00503607376|3476,00503607376|3757,05338967198|3757,05338967198|2666,64374850153|1970,07991789718|  0,00000000000|3148,41731197002|3630,03460775255|3684,02845916563|3717,10774818591|3630,03460775255|3757,05338967198
Giant_Panda               |3630,03460775255|3630,03460775255|3630,03460775255|3630,03460775255|3630,03460775255|3630,03460775255|3630,03460775255|3630,03460775255|3630,03460775255|3630,03460775255|3476,00503607376|3630,03460775255|3757,05338967198|3757,05338967198|3757,05338967198|3757,05338967198|3757,05338967198|3630,03460775255|3476,00503607376|3476,00503607376|3757,05338967198|3757,05338967198|3148,41731197002|3148,41731197002|3148,41731197002|  0,00000000000|3630,03460775255|3684,02845916563|3717,10774818591|3630,03460775255|3757,05338967198
Rabbit                    |3594,21028231847|3594,21028231847|3594,21028231847|3594,21028231847|3594,21028231847|3594,21028231847|3594,21028231847|3594,21028231847|3594,21028231847|3594,21028231847|3630,03460775255|3628,35769867286|3757,05338967198|3757,05338967198|3757,05338967198|3757,05338967198|3757,05338967198|3628,35769867286|3630,03460775255|3630,03460775255|3757,05338967198|3757,05338967198|3630,03460775255|3630,03460775255|3630,03460775255|3630,03460775255|  0,00000000000|3684,02845916563|3717,10774818591|3558,98056642105|3757,05338967198
Hedgehog                  |3684,02845916563|3684,02845916563|3684,02845916563|3684,02845916563|3684,02845916563|3684,02845916563|3684,02845916563|3684,02845916563|3684,02845916563|3684,02845916563|3684,02845916563|3684,02845916563|3757,05338967198|3757,05338967198|3757,05338967198|3757,05338967198|3757,05338967198|3684,02845916563|3684,02845916563|3684,02845916563|3757,05338967198|3757,05338967198|3684,02845916563|3684,02845916563|3684,02845916563|3684,02845916563|3684,02845916563|  0,00000000000|3717,10774818591|3684,02845916563|3757,05338967198
Dormouse                  |3717,10774818591|3717,10774818591|3717,10774818591|3717,10774818591|3717,10774818591|3717,10774818591|3717,10774818591|3717,10774818591|3717,10774818591|3717,10774818591|3717,10774818591|3717,10774818591|3757,05338967198|3757,05338967198|3757,05338967198|3757,05338967198|3757,05338967198|3717,10774818591|3717,10774818591|3717,10774818591|3757,05338967198|3757,05338967198|3717,10774818591|3717,10774818591|3717,10774818591|3717,10774818591|3717,10774818591|3717,10774818591|  0,00000000000|3717,10774818591|3757,05338967198
Squirrel                  |3594,21028231847|3594,21028231847|3594,21028231847|3594,21028231847|3594,21028231847|3594,21028231847|3594,21028231847|3594,21028231847|3594,21028231847|3594,21028231847|3630,03460775255|3628,35769867286|3757,05338967198|3757,05338967198|3757,05338967198|3757,05338967198|3757,05338967198|3628,35769867286|3630,03460775255|3630,03460775255|3757,05338967198|3757,05338967198|3630,03460775255|3630,03460775255|3630,03460775255|3630,03460775255|3558,98056642105|3684,02845916563|3717,10774818591|  0,00000000000|3757,05338967198
Blue_Whale                |3757,05338967198|3757,05338967198|3757,05338967198|3757,05338967198|3757,05338967198|3757,05338967198|3757,05338967198|3757,05338967198|3757,05338967198|3757,05338967198|3757,05338967198|3757,05338967198|3683,18317266719|3194,44521097572|3194,44521097572|3194,44521097572|3194,44521097572|3757,05338967198|3757,05338967198|3757,05338967198|3272,95691775725|3272,95691775725|3757,05338967198|3757,05338967198|3757,05338967198|3757,05338967198|3757,05338967198|3757,05338967198|3757,05338967198|3757,05338967198|  0,00000000000
                           |Human          |P_Chim         |Com_Chim       |Gibbon         |Baboon         |Ver_Monkey     |Macaca_Thibet  |Bor_Oran       |Sum_Oran       |Gorilla        |Cat            |Dog            |Pig            |Sheep          |Goat           |Cow            |Buffalo        |Wolf           |Tiger          |Leopard        |Indian_Rhino   |White_Rhino    |Black_Bear     |Brown_Bear     |Polar_Bear     |Giant_Panda    |Rabbit         |Hedgehog       |Dormouse       |Squirrel       |Blue_Whale     
Human                     |  0,00000000000|  6,06389499968|  6,06389499968|  7,72477977552|  8,73388605174|  8,73388605174|  8,73388605174|  7,35858799477|  7,35858799477|  6,06389499968| 10,21746050971| 10,21292342334| 10,56112564382| 10,56112564382| 10,56112564382| 10,56112564382| 10,56112564382| 10,21292342334| 10,21746050971| 10,21746050971| 10,56112564382| 10,56112564382| 10,21746050971| 10,21746050971| 10,21746050971| 10,21746050971| 10,12053333548| 10,36354759940| 10,45304773573| 10,12053333548| 10,56112564382
P_Chim                    |  6,06389499968|  0,00000000000|  4,68375302703|  7,72477977552|  8,73388605174|  8,73388605174|  8,73388605174|  7,35858799477|  7,35858799477|  5,71859128390| 10,21746050971| 10,21292342334| 10,56112564382| 10,56112564382| 10,56112564382| 10,56112564382| 10,56112564382| 10,21292342334| 10,21746050971| 10,21746050971| 10,56112564382| 10,56112564382| 10,21746050971| 10,21746050971| 10,21746050971| 10,21746050971| 10,12053333548| 10,36354759940| 10,45304773573| 10,12053333548| 10,56112564382
Com_Chim                  |  6,06389499968|  4,68375302703|  0,00000000000|  7,72477977552|  8,73388605174|  8,73388605174|  8,73388605174|  7,35858799477|  7,35858799477|  5,71859128390| 10,21746050971| 10,21292342334| 10,56112564382| 10,56112564382| 10,56112564382| 10,56112564382| 10,56112564382| 10,21292342334| 10,21746050971| 10,21746050971| 10,56112564382| 10,56112564382| 10,21746050971| 10,21746050971| 10,21746050971| 10,21746050971| 10,12053333548| 10,36354759940| 10,45304773573| 10,12053333548| 10,56112564382
Gibbon                    |  7,72477977552|  7,72477977552|  7,72477977552|  0,00000000000|  8,73388605174|  8,73388605174|  8,73388605174|  7,72477977552|  7,72477977552|  7,72477977552| 10,21746050971| 10,21292342334| 10,56112564382| 10,56112564382| 10,56112564382| 10,56112564382| 10,56112564382| 10,21292342334| 10,21746050971| 10,21746050971| 10,56112564382| 10,56112564382| 10,21746050971| 10,21746050971| 10,21746050971| 10,21746050971| 10,12053333548| 10,36354759940| 10,45304773573| 10,12053333548| 10,56112564382
Baboon                    |  8,73388605174|  8,73388605174|  8,73388605174|  8,73388605174|  0,00000000000|  7,76128911262|  7,94729806372|  8,73388605174|  8,73388605174|  8,73388605174| 10,21746050971| 10,21292342334| 10,56112564382| 10,56112564382| 10,56112564382| 10,56112564382| 10,56112564382| 10,21292342334| 10,21746050971| 10,21746050971| 10,56112564382| 10,56112564382| 10,21746050971| 10,21746050971| 10,21746050971| 10,21746050971| 10,12053333548| 10,36354759940| 10,45304773573| 10,12053333548| 10,56112564382
Ver_Monkey                |  8,73388605174|  8,73388605174|  8,73388605174|  8,73388605174|  7,76128911262|  0,00000000000|  7,94729806372|  8,73388605174|  8,73388605174|  8,73388605174| 10,21746050971| 10,21292342334| 10,56112564382| 10,56112564382| 10,56112564382| 10,56112564382| 10,56112564382| 10,21292342334| 10,21746050971| 10,21746050971| 10,56112564382| 10,56112564382| 10,21746050971| 10,21746050971| 10,21746050971| 10,21746050971| 10,12053333548| 10,36354759940| 10,45304773573| 10,12053333548| 10,56112564382
Macaca_Thibet             |  8,73388605174|  8,73388605174|  8,73388605174|  8,73388605174|  7,94729806372|  7,94729806372|  0,00000000000|  8,73388605174|  8,73388605174|  8,73388605174| 10,21746050971| 10,21292342334| 10,56112564382| 10,56112564382| 10,56112564382| 10,56112564382| 10,56112564382| 10,21292342334| 10,21746050971| 10,21746050971| 10,56112564382| 10,56112564382| 10,21746050971| 10,21746050971| 10,21746050971| 10,21746050971| 10,12053333548| 10,36354759940| 10,45304773573| 10,12053333548| 10,56112564382
Bor_Oran                  |  7,35858799477|  7,35858799477|  7,35858799477|  7,72477977552|  8,73388605174|  8,73388605174|  8,73388605174|  0,00000000000|  6,30385675715|  7,35858799477| 10,21746050971| 10,21292342334| 10,56112564382| 10,56112564382| 10,56112564382| 10,56112564382| 10,56112564382| 10,21292342334| 10,21746050971| 10,21746050971| 10,56112564382| 10,56112564382| 10,21746050971| 10,21746050971| 10,21746050971| 10,21746050971| 10,12053333548| 10,36354759940| 10,45304773573| 10,12053333548| 10,56112564382
Sum_Oran                  |  7,35858799477|  7,35858799477|  7,35858799477|  7,72477977552|  8,73388605174|  8,73388605174|  8,73388605174|  6,30385675715|  0,00000000000|  7,35858799477| 10,21746050971| 10,21292342334| 10,56112564382| 10,56112564382| 10,56112564382| 10,56112564382| 10,56112564382| 10,21292342334| 10,21746050971| 10,21746050971| 10,56112564382| 10,56112564382| 10,21746050971| 10,21746050971| 10,21746050971| 10,21746050971| 10,12053333548| 10,36354759940| 10,45304773573| 10,12053333548| 10,56112564382
Gorilla                   |  6,06389499968|  5,71859128390|  5,71859128390|  7,72477977552|  8,73388605174|  8,73388605174|  8,73388605174|  7,35858799477|  7,35858799477|  0,00000000000| 10,21746050971| 10,21292342334| 10,56112564382| 10,56112564382| 10,56112564382| 10,56112564382| 10,56112564382| 10,21292342334| 10,21746050971| 10,21746050971| 10,56112564382| 10,56112564382| 10,21746050971| 10,21746050971| 10,21746050971| 10,21746050971| 10,12053333548| 10,36354759940| 10,45304773573| 10,12053333548| 10,56112564382
Cat                       | 10,21746050971| 10,21746050971| 10,21746050971| 10,21746050971| 10,21746050971| 10,21746050971| 10,21746050971| 10,21746050971| 10,21746050971| 10,21746050971|  0,00000000000| 10,21746050971| 10,56112564382| 10,56112564382| 10,56112564382| 10,56112564382| 10,56112564382| 10,21746050971|  8,20585449856|  8,20585449856| 10,56112564382| 10,56112564382|  9,80071431983|  9,80071431983|  9,80071431983|  9,80071431983| 10,21746050971| 10,36354759940| 10,45304773573| 10,21746050971| 10,56112564382
Dog                       | 10,21292342334| 10,21292342334| 10,21292342334| 10,21292342334| 10,21292342334| 10,21292342334| 10,21292342334| 10,21292342334| 10,21292342334| 10,21292342334| 10,21746050971|  0,00000000000| 10,56112564382| 10,56112564382| 10,56112564382| 10,56112564382| 10,56112564382|  4,39868531954| 10,21746050971| 10,21746050971| 10,56112564382| 10,56112564382| 10,21746050971| 10,21746050971| 10,21746050971| 10,21746050971| 10,21292342334| 10,36354759940| 10,45304773573| 10,21292342334| 10,56112564382
Pig                       | 10,56112564382| 10,56112564382| 10,56112564382| 10,56112564382| 10,56112564382| 10,56112564382| 10,56112564382| 10,56112564382| 10,56112564382| 10,56112564382| 10,56112564382| 10,56112564382|  0,00000000000| 10,36126057150| 10,36126057150| 10,36126057150| 10,36126057150| 10,56112564382| 10,56112564382| 10,56112564382| 10,36126057150| 10,36126057150| 10,56112564382| 10,56112564382| 10,56112564382| 10,56112564382| 10,56112564382| 10,56112564382| 10,56112564382| 10,56112564382| 10,36126057150
Sheep                     | 10,56112564382| 10,56112564382| 10,56112564382| 10,56112564382| 10,56112564382| 10,56112564382| 10,56112564382| 10,56112564382| 10,56112564382| 10,56112564382| 10,56112564382| 10,56112564382| 10,36126057150|  0,00000000000|  6,45612621750|  8,03103665954|  8,03103665954| 10,56112564382| 10,56112564382| 10,56112564382|  9,25134234697|  9,25134234697| 10,56112564382| 10,56112564382| 10,56112564382| 10,56112564382| 10,56112564382| 10,56112564382| 10,56112564382| 10,56112564382|  9,03891914599
Goat                      | 10,56112564382| 10,56112564382| 10,56112564382| 10,56112564382| 10,56112564382| 10,56112564382| 10,56112564382| 10,56112564382| 10,56112564382| 10,56112564382| 10,56112564382| 10,56112564382| 10,36126057150|  6,45612621750|  0,00000000000|  8,03103665954|  8,03103665954| 10,56112564382| 10,56112564382| 10,56112564382|  9,25134234697|  9,25134234697| 10,56112564382| 10,56112564382| 10,56112564382| 10,56112564382| 10,56112564382| 10,56112564382| 10,56112564382| 10,56112564382|  9,03891914599
Cow                       | 10,56112564382| 10,56112564382| 10,56112564382| 10,56112564382| 10,56112564382| 10,56112564382| 10,56112564382| 10,56112564382| 10,56112564382| 10,56112564382| 10,56112564382| 10,56112564382| 10,36126057150|  8,03103665954|  8,03103665954|  0,00000000000|  7,85974761998| 10,56112564382| 10,56112564382| 10,56112564382|  9,25134234697|  9,25134234697| 10,56112564382| 10,56112564382| 10,56112564382| 10,56112564382| 10,56112564382| 10,56112564382| 10,56112564382| 10,56112564382|  9,03891914599
Buffalo                   | 10,56112564382| 10,56112564382| 10,56112564382| 10,56112564382| 10,56112564382| 10,56112564382| 10,56112564382| 10,56112564382| 10,56112564382| 10,56112564382| 10,56112564382| 10,56112564382| 10,36126057150|  8,03103665954|  8,03103665954|  7,85974761998|  0,00000000000| 10,56112564382| 10,56112564382| 10,56112564382|  9,25134234697|  9,25134234697| 10,56112564382| 10,56112564382| 10,56112564382| 10,56112564382| 10,56112564382| 10,56112564382| 10,56112564382| 10,56112564382|  9,03891914599
Wolf                      | 10,21292342334| 10,21292342334| 10,21292342334| 10,21292342334| 10,21292342334| 10,21292342334| 10,21292342334| 10,21292342334| 10,21292342334| 10,21292342334| 10,21746050971|  4,39868531954| 10,56112564382| 10,56112564382| 10,56112564382| 10,56112564382| 10,56112564382|  0,00000000000| 10,21746050971| 10,21746050971| 10,56112564382| 10,56112564382| 10,21746050971| 10,21746050971| 10,21746050971| 10,21746050971| 10,21292342334| 10,36354759940| 10,45304773573| 10,21292342334| 10,56112564382
Tiger                     | 10,21746050971| 10,21746050971| 10,21746050971| 10,21746050971| 10,21746050971| 10,21746050971| 10,21746050971| 10,21746050971| 10,21746050971| 10,21746050971|  8,20585449856| 10,21746050971| 10,56112564382| 10,56112564382| 10,56112564382| 10,56112564382| 10,56112564382| 10,21746050971|  0,00000000000|  7,10290732807| 10,56112564382| 10,56112564382|  9,80071431983|  9,80071431983|  9,80071431983|  9,80071431983| 10,21746050971| 10,36354759940| 10,45304773573| 10,21746050971| 10,56112564382
Leopard                   | 10,21746050971| 10,21746050971| 10,21746050971| 10,21746050971| 10,21746050971| 10,21746050971| 10,21746050971| 10,21746050971| 10,21746050971| 10,21746050971|  8,20585449856| 10,21746050971| 10,56112564382| 10,56112564382| 10,56112564382| 10,56112564382| 10,56112564382| 10,21746050971|  7,10290732807|  0,00000000000| 10,56112564382| 10,56112564382|  9,80071431983|  9,80071431983|  9,80071431983|  9,80071431983| 10,21746050971| 10,36354759940| 10,45304773573| 10,21746050971| 10,56112564382
Indian_Rhino              | 10,56112564382| 10,56112564382| 10,56112564382| 10,56112564382| 10,56112564382| 10,56112564382| 10,56112564382| 10,56112564382| 10,56112564382| 10,56112564382| 10,56112564382| 10,56112564382| 10,36126057150|  9,25134234697|  9,25134234697|  9,25134234697|  9,25134234697| 10,56112564382| 10,56112564382| 10,56112564382|  0,00000000000|  6,54181342769| 10,56112564382| 10,56112564382| 10,56112564382| 10,56112564382| 10,56112564382| 10,56112564382| 10,56112564382| 10,56112564382|  9,25134234697
White_Rhino               | 10,56112564382| 10,56112564382| 10,56112564382| 10,56112564382| 10,56112564382| 10,56112564382| 10,56112564382| 10,56112564382| 10,56112564382| 10,56112564382| 10,56112564382| 10,56112564382| 10,36126057150|  9,25134234697|  9,25134234697|  9,25134234697|  9,25134234697| 10,56112564382| 10,56112564382| 10,56112564382|  6,54181342769|  0,00000000000| 10,56112564382| 10,56112564382| 10,56112564382| 10,56112564382| 10,56112564382| 10,56112564382| 10,56112564382| 10,56112564382|  9,25134234697
Black_Bear                | 10,21746050971| 10,21746050971| 10,21746050971| 10,21746050971| 10,21746050971| 10,21746050971| 10,21746050971| 10,21746050971| 10,21746050971| 10,21746050971|  9,80071431983| 10,21746050971| 10,56112564382| 10,56112564382| 10,56112564382| 10,56112564382| 10,56112564382| 10,21746050971|  9,80071431983|  9,80071431983| 10,56112564382| 10,56112564382|  0,00000000000|  7,61088655392|  7,61088655392|  8,91438493266| 10,21746050971| 10,36354759940| 10,45304773573| 10,21746050971| 10,56112564382
Brown_Bear                | 10,21746050971| 10,21746050971| 10,21746050971| 10,21746050971| 10,21746050971| 10,21746050971| 10,21746050971| 10,21746050971| 10,21746050971| 10,21746050971|  9,80071431983| 10,21746050971| 10,56112564382| 10,56112564382| 10,56112564382| 10,56112564382| 10,56112564382| 10,21746050971|  9,80071431983|  9,80071431983| 10,56112564382| 10,56112564382|  7,61088655392|  0,00000000000|  5,72624635627|  8,91438493266| 10,21746050971| 10,36354759940| 10,45304773573| 10,21746050971| 10,56112564382
Polar_Bear                | 10,21746050971| 10,21746050971| 10,21746050971| 10,21746050971| 10,21746050971| 10,21746050971| 10,21746050971| 10,21746050971| 10,21746050971| 10,21746050971|  9,80071431983| 10,21746050971| 10,56112564382| 10,56112564382| 10,56112564382| 10,56112564382| 10,56112564382| 10,21746050971|  9,80071431983|  9,80071431983| 10,56112564382| 10,56112564382|  7,61088655392|  5,72624635627|  0,00000000000|  8,91438493266| 10,21746050971| 10,36354759940| 10,45304773573| 10,21746050971| 10,56112564382
Giant_Panda               | 10,21746050971| 10,21746050971| 10,21746050971| 10,21746050971| 10,21746050971| 10,21746050971| 10,21746050971| 10,21746050971| 10,21746050971| 10,21746050971|  9,80071431983| 10,21746050971| 10,56112564382| 10,56112564382| 10,56112564382| 10,56112564382| 10,56112564382| 10,21746050971|  9,80071431983|  9,80071431983| 10,56112564382| 10,56112564382|  8,91438493266|  8,91438493266|  8,91438493266|  0,00000000000| 10,21746050971| 10,36354759940| 10,45304773573| 10,21746050971| 10,56112564382
Rabbit                    | 10,12053333548| 10,12053333548| 10,12053333548| 10,12053333548| 10,12053333548| 10,12053333548| 10,12053333548| 10,12053333548| 10,12053333548| 10,12053333548| 10,21746050971| 10,21292342334| 10,56112564382| 10,56112564382| 10,56112564382| 10,56112564382| 10,56112564382| 10,21292342334| 10,21746050971| 10,21746050971| 10,56112564382| 10,56112564382| 10,21746050971| 10,21746050971| 10,21746050971| 10,21746050971|  0,00000000000| 10,36354759940| 10,45304773573| 10,02521495142| 10,56112564382
Hedgehog                  | 10,36354759940| 10,36354759940| 10,36354759940| 10,36354759940| 10,36354759940| 10,36354759940| 10,36354759940| 10,36354759940| 10,36354759940| 10,36354759940| 10,36354759940| 10,36354759940| 10,56112564382| 10,56112564382| 10,56112564382| 10,56112564382| 10,56112564382| 10,36354759940| 10,36354759940| 10,36354759940| 10,56112564382| 10,56112564382| 10,36354759940| 10,36354759940| 10,36354759940| 10,36354759940| 10,36354759940|  0,00000000000| 10,45304773573| 10,36354759940| 10,56112564382
Dormouse                  | 10,45304773573| 10,45304773573| 10,45304773573| 10,45304773573| 10,45304773573| 10,45304773573| 10,45304773573| 10,45304773573| 10,45304773573| 10,45304773573| 10,45304773573| 10,45304773573| 10,56112564382| 10,56112564382| 10,56112564382| 10,56112564382| 10,56112564382| 10,45304773573| 10,45304773573| 10,45304773573| 10,56112564382| 10,56112564382| 10,45304773573| 10,45304773573| 10,45304773573| 10,45304773573| 10,45304773573| 10,45304773573|  0,00000000000| 10,45304773573| 10,56112564382
Squirrel                  | 10,12053333548| 10,12053333548| 10,12053333548| 10,12053333548| 10,12053333548| 10,12053333548| 10,12053333548| 10,12053333548| 10,12053333548| 10,12053333548| 10,21746050971| 10,21292342334| 10,56112564382| 10,56112564382| 10,56112564382| 10,56112564382| 10,56112564382| 10,21292342334| 10,21746050971| 10,21746050971| 10,56112564382| 10,56112564382| 10,21746050971| 10,21746050971| 10,21746050971| 10,21746050971| 10,02521495142| 10,36354759940| 10,45304773573|  0,00000000000| 10,56112564382
Blue_Whale                | 10,56112564382| 10,56112564382| 10,56112564382| 10,56112564382| 10,56112564382| 10,56112564382| 10,56112564382| 10,56112564382| 10,56112564382| 10,56112564382| 10,56112564382| 10,56112564382| 10,36126057150|  9,03891914599|  9,03891914599|  9,03891914599|  9,03891914599| 10,56112564382| 10,56112564382| 10,56112564382|  9,25134234697|  9,25134234697| 10,56112564382| 10,56112564382| 10,56112564382| 10,56112564382| 10,56112564382| 10,56112564382| 10,56112564382| 10,56112564382|  0,00000000000
                           |Human          |P_Chim         |Com_Chim       |Gibbon         |Baboon         |Ver_Monkey     |Macaca_Thibet  |Bor_Oran       |Sum_Oran       |Gorilla        |Cat            |Dog            |Pig            |Sheep          |Goat           |Cow            |Buffalo        |Wolf           |Tiger          |Leopard        |Indian_Rhino   |White_Rhino    |Black_Bear     |Brown_Bear     |Polar_Bear     |Giant_Panda    |Rabbit         |Hedgehog       |Dormouse       |Squirrel       |Blue_Whale     
Human                     |  0,00000000000|  4,00000000000|  4,00000000000|  4,00000000000|  7,00000000000|  7,00000000000|  6,00000000000|  4,00000000000|  4,00000000000|  3,00000000000| 10,00000000000|  8,00000000000| 12,00000000000| 16,00000000000| 16,00000000000| 16,00000000000| 16,00000000000|  8,00000000000| 11,00000000000| 11,00000000000| 14,00000000000| 14,00000000000| 11,00000000000| 12,00000000000| 12,00000000000| 10,00000000000|  7,00000000000|  9,00000000000| 10,00000000000|  7,00000000000| 14,00000000000
P_Chim                    |  4,00000000000|  0,00000000000|  2,00000000000|  6,00000000000|  9,00000000000|  9,00000000000|  8,00000000000|  6,00000000000|  6,00000000000|  3,00000000000| 12,00000000000| 10,00000000000| 14,00000000000| 18,00000000000| 18,00000000000| 18,00000000000| 18,00000000000| 10,00000000000| 13,00000000000| 13,00000000000| 16,00000000000| 16,00000000000| 13,00000000000| 14,00000000000| 14,00000000000| 12,00000000000|  9,00000000000| 11,00000000000| 12,00000000000|  9,00000000000| 16,00000000000
Com_Chim                  |  4,00000000000|  2,00000000000|  0,00000000000|  6,00000000000|  9,00000000000|  9,00000000000|  8,00000000000|  6,00000000000|  6,00000000000|  3,00000000000| 12,00000000000| 10,00000000000| 14,00000000000| 18,00000000000| 18,00000000000| 18,00000000000| 18,00000000000| 10,00000000000| 13,00000000000| 13,00000000000| 16,00000000000| 16,00000000000| 13,00000000000| 14,00000000000| 14,00000000000| 12,00000000000|  9,00000000000| 11,00000000000| 12,00000000000|  9,00000000000| 16,00000000000
Gibbon                    |  4,00000000000|  6,00000000000|  6,00000000000|  0,00000000000|  5,00000000000|  5,00000000000|  4,00000000000|  4,00000000000|  4,00000000000|  5,00000000000|  8,00000000000|  6,00000000000| 10,00000000000| 14,00000000000| 14,00000000000| 14,00000000000| 14,00000000000|  6,00000000000|  9,00000000000|  9,00000000000| 12,00000000000| 12,00000000000|  9,00000000000| 10,00000000000| 10,00000000000|  8,00000000000|  5,00000000000|  7,00000000000|  8,00000000000|  5,00000000000| 12,00000000000
Baboon                    |  7,00000000000|  9,00000000000|  9,00000000000|  5,00000000000|  0,00000000000|  2,00000000000|  3,00000000000|  7,00000000000|  7,00000000000|  8,00000000000|  9,00000000000|  7,00000000000| 11,00000000000| 15,00000000000| 15,00000000000| 15,00000000000| 15,00000000000|  7,00000000000| 10,00000000000| 10,00000000000| 13,00000000000| 13,00000000000| 10,00000000000| 11,00000000000| 11,00000000000|  9,00000000000|  6,00000000000|  8,00000000000|  9,00000000000|  6,00000000000| 13,00000000000
Ver_Monkey                |  7,00000000000|  9,00000000000|  9,00000000000|  5,00000000000|  2,00000000000|  0,00000000000|  3,00000000000|  7,00000000000|  7,00000000000|  8,00000000000|  9,00000000000|  7,00000000000| 11,00000000000| 15,00000000000| 15,00000000000| 15,00000000000| 15,00000000000|  7,00000000000| 10,00000000000| 10,00000000000| 13,00000000000| 13,00000000000| 10,00000000000| 11,00000000000| 11,00000000000|  9,00000000000|  6,00000000000|  8,00000000000|  9,00000000000|  6,00000000000| 13,00000000000
Macaca_Thibet             |  6,00000000000|  8,00000000000|  8,00000000000|  4,00000000000|  3,00000000000|  3,00000000000|  0,00000000000|  6,00000000000|  6,00000000000|  7,00000000000|  8,00000000000|  6,00000000000| 10,00000000000| 14,00000000000| 14,00000000000| 14,00000000000| 14,00000000000|  6,00000000000|  9,00000000000|  9,00000000000| 12,00000000000| 12,00000000000|  9,00000000000| 10,00000000000| 10,00000000000|  8,00000000000|  5,00000000000|  7,00000000000|  8,00000000000|  5,00000000000| 12,00000000000
Bor_Oran                  |  4,00000000000|  6,00000000000|  6,00000000000|  4,00000000000|  7,00000000000|  7,00000000000|  6,00000000000|  0,00000000000|  2,00000000000|  5,00000000000| 10,00000000000|  8,00000000000| 12,00000000000| 16,00000000000| 16,00000000000| 16,00000000000| 16,00000000000|  8,00000000000| 11,00000000000| 11,00000000000| 14,00000000000| 14,00000000000| 11,00000000000| 12,00000000000| 12,00000000000| 10,00000000000|  7,00000000000|  9,00000000000| 10,00000000000|  7,00000000000| 14,00000000000
Sum_Oran                  |  4,00000000000|  6,00000000000|  6,00000000000|  4,00000000000|  7,00000000000|  7,00000000000|  6,00000000000|  2,00000000000|  0,00000000000|  5,00000000000| 10,00000000000|  8,00000000000| 12,00000000000| 16,00000000000| 16,00000000000| 16,00000000000| 16,00000000000|  8,00000000000| 11,00000000000| 11,00000000000| 14,00000000000| 14,00000000000| 11,00000000000| 12,00000000000| 12,00000000000| 10,00000000000|  7,00000000000|  9,00000000000| 10,00000000000|  7,00000000000| 14,00000000000
Gorilla                   |  3,00000000000|  3,00000000000|  3,00000000000|  5,00000000000|  8,00000000000|  8,00000000000|  7,00000000000|  5,00000000000|  5,00000000000|  0,00000000000| 11,00000000000|  9,00000000000| 13,00000000000| 17,00000000000| 17,00000000000| 17,00000000000| 17,00000000000|  9,00000000000| 12,00000000000| 12,00000000000| 15,00000000000| 15,00000000000| 12,00000000000| 13,00000000000| 13,00000000000| 11,00000000000|  8,00000000000| 10,00000000000| 11,00000000000|  8,00000000000| 15,00000000000
Cat                       | 10,00000000000| 12,00000000000| 12,00000000000|  8,00000000000|  9,00000000000|  9,00000000000|  8,00000000000| 10,00000000000| 10,00000000000| 11,00000000000|  0,00000000000|  6,00000000000|  8,00000000000| 12,00000000000| 12,00000000000| 12,00000000000| 12,00000000000|  6,00000000000|  3,00000000000|  3,00000000000| 10,00000000000| 10,00000000000|  5,00000000000|  6,00000000000|  6,00000000000|  4,00000000000|  7,00000000000|  5,00000000000|  6,00000000000|  7,00000000000| 10,00000000000
Dog                       |  8,00000000000| 10,00000000000| 10,00000000000|  6,00000000000|  7,00000000000|  7,00000000000|  6,00000000000|  8,00000000000|  8,00000000000|  9,00000000000|  6,00000000000|  0,00000000000|  8,00000000000| 12,00000000000| 12,00000000000| 12,00000000000| 12,00000000000|  2,00000000000|  7,00000000000|  7,00000000000| 10,00000000000| 10,00000000000|  7,00000000000|  8,00000000000|  8,00000000000|  6,00000000000|  5,00000000000|  5,00000000000|  6,00000000000|  5,00000000000| 10,00000000000
Pig                       | 12,00000000000| 14,00000000000| 14,00000000000| 10,00000000000| 11,00000000000| 11,00000000000| 10,00000000000| 12,00000000000| 12,00000000000| 13,00000000000|  8,00000000000|  8,00000000000|  0,00000000000|  6,00000000000|  6,00000000000|  6,00000000000|  6,00000000000|  8,00000000000|  9,00000000000|  9,00000000000|  4,00000000000|  4,00000000000|  9,00000000000| 10,00000000000| 10,00000000000|  8,00000000000|  9,00000000000|  5,00000000000|  4,00000000000|  9,00000000000|  4,00000000000
Sheep                     | 16,00000000000| 18,00000000000| 18,00000000000| 14,00000000000| 15,00000000000| 15,00000000000| 14,00000000000| 16,00000000000| 16,00000000000| 17,00000000000| 12,00000000000| 12,00000000000|  6,00000000000|  0,00000000000|  2,00000000000|  4,00000000000|  4,00000000000| 12,00000000000| 13,00000000000| 13,00000000000|  6,00000000000|  6,00000000000| 13,00000000000| 14,00000000000| 14,00000000000| 12,00000000000| 13,00000000000|  9,00000000000|  8,00000000000| 13,00000000000|  4,00000000000
Goat                      | 16,00000000000| 18,00000000000| 18,00000000000| 14,00000000000| 15,00000000000| 15,00000000000| 14,00000000000| 16,00000000000| 16,00000000000| 17,00000000000| 12,00000000000| 12,00000000000|  6,00000000000|  2,00000000000|  0,00000000000|  4,00000000000|  4,00000000000| 12,00000000000| 13,00000000000| 13,00000000000|  6,00000000000|  6,00000000000| 13,00000000000| 14,00000000000| 14,00000000000| 12,00000000000| 13,00000000000|  9,00000000000|  8,00000000000| 13,00000000000|  4,00000000000
Cow                       | 16,00000000000| 18,00000000000| 18,00000000000| 14,00000000000| 15,00000000000| 15,00000000000| 14,00000000000| 16,00000000000| 16,00000000000| 17,00000000000| 12,00000000000| 12,00000000000|  6,00000000000|  4,00000000000|  4,00000000000|  0,00000000000|  2,00000000000| 12,00000000000| 13,00000000000| 13,00000000000|  6,00000000000|  6,00000000000| 13,00000000000| 14,00000000000| 14,00000000000| 12,00000000000| 13,00000000000|  9,00000000000|  8,00000000000| 13,00000000000|  4,00000000000
Buffalo                   | 16,00000000000| 18,00000000000| 18,00000000000| 14,00000000000| 15,00000000000| 15,00000000000| 14,00000000000| 16,00000000000| 16,00000000000| 17,00000000000| 12,00000000000| 12,00000000000|  6,00000000000|  4,00000000000|  4,00000000000|  2,00000000000|  0,00000000000| 12,00000000000| 13,00000000000| 13,00000000000|  6,00000000000|  6,00000000000| 13,00000000000| 14,00000000000| 14,00000000000| 12,00000000000| 13,00000000000|  9,00000000000|  8,00000000000| 13,00000000000|  4,00000000000
Wolf                      |  8,00000000000| 10,00000000000| 10,00000000000|  6,00000000000|  7,00000000000|  7,00000000000|  6,00000000000|  8,00000000000|  8,00000000000|  9,00000000000|  6,00000000000|  2,00000000000|  8,00000000000| 12,00000000000| 12,00000000000| 12,00000000000| 12,00000000000|  0,00000000000|  7,00000000000|  7,00000000000| 10,00000000000| 10,00000000000|  7,00000000000|  8,00000000000|  8,00000000000|  6,00000000000|  5,00000000000|  5,00000000000|  6,00000000000|  5,00000000000| 10,00000000000
Tiger                     | 11,00000000000| 13,00000000000| 13,00000000000|  9,00000000000| 10,00000000000| 10,00000000000|  9,00000000000| 11,00000000000| 11,00000000000| 12,00000000000|  3,00000000000|  7,00000000000|  9,00000000000| 13,00000000000| 13,00000000000| 13,00000000000| 13,00000000000|  7,00000000000|  0,00000000000|  2,00000000000| 11,00000000000| 11,00000000000|  6,00000000000|  7,00000000000|  7,00000000000|  5,00000000000|  8,00000000000|  6,00000000000|  7,00000000000|  8,00000000000| 11,00000000000
Leopard                   | 11,00000000000| 13,00000000000| 13,00000000000|  9,00000000000| 10,00000000000| 10,00000000000|  9,00000000000| 11,00000000000| 11,00000000000| 12,00000000000|  3,00000000000|  7,00000000000|  9,00000000000| 13,00000000000| 13,00000000000| 13,00000000000| 13,00000000000|  7,00000000000|  2,00000000000|  0,00000000000| 11,00000000000| 11,00000000000|  6,00000000000|  7,00000000000|  7,00000000000|  5,00000000000|  8,00000000000|  6,00000000000|  7,00000000000|  8,00000000000| 11,00000000000
Indian_Rhino              | 14,00000000000| 16,00000000000| 16,00000000000| 12,00000000000| 13,00000000000| 13,00000000000| 12,00000000000| 14,00000000000| 14,00000000000| 15,00000000000| 10,00000000000| 10,00000000000|  4,00000000000|  6,00000000000|  6,00000000000|  6,00000000000|  6,00000000000| 10,00000000000| 11,00000000000| 11,00000000000|  0,00000000000|  2,00000000000| 11,00000000000| 12,00000000000| 12,00000000000| 10,00000000000| 11,00000000000|  7,00000000000|  6,00000000000| 11,00000000000|  4,00000000000
White_Rhino               | 14,00000000000| 16,00000000000| 16,00000000000| 12,00000000000| 13,00000000000| 13,00000000000| 12,00000000000| 14,00000000000| 14,00000000000| 15,00000000000| 10,00000000000| 10,00000000000|  4,00000000000|  6,00000000000|  6,00000000000|  6,00000000000|  6,00000000000| 10,00000000000| 11,00000000000| 11,00000000000|  2,00000000000|  0,00000000000| 11,00000000000| 12,00000000000| 12,00000000000| 10,00000000000| 11,00000000000|  7,00000000000|  6,00000000000| 11,00000000000|  4,00000000000
Black_Bear                | 11,00000000000| 13,00000000000| 13,00000000000|  9,00000000000| 10,00000000000| 10,00000000000|  9,00000000000| 11,00000000000| 11,00000000000| 12,00000000000|  5,00000000000|  7,00000000000|  9,00000000000| 13,00000000000| 13,00000000000| 13,00000000000| 13,00000000000|  7,00000000000|  6,00000000000|  6,00000000000| 11,00000000000| 11,00000000000|  0,00000000000|  3,00000000000|  3,00000000000|  3,00000000000|  8,00000000000|  6,00000000000|  7,00000000000|  8,00000000000| 11,00000000000
Brown_Bear                | 12,00000000000| 14,00000000000| 14,00000000000| 10,00000000000| 11,00000000000| 11,00000000000| 10,00000000000| 12,00000000000| 12,00000000000| 13,00000000000|  6,00000000000|  8,00000000000| 10,00000000000| 14,00000000000| 14,00000000000| 14,00000000000| 14,00000000000|  8,00000000000|  7,00000000000|  7,00000000000| 12,00000000000| 12,00000000000|  3,00000000000|  0,00000000000|  2,00000000000|  4,00000000000|  9,00000000000|  7,00000000000|  8,00000000000|  9,00000000000| 12,00000000000
Polar_Bear                | 12,00000000000| 14,00000000000| 14,00000000000| 10,00000000000| 11,00000000000| 11,00000000000| 10,00000000000| 12,00000000000| 12,00000000000| 13,00000000000|  6,00000000000|  8,00000000000| 10,00000000000| 14,00000000000| 14,00000000000| 14,00000000000| 14,00000000000|  8,00000000000|  7,00000000000|  7,00000000000| 12,00000000000| 12,00000000000|  3,00000000000|  2,00000000000|  0,00000000000|  4,00000000000|  9,00000000000|  7,00000000000|  8,00000000000|  9,00000000000| 12,00000000000
Giant_Panda               | 10,00000000000| 12,00000000000| 12,00000000000|  8,00000000000|  9,00000000000|  9,00000000000|  8,00000000000| 10,00000000000| 10,00000000000| 11,00000000000|  4,00000000000|  6,00000000000|  8,00000000000| 12,00000000000| 12,00000000000| 12,00000000000| 12,00000000000|  6,00000000000|  5,00000000000|  5,00000000000| 10,00000000000| 10,00000000000|  3,00000000000|  4,00000000000|  4,00000000000|  0,00000000000|  7,00000000000|  5,00000000000|  6,00000000000|  7,00000000000| 10,00000000000
Rabbit                    |  7,00000000000|  9,00000000000|  9,00000000000|  5,00000000000|  6,00000000000|  6,00000000000|  5,00000000000|  7,00000000000|  7,00000000000|  8,00000000000|  7,00000000000|  5,00000000000|  9,00000000000| 13,00000000000| 13,00000000000| 13,00000000000| 13,00000000000|  5,00000000000|  8,00000000000|  8,00000000000| 11,00000000000| 11,00000000000|  8,00000000000|  9,00000000000|  9,00000000000|  7,00000000000|  0,00000000000|  6,00000000000|  7,00000000000|  2,00000000000| 11,00000000000
Hedgehog                  |  9,00000000000| 11,00000000000| 11,00000000000|  7,00000000000|  8,00000000000|  8,00000000000|  7,00000000000|  9,00000000000|  9,00000000000| 10,00000000000|  5,00000000000|  5,00000000000|  5,00000000000|  9,00000000000|  9,00000000000|  9,00000000000|  9,00000000000|  5,00000000000|  6,00000000000|  6,00000000000|  7,00000000000|  7,00000000000|  6,00000000000|  7,00000000000|  7,00000000000|  5,00000000000|  6,00000000000|  0,00000000000|  3,00000000000|  6,00000000000|  7,00000000000
Dormouse                  | 10,00000000000| 12,00000000000| 12,00000000000|  8,00000000000|  9,00000000000|  9,00000000000|  8,00000000000| 10,00000000000| 10,00000000000| 11,00000000000|  6,00000000000|  6,00000000000|  4,00000000000|  8,00000000000|  8,00000000000|  8,00000000000|  8,00000000000|  6,00000000000|  7,00000000000|  7,00000000000|  6,00000000000|  6,00000000000|  7,00000000000|  8,00000000000|  8,00000000000|  6,00000000000|  7,00000000000|  3,00000000000|  0,00000000000|  7,00000000000|  6,00000000000
Squirrel                  |  7,00000000000|  9,00000000000|  9,00000000000|  5,00000000000|  6,00000000000|  6,00000000000|  5,00000000000|  7,00000000000|  7,00000000000|  8,00000000000|  7,00000000000|  5,00000000000|  9,00000000000| 13,00000000000| 13,00000000000| 13,00000000000| 13,00000000000|  5,00000000000|  8,00000000000|  8,00000000000| 11,00000000000| 11,00000000000|  8,00000000000|  9,00000000000|  9,00000000000|  7,00000000000|  2,00000000000|  6,00000000000|  7,00000000000|  0,00000000000| 11,00000000000
Blue_Whale                | 14,00000000000| 16,00000000000| 16,00000000000| 12,00000000000| 13,00000000000| 13,00000000000| 12,00000000000| 14,00000000000| 14,00000000000| 15,00000000000| 10,00000000000| 10,00000000000|  4,00000000000|  4,00000000000|  4,00000000000|  4,00000000000|  4,00000000000| 10,00000000000| 11,00000000000| 11,00000000000|  4,00000000000|  4,00000000000| 11,00000000000| 12,00000000000| 12,00000000000| 10,00000000000| 11,00000000000|  7,00000000000|  6,00000000000| 11,00000000000|  0,00000000000
