                           |Human          |P_Chim         |Com_Chim       |Gibbon         |Baboon         |Ver_Monkey     |Macaca_Thibet  |Bor_Oran       |Sum_Oran       |Gorilla        |Cat            |Dog            |Pig            |Sheep          |Goat           |Cow            |Buffalo        |Wolf           |Tiger          |Leopard        |Indian_Rhino   |White_Rhino    |Black_Bear     |Brown_Bear     |Polar_Bear     |Giant_Panda    |Rabbit         |Hedgehog       |Dormouse       |Squirrel       |Blue_Whale     
Human                     |  0,00000000000| 10,04962437978|  9,98726582755|  9,67245899001|  9,02195291524|  9,82256961306|  9,58548919135|  9,62207617427|  7,92640221495|  9,06873150431| 10,32189579971| 10,33260392096| 11,07456924934| 11,56539404468| 10,97734898299| 10,81272796849| 10,14463697417| 10,19479124571|  9,48679214616| 10,57114174570|  9,98057195468| 10,92072512623| 10,39449851307| 10,31956859615| 10,26928101581| 10,18643662061|  9,68831597042| 10,62791829649|  9,16271048600|  9,05348410711| 10,63004570471
P_Chim                    | 10,04962437978|  0,00000000000|  6,11753446216|  6,37255924616|  9,22730182586|  8,83204136284|  8,55376887565|  8,09936120210|  9,62971519163|  8,25071964687| 10,48727645455| 10,17833489314| 11,00838129993|  9,90516973368| 10,96893682724|  9,97749362019|  9,91849664024| 10,00649407181|  9,34781873029| 10,57152648619| 10,68849553409| 10,68573024109| 10,00798010806|  9,88037384056|  9,93460486173| 10,56029900947|  9,56981484532| 10,74325662161|  9,12198118028|  9,34545248040| 10,51645257938
Com_Chim                  |  9,98726582755|  6,11753446216|  0,00000000000|  7,60957440235|  8,98935834920|  9,37200502667|  8,98897708870|  8,93432183268|  9,80171840996|  3,23427220212| 11,54639360685| 10,64212228926| 10,87863743356|  9,89070149830| 10,29069275456| 10,44513436751| 10,70583529704| 10,78068539439| 10,09122059406| 10,04623458969| 10,74150406943| 10,54696731149|  9,76340977228|  9,87796870839| 10,16167862413| 11,09377079588|  9,64933314056| 10,74710999102|  8,93332815262|  9,45768747060| 10,31960757035
Gibbon                    |  9,67245899001|  6,37255924616|  7,60957440235|  0,00000000000|  8,93444303581|  8,53857958680|  8,09593967020|  8,33776006512|  9,86147430865|  7,95249075779| 11,19793994130| 10,14479883551| 10,77114388385| 10,05996348146| 10,77202477447| 10,27194361780| 11,04702361325| 10,03682317200|  9,28852822448| 10,78793529225|  9,90181655060| 11,29490120361| 10,21616510054|  9,76160158216|  9,76920171924| 10,07253460967|  9,37381124983| 10,45286547994|  9,16517987705|  8,63119826210| 10,29840079153
Baboon                    |  9,02195291524|  9,22730182586|  8,98935834920|  8,93444303581|  0,00000000000|  9,01594448762|  8,30080229090|  8,96979356405|  8,71707798465|  8,50601762776| 10,89950180044| 10,45803295880| 10,77647465145| 10,29162184428| 10,56626204507| 11,24630607513| 10,15987138956| 10,66923706511| 10,17087271395|  9,91365296606|  9,69745184449| 10,08144194953|  9,70296774879| 10,36345240242|  9,87433900339| 10,89120837335|  9,83505607810| 10,88074384469|  8,33034773238|  8,56152010808| 11,01424306309
Ver_Monkey                |  9,82256961306|  8,83204136284|  9,37200502667|  8,53857958680|  9,01594448762|  0,00000000000|  8,63562163640|  9,88934661877|  9,00787739072|  9,05644715158| 11,58541247446| 10,98662106186| 10,92697803337| 10,55278852494| 10,59626361813| 11,56464017612| 10,42629799580| 10,79840881063| 10,21741914861| 10,86423572302| 10,92679409122| 11,47005436564| 10,61798093198| 10,82918477428| 10,43055309867| 10,82284234845| 10,55401240021| 10,62555116752|  9,94502037548|  9,81050005406| 11,94547755442
Macaca_Thibet             |  9,58548919135|  8,55376887565|  8,98897708870|  8,09593967020|  8,30080229090|  8,63562163640|  0,00000000000|  9,20875163289|  9,20085890205|  8,38868657352| 10,52491268361| 10,79541500596| 10,54025319507| 10,85240893059| 10,20513026982|  9,77150786652| 10,01868229279|  9,88089147449|  9,63448262315|  9,82054594355|  9,90817382730| 10,40378851099| 10,02719492222| 10,35166180601| 10,21213682972|  9,96140963410|  9,11149339756| 10,38529821149|  8,87887393693|  8,77218550418| 10,53892623816
Bor_Oran                  |  9,62207617427|  8,09936120210|  8,93432183268|  8,33776006512|  8,96979356405|  9,88934661877|  9,20875163289|  0,00000000000|  8,29925586073|  8,44478405012| 10,48646358318| 10,19221316277| 11,49029572850| 10,08243933699| 10,78981217954| 10,03933832640|  9,97829753869|  9,78978427547|  9,26908685430| 10,58862759968|  9,17966257531| 10,95325514478|  9,68398909681|  9,94053720075| 10,03227372616|  9,93819953019|  9,60272414625| 10,92111748772|  8,68355618325|  9,77057056345| 10,40293652612
Sum_Oran                  |  7,92640221495|  9,62971519163|  9,80171840996|  9,86147430865|  8,71707798465|  9,00787739072|  9,20085890205|  8,29925586073|  0,00000000000|  8,23942137061|  9,98522322462| 10,37175501819| 11,33948606944| 11,25774782473| 11,23636174380|  9,91300529962|  9,96906718427| 10,23220317540|  9,42631041918| 10,25561913358|  9,62413984429| 10,04569338013|  9,38205843617| 10,07844752621| 10,27510938688|  9,80522981686|  9,30205314132| 10,50396775051|  9,24383011952|  9,10695340695| 10,96884106484
Gorilla                   |  9,06873150431|  8,25071964687|  3,23427220212|  7,95249075779|  8,50601762776|  9,05644715158|  8,38868657352|  8,44478405012|  8,23942137061|  0,00000000000| 11,11893129183| 10,46667703202| 10,20292456967| 10,79579803257| 10,36657255444| 10,14134632572| 10,23327761115| 10,25058394048|  9,79527551456|  9,94193053094| 10,23249387200| 10,68267040493|  9,16386602804| 10,28877745003|  9,92604692263| 10,06744640457|  8,89285229986| 10,55749131541|  8,66309350770|  9,19872133325| 10,85522093358
Cat                       | 10,32189579971| 10,48727645455| 11,54639360685| 11,19793994130| 10,89950180044| 11,58541247446| 10,52491268361| 10,48646358318|  9,98522322462| 11,11893129183|  0,00000000000| 11,72504162863| 10,86591275333| 11,27330187537| 11,21196689632| 10,10504408607| 10,73144977319| 11,29012960125|  7,57741554683| 10,67828930647|  9,87150055109| 10,02505182040|  9,31201468615| 10,45667531867| 10,21415525594|  9,83229973426|  9,66680366975| 10,75398050972|  9,94397091410| 10,01181394847| 11,14350634137
Dog                       | 10,33260392096| 10,17833489314| 10,64212228926| 10,14479883551| 10,45803295880| 10,98662106186| 10,79541500596| 10,19221316277| 10,37175501819| 10,46667703202| 11,72504162863|  0,00000000000| 10,83911843101| 10,18972867197| 10,24767054279| 10,98356551745| 10,83447293597|  2,06320093490| 10,33279960901| 10,36549875221| 10,05524336545| 10,48426095293| 10,55044720842| 10,63502285631| 10,33891532958| 10,32587720996|  9,65137861151| 10,14480002321|  9,70318364363|  9,75647935674| 10,27420296423
Pig                       | 11,07456924934| 11,00838129993| 10,87863743356| 10,77114388385| 10,77647465145| 10,92697803337| 10,54025319507| 11,49029572850| 11,33948606944| 10,20292456967| 10,86591275333| 10,83911843101|  0,00000000000|  8,70151293874| 10,84146094400| 10,75788540234| 10,95966243154| 10,35536027924| 10,83931337641| 10,89563372327| 10,74833412125| 10,66523534207|  9,86151005264| 11,38863630374| 11,19575324576| 11,00172062296| 10,46339340873| 11,56050743897|  9,41388651607| 10,37356427159| 10,62265646789
Sheep                     | 11,56539404468|  9,90516973368|  9,89070149830| 10,05996348146| 10,29162184428| 10,55278852494| 10,85240893059| 10,08243933699| 11,25774782473| 10,79579803257| 11,27330187537| 10,18972867197|  8,70151293874|  0,00000000000|  8,28045999932| 11,01451406211|  9,38900946317|  9,85072278256| 10,17038674253| 10,75680921081| 10,65981114236| 10,93357576199|  9,56862285301| 10,73198718081| 10,44738962130| 10,88834873342| 10,31414882050| 10,94432347513|  9,05127829267|  9,98855809653| 10,84275785979
Goat                      | 10,97734898299| 10,96893682724| 10,29069275456| 10,77202477447| 10,56626204507| 10,59626361813| 10,20513026982| 10,78981217954| 11,23636174380| 10,36657255444| 11,21196689632| 10,24767054279| 10,84146094400|  8,28045999932|  0,00000000000| 10,89070163007|  5,96479880088| 11,04334996825| 10,68694480797| 10,74354669771| 10,34380171659| 11,24326577325| 10,34518268739| 10,22606409184| 10,61372586419| 10,75021843952| 10,43363827182| 11,12516423865|  9,98307337633| 10,12245682711| 10,61984566985
Cow                       | 10,81272796849|  9,97749362019| 10,44513436751| 10,27194361780| 11,24630607513| 11,56464017612|  9,77150786652| 10,03933832640|  9,91300529962| 10,14134632572| 10,10504408607| 10,98356551745| 10,75788540234| 11,01451406211| 10,89070163007|  0,00000000000|  9,78461150169| 10,38923966916|  9,19253721240| 10,76031983058| 10,37710447248| 10,94465128441|  9,97595307512|  9,30406954854| 10,13833251988| 10,36412232494| 10,27415213355| 11,78844177527| 10,36681899835| 10,04394028338| 10,25488180426
Buffalo                   | 10,14463697417|  9,91849664024| 10,70583529704| 11,04702361325| 10,15987138956| 10,42629799580| 10,01868229279|  9,97829753869|  9,96906718427| 10,23327761115| 10,73144977319| 10,83447293597| 10,95966243154|  9,38900946317|  5,96479880088|  9,78461150169|  0,00000000000| 10,19467313176|  9,34490717390| 10,41365366420| 10,01916692573| 10,07549883142| 10,64962350213|  9,76118062411| 10,01387295807| 11,09967527975|  9,44338290436| 10,97431357953|  8,98237354026|  9,08566429779| 10,91195509867
Wolf                      | 10,19479124571| 10,00649407181| 10,78068539439| 10,03682317200| 10,66923706511| 10,79840881063|  9,88089147449|  9,78978427547| 10,23220317540| 10,25058394048| 11,29012960125|  2,06320093490| 10,35536027924|  9,85072278256| 11,04334996825| 10,38923966916| 10,19467313176|  0,00000000000| 10,14154667661|  9,75313817538|  9,59395565467| 10,12469258625|  9,78083745039|  9,59441675834|  9,50721407123| 10,02176875448|  9,54594703732|  9,68193965170|  9,35077727795|  9,80248961452| 10,60391843167
Tiger                     |  9,48679214616|  9,34781873029| 10,09122059406|  9,28852822448| 10,17087271395| 10,21741914861|  9,63448262315|  9,26908685430|  9,42631041918|  9,79527551456|  7,57741554683| 10,33279960901| 10,83931337641| 10,17038674253| 10,68694480797|  9,19253721240|  9,34490717390| 10,14154667661|  0,00000000000|  8,76777431191|  9,52482241783|  9,67035165860|  9,14144269764|  9,26629998613|  8,92898917090|  9,04223217123|  8,74945897841| 10,17947774754|  8,25533995597|  9,01482505287| 10,19323215792
Leopard                   | 10,57114174570| 10,57152648619| 10,04623458969| 10,78793529225|  9,91365296606| 10,86423572302|  9,82054594355| 10,58862759968| 10,25561913358|  9,94193053094| 10,67828930647| 10,36549875221| 10,89563372327| 10,75680921081| 10,74354669771| 10,76031983058| 10,41365366420|  9,75313817538|  8,76777431191|  0,00000000000| 10,82394432207| 11,33323780181|  9,03416941174|  9,80342277254| 10,27513796274| 10,69146740245| 10,47661984363| 10,39310048435|  9,67575004660|  9,90930319448| 10,30230518710
Indian_Rhino              |  9,98057195468| 10,68849553409| 10,74150406943|  9,90181655060|  9,69745184449| 10,92679409122|  9,90817382730|  9,17966257531|  9,62413984429| 10,23249387200|  9,87150055109| 10,05524336545| 10,74833412125| 10,65981114236| 10,34380171659| 10,37710447248| 10,01916692573|  9,59395565467|  9,52482241783| 10,82394432207|  0,00000000000|  7,06457915086|  8,98081155811| 11,06229741912| 11,03319256022| 10,59360805227|  7,65710156388| 11,23864896918|  9,28860249575|  8,96304305509| 10,29944749458
White_Rhino               | 10,92072512623| 10,68573024109| 10,54696731149| 11,29490120361| 10,08144194953| 11,47005436564| 10,40378851099| 10,95325514478| 10,04569338013| 10,68267040493| 10,02505182040| 10,48426095293| 10,66523534207| 10,93357576199| 11,24326577325| 10,94465128441| 10,07549883142| 10,12469258625|  9,67035165860| 11,33323780181|  7,06457915086|  0,00000000000|  9,77894510074| 11,25993546191| 11,18124123061| 10,49673943079|  8,58137394347| 11,18727483350| 10,41912995669|  9,54137307215| 11,24898144566
Black_Bear                | 10,39449851307| 10,00798010806|  9,76340977228| 10,21616510054|  9,70296774879| 10,61798093198| 10,02719492222|  9,68398909681|  9,38205843617|  9,16386602804|  9,31201468615| 10,55044720842|  9,86151005264|  9,56862285301| 10,34518268739|  9,97595307512| 10,64962350213|  9,78083745039|  9,14144269764|  9,03416941174|  8,98081155811|  9,77894510074|  0,00000000000|  9,60518596053|  9,60513563482|  9,10220009518|  9,20014643077| 10,61296065788|  9,87167698877|  9,61085121654| 10,56965864454
Brown_Bear                | 10,31956859615|  9,88037384056|  9,87796870839|  9,76160158216| 10,36345240242| 10,82918477428| 10,35166180601|  9,94053720075| 10,07844752621| 10,28877745003| 10,45667531867| 10,63502285631| 11,38863630374| 10,73198718081| 10,22606409184|  9,30406954854|  9,76118062411|  9,59441675834|  9,26629998613|  9,80342277254| 11,06229741912| 11,25993546191|  9,60518596053|  0,00000000000|  6,87616821700|  8,47807498346|  9,77162825547| 10,45828051278|  9,68612181139|  8,93197870807| 10,78431227976
Polar_Bear                | 10,26928101581|  9,93460486173| 10,16167862413|  9,76920171924|  9,87433900339| 10,43055309867| 10,21213682972| 10,03227372616| 10,27510938688|  9,92604692263| 10,21415525594| 10,33891532958| 11,19575324576| 10,44738962130| 10,61372586419| 10,13833251988| 10,01387295807|  9,50721407123|  8,92898917090| 10,27513796274| 11,03319256022| 11,18124123061|  9,60513563482|  6,87616821700|  0,00000000000|  9,57579355731|  9,66357556833| 10,30882985405|  8,99362398128|  9,08224601292| 10,65439216538
Giant_Panda               | 10,18643662061| 10,56029900947| 11,09377079588| 10,07253460967| 10,89120837335| 10,82284234845|  9,96140963410|  9,93819953019|  9,80522981686| 10,06744640457|  9,83229973426| 10,32587720996| 11,00172062296| 10,88834873342| 10,75021843952| 10,36412232494| 11,09967527975| 10,02176875448|  9,04223217123| 10,69146740245| 10,59360805227| 10,49673943079|  9,10220009518|  8,47807498346|  9,57579355731|  0,00000000000| 10,40505439119| 11,21445848866|  9,46381330468|  9,57535152500| 11,12317371191
Rabbit                    |  9,68831597042|  9,56981484532|  9,64933314056|  9,37381124983|  9,83505607810| 10,55401240021|  9,11149339756|  9,60272414625|  9,30205314132|  8,89285229986|  9,66680366975|  9,65137861151| 10,46339340873| 10,31414882050| 10,43363827182| 10,27415213355|  9,44338290436|  9,54594703732|  8,74945897841| 10,47661984363|  7,65710156388|  8,58137394347|  9,20014643077|  9,77162825547|  9,66357556833| 10,40505439119|  0,00000000000|  9,81593630874|  9,33002481385|  8,66410884816| 10,74665423182
Hedgehog                  | 10,62791829649| 10,74325662161| 10,74710999102| 10,45286547994| 10,88074384469| 10,62555116752| 10,38529821149| 10,92111748772| 10,50396775051| 10,55749131541| 10,75398050972| 10,14480002321| 11,56050743897| 10,94432347513| 11,12516423865| 11,78844177527| 10,97431357953|  9,68193965170| 10,17947774754| 10,39310048435| 11,23864896918| 11,18727483350| 10,61296065788| 10,45828051278| 10,30882985405| 11,21445848866|  9,81593630874|  0,00000000000|  9,98402908855| 10,06200301233| 11,81608333328
Dormouse                  |  9,16271048600|  9,12198118028|  8,93332815262|  9,16517987705|  8,33034773238|  9,94502037548|  8,87887393693|  8,68355618325|  9,24383011952|  8,66309350770|  9,94397091410|  9,70318364363|  9,41388651607|  9,05127829267|  9,98307337633| 10,36681899835|  8,98237354026|  9,35077727795|  8,25533995597|  9,67575004660|  9,28860249575| 10,41912995669|  9,87167698877|  9,68612181139|  8,99362398128|  9,46381330468|  9,33002481385|  9,98402908855|  0,00000000000|  8,12423082686| 10,38718794028
Squirrel                  |  9,05348410711|  9,34545248040|  9,45768747060|  8,63119826210|  8,56152010808|  9,81050005406|  8,77218550418|  9,77057056345|  9,10695340695|  9,19872133325| 10,01181394847|  9,75647935674| 10,37356427159|  9,98855809653| 10,12245682711| 10,04394028338|  9,08566429779|  9,80248961452|  9,01482505287|  9,90930319448|  8,96304305509|  9,54137307215|  9,61085121654|  8,93197870807|  9,08224601292|  9,57535152500|  8,66410884816| 10,06200301233|  8,12423082686|  0,00000000000| 10,10943121528
Blue_Whale                | 10,63004570471| 10,51645257938| 10,31960757035| 10,29840079153| 11,01424306309| 11,94547755442| 10,53892623816| 10,40293652612| 10,96884106484| 10,85522093358| 11,14350634137| 10,27420296423| 10,62265646789| 10,84275785979| 10,61984566985| 10,25488180426| 10,91195509867| 10,60391843167| 10,19323215792| 10,30230518710| 10,29944749458| 11,24898144566| 10,56965864454| 10,78431227976| 10,65439216538| 11,12317371191| 10,74665423182| 11,81608333328| 10,38718794028| 10,10943121528|  0,00000000000
