                           |Human          |P_Chim         |Com_Chim       |Gibbon         |Baboon         |Ver_Monkey     |Macaca_Thibet  |Bor_Oran       |Sum_Oran       |Gorilla        |Cat            |Dog            |Pig            |Sheep          |Goat           |Cow            |Buffalo        |Wolf           |Tiger          |Leopard        |Indian_Rhino   |White_Rhino    |Black_Bear     |Brown_Bear     |Polar_Bear     |Giant_Panda    |Rabbit         |Hedgehog       |Dormouse       |Squirrel       |Blue_Whale     
Human                     |  0,00000000000|18134,54732695536|18134,54732695536|18134,54732695536|18176,93086694289|18341,11614603835|18134,54732695536|18134,54732695536|17918,40752588905|18134,54732695536|18197,33200128357|18901,93884400805|18647,55597593892|18647,55597593892|18647,55597593892|18792,67404129345|18647,55597593892|18901,93884400805|18197,33200128357|18499,37515797607|18427,79413072197|18427,79413072197|18646,47742689595|18610,69405626260|18610,69405626260|18610,69405626260|18427,79413072197|19130,60654146034|18197,33200128357|18197,33200128357|19425,78956729240
P_Chim                    |18134,54732695536|  0,00000000000|16669,38391446629|16845,47858818273|18176,93086694289|18341,11614603835|18035,47317886791|18037,83574745465|18134,54732695536|16669,38391446629|18197,33200128357|18901,93884400805|18647,55597593892|18647,55597593892|18647,55597593892|18792,67404129345|18647,55597593892|18901,93884400805|18197,33200128357|18499,37515797607|18427,79413072197|18427,79413072197|18646,47742689595|18610,69405626260|18610,69405626260|18610,69405626260|18427,79413072197|19130,60654146034|18197,33200128357|18197,33200128357|19425,78956729240
Com_Chim                  |18134,54732695536|16669,38391446629|  0,00000000000|16845,47858818273|18176,93086694289|18341,11614603835|18035,47317886791|18037,83574745465|18134,54732695536|14678,49064150576|18197,33200128357|18901,93884400805|18647,55597593892|18647,55597593892|18647,55597593892|18792,67404129345|18647,55597593892|18901,93884400805|18197,33200128357|18499,37515797607|18427,79413072197|18427,79413072197|18646,47742689595|18610,69405626260|18610,69405626260|18610,69405626260|18427,79413072197|19130,60654146034|18197,33200128357|18197,33200128357|19425,78956729240
Gibbon                    |18134,54732695536|16845,47858818273|16845,47858818273|  0,00000000000|18176,93086694289|18341,11614603835|18035,47317886791|18037,83574745465|18134,54732695536|16845,47858818273|18197,33200128357|18901,93884400805|18647,55597593892|18647,55597593892|18647,55597593892|18792,67404129345|18647,55597593892|18901,93884400805|18197,33200128357|18499,37515797607|18427,79413072197|18427,79413072197|18646,47742689595|18610,69405626260|18610,69405626260|18610,69405626260|18427,79413072197|19130,60654146034|18197,33200128357|18197,33200128357|19425,78956729240
Baboon                    |18176,93086694289|18176,93086694289|18176,93086694289|18176,93086694289|  0,00000000000|18341,11614603835|18176,93086694289|18176,93086694289|18176,93086694289|18176,93086694289|18197,33200128357|18901,93884400805|18647,55597593892|18647,55597593892|18647,55597593892|18792,67404129345|18647,55597593892|18901,93884400805|18197,33200128357|18499,37515797607|18427,79413072197|18427,79413072197|18646,47742689595|18610,69405626260|18610,69405626260|18610,69405626260|18427,79413072197|19130,60654146034|18197,33200128357|18197,33200128357|19425,78956729240
Ver_Monkey                |18341,11614603835|18341,11614603835|18341,11614603835|18341,11614603835|18341,11614603835|  0,00000000000|18341,11614603835|18341,11614603835|18341,11614603835|18341,11614603835|18341,11614603835|18901,93884400805|18647,55597593892|18647,55597593892|18647,55597593892|18792,67404129345|18647,55597593892|18901,93884400805|18341,11614603835|18499,37515797607|18427,79413072197|18427,79413072197|18646,47742689595|18610,69405626260|18610,69405626260|18610,69405626260|18427,79413072197|19130,60654146034|18341,11614603835|18341,11614603835|19425,78956729240
Macaca_Thibet             |18134,54732695536|18035,47317886791|18035,47317886791|18035,47317886791|18176,93086694289|18341,11614603835|  0,00000000000|18037,83574745465|18134,54732695536|18035,47317886791|18197,33200128357|18901,93884400805|18647,55597593892|18647,55597593892|18647,55597593892|18792,67404129345|18647,55597593892|18901,93884400805|18197,33200128357|18499,37515797607|18427,79413072197|18427,79413072197|18646,47742689595|18610,69405626260|18610,69405626260|18610,69405626260|18427,79413072197|19130,60654146034|18197,33200128357|18197,33200128357|19425,78956729240
Bor_Oran                  |18134,54732695536|18037,83574745465|18037,83574745465|18037,83574745465|18176,93086694289|18341,11614603835|18037,83574745465|  0,00000000000|18134,54732695536|18037,83574745465|18197,33200128357|18901,93884400805|18647,55597593892|18647,55597593892|18647,55597593892|18792,67404129345|18647,55597593892|18901,93884400805|18197,33200128357|18499,37515797607|18427,79413072197|18427,79413072197|18646,47742689595|18610,69405626260|18610,69405626260|18610,69405626260|18427,79413072197|19130,60654146034|18197,33200128357|18197,33200128357|19425,78956729240
Sum_Oran                  |17918,40752588905|18134,54732695536|18134,54732695536|18134,54732695536|18176,93086694289|18341,11614603835|18134,54732695536|18134,54732695536|  0,00000000000|18134,54732695536|18197,33200128357|18901,93884400805|18647,55597593892|18647,55597593892|18647,55597593892|18792,67404129345|18647,55597593892|18901,93884400805|18197,33200128357|18499,37515797607|18427,79413072197|18427,79413072197|18646,47742689595|18610,69405626260|18610,69405626260|18610,69405626260|18427,79413072197|19130,60654146034|18197,33200128357|18197,33200128357|19425,78956729240
Gorilla                   |18134,54732695536|16669,38391446629|14678,49064150576|16845,47858818273|18176,93086694289|18341,11614603835|18035,47317886791|18037,83574745465|18134,54732695536|  0,00000000000|18197,33200128357|18901,93884400805|18647,55597593892|18647,55597593892|18647,55597593892|18792,67404129345|18647,55597593892|18901,93884400805|18197,33200128357|18499,37515797607|18427,79413072197|18427,79413072197|18646,47742689595|18610,69405626260|18610,69405626260|18610,69405626260|18427,79413072197|19130,60654146034|18197,33200128357|18197,33200128357|19425,78956729240
Cat                       |18197,33200128357|18197,33200128357|18197,33200128357|18197,33200128357|18197,33200128357|18341,11614603835|18197,33200128357|18197,33200128357|18197,33200128357|18197,33200128357|  0,00000000000|18901,93884400805|18647,55597593892|18647,55597593892|18647,55597593892|18792,67404129345|18647,55597593892|18901,93884400805|17677,43214895693|18499,37515797607|18427,79413072197|18427,79413072197|18646,47742689595|18610,69405626260|18610,69405626260|18610,69405626260|18427,79413072197|19130,60654146034|18145,53911391503|18145,53911391503|19425,78956729240
Dog                       |18901,93884400805|18901,93884400805|18901,93884400805|18901,93884400805|18901,93884400805|18901,93884400805|18901,93884400805|18901,93884400805|18901,93884400805|18901,93884400805|18901,93884400805|  0,00000000000|18901,93884400805|18901,93884400805|18901,93884400805|18901,93884400805|18901,93884400805|13869,86565432388|18901,93884400805|18901,93884400805|18901,93884400805|18901,93884400805|18901,93884400805|18901,93884400805|18901,93884400805|18901,93884400805|18901,93884400805|19130,60654146034|18901,93884400805|18901,93884400805|19425,78956729240
Pig                       |18647,55597593892|18647,55597593892|18647,55597593892|18647,55597593892|18647,55597593892|18647,55597593892|18647,55597593892|18647,55597593892|18647,55597593892|18647,55597593892|18647,55597593892|18901,93884400805|  0,00000000000|18453,62166411777|18453,62166411777|18792,67404129345|18453,62166411777|18901,93884400805|18647,55597593892|18647,55597593892|18647,55597593892|18647,55597593892|18647,55597593892|18647,55597593892|18647,55597593892|18647,55597593892|18647,55597593892|19130,60654146034|18647,55597593892|18647,55597593892|19425,78956729240
Sheep                     |18647,55597593892|18647,55597593892|18647,55597593892|18647,55597593892|18647,55597593892|18647,55597593892|18647,55597593892|18647,55597593892|18647,55597593892|18647,55597593892|18647,55597593892|18901,93884400805|18453,62166411777|  0,00000000000|18162,88450979395|18792,67404129345|18162,88450979395|18901,93884400805|18647,55597593892|18647,55597593892|18647,55597593892|18647,55597593892|18647,55597593892|18647,55597593892|18647,55597593892|18647,55597593892|18647,55597593892|19130,60654146034|18647,55597593892|18647,55597593892|19425,78956729240
Goat                      |18647,55597593892|18647,55597593892|18647,55597593892|18647,55597593892|18647,55597593892|18647,55597593892|18647,55597593892|18647,55597593892|18647,55597593892|18647,55597593892|18647,55597593892|18901,93884400805|18453,62166411777|18162,88450979395|  0,00000000000|18792,67404129345|16563,91990420364|18901,93884400805|18647,55597593892|18647,55597593892|18647,55597593892|18647,55597593892|18647,55597593892|18647,55597593892|18647,55597593892|18647,55597593892|18647,55597593892|19130,60654146034|18647,55597593892|18647,55597593892|19425,78956729240
Cow                       |18792,67404129345|18792,67404129345|18792,67404129345|18792,67404129345|18792,67404129345|18792,67404129345|18792,67404129345|18792,67404129345|18792,67404129345|18792,67404129345|18792,67404129345|18901,93884400805|18792,67404129345|18792,67404129345|18792,67404129345|  0,00000000000|18792,67404129345|18901,93884400805|18792,67404129345|18792,67404129345|18792,67404129345|18792,67404129345|18792,67404129345|18792,67404129345|18792,67404129345|18792,67404129345|18792,67404129345|19130,60654146034|18792,67404129345|18792,67404129345|19425,78956729240
Buffalo                   |18647,55597593892|18647,55597593892|18647,55597593892|18647,55597593892|18647,55597593892|18647,55597593892|18647,55597593892|18647,55597593892|18647,55597593892|18647,55597593892|18647,55597593892|18901,93884400805|18453,62166411777|18162,88450979395|16563,91990420364|18792,67404129345|  0,00000000000|18901,93884400805|18647,55597593892|18647,55597593892|18647,55597593892|18647,55597593892|18647,55597593892|18647,55597593892|18647,55597593892|18647,55597593892|18647,55597593892|19130,60654146034|18647,55597593892|18647,55597593892|19425,78956729240
Wolf                      |18901,93884400805|18901,93884400805|18901,93884400805|18901,93884400805|18901,93884400805|18901,93884400805|18901,93884400805|18901,93884400805|18901,93884400805|18901,93884400805|18901,93884400805|13869,86565432388|18901,93884400805|18901,93884400805|18901,93884400805|18901,93884400805|18901,93884400805|  0,00000000000|18901,93884400805|18901,93884400805|18901,93884400805|18901,93884400805|18901,93884400805|18901,93884400805|18901,93884400805|18901,93884400805|18901,93884400805|19130,60654146034|18901,93884400805|18901,93884400805|19425,78956729240
Tiger                     |18197,33200128357|18197,33200128357|18197,33200128357|18197,33200128357|18197,33200128357|18341,11614603835|18197,33200128357|18197,33200128357|18197,33200128357|18197,33200128357|17677,43214895693|18901,93884400805|18647,55597593892|18647,55597593892|18647,55597593892|18792,67404129345|18647,55597593892|18901,93884400805|  0,00000000000|18499,37515797607|18427,79413072197|18427,79413072197|18646,47742689595|18610,69405626260|18610,69405626260|18610,69405626260|18427,79413072197|19130,60654146034|18145,53911391503|18145,53911391503|19425,78956729240
Leopard                   |18499,37515797607|18499,37515797607|18499,37515797607|18499,37515797607|18499,37515797607|18499,37515797607|18499,37515797607|18499,37515797607|18499,37515797607|18499,37515797607|18499,37515797607|18901,93884400805|18647,55597593892|18647,55597593892|18647,55597593892|18792,67404129345|18647,55597593892|18901,93884400805|18499,37515797607|  0,00000000000|18499,37515797607|18499,37515797607|18646,47742689595|18610,69405626260|18610,69405626260|18610,69405626260|18499,37515797607|19130,60654146034|18499,37515797607|18499,37515797607|19425,78956729240
Indian_Rhino              |18427,79413072197|18427,79413072197|18427,79413072197|18427,79413072197|18427,79413072197|18427,79413072197|18427,79413072197|18427,79413072197|18427,79413072197|18427,79413072197|18427,79413072197|18901,93884400805|18647,55597593892|18647,55597593892|18647,55597593892|18792,67404129345|18647,55597593892|18901,93884400805|18427,79413072197|18499,37515797607|  0,00000000000|17323,31849616252|18646,47742689595|18610,69405626260|18610,69405626260|18610,69405626260|17732,45536259010|19130,60654146034|18427,79413072197|18427,79413072197|19425,78956729240
White_Rhino               |18427,79413072197|18427,79413072197|18427,79413072197|18427,79413072197|18427,79413072197|18427,79413072197|18427,79413072197|18427,79413072197|18427,79413072197|18427,79413072197|18427,79413072197|18901,93884400805|18647,55597593892|18647,55597593892|18647,55597593892|18792,67404129345|18647,55597593892|18901,93884400805|18427,79413072197|18499,37515797607|17323,31849616252|  0,00000000000|18646,47742689595|18610,69405626260|18610,69405626260|18610,69405626260|17732,45536259010|19130,60654146034|18427,79413072197|18427,79413072197|19425,78956729240
Black_Bear                |18646,47742689595|18646,47742689595|18646,47742689595|18646,47742689595|18646,47742689595|18646,47742689595|18646,47742689595|18646,47742689595|18646,47742689595|18646,47742689595|18646,47742689595|18901,93884400805|18647,55597593892|18647,55597593892|18647,55597593892|18792,67404129345|18647,55597593892|18901,93884400805|18646,47742689595|18646,47742689595|18646,47742689595|18646,47742689595|  0,00000000000|18646,47742689595|18646,47742689595|18646,47742689595|18646,47742689595|19130,60654146034|18646,47742689595|18646,47742689595|19425,78956729240
Brown_Bear                |18610,69405626260|18610,69405626260|18610,69405626260|18610,69405626260|18610,69405626260|18610,69405626260|18610,69405626260|18610,69405626260|18610,69405626260|18610,69405626260|18610,69405626260|18901,93884400805|18647,55597593892|18647,55597593892|18647,55597593892|18792,67404129345|18647,55597593892|18901,93884400805|18610,69405626260|18610,69405626260|18610,69405626260|18610,69405626260|18646,47742689595|  0,00000000000|17193,22070173873|18299,33770311845|18610,69405626260|19130,60654146034|18610,69405626260|18610,69405626260|19425,78956729240
Polar_Bear                |18610,69405626260|18610,69405626260|18610,69405626260|18610,69405626260|18610,69405626260|18610,69405626260|18610,69405626260|18610,69405626260|18610,69405626260|18610,69405626260|18610,69405626260|18901,93884400805|18647,55597593892|18647,55597593892|18647,55597593892|18792,67404129345|18647,55597593892|18901,93884400805|18610,69405626260|18610,69405626260|18610,69405626260|18610,69405626260|18646,47742689595|17193,22070173873|  0,00000000000|18299,33770311845|18610,69405626260|19130,60654146034|18610,69405626260|18610,69405626260|19425,78956729240
Giant_Panda               |18610,69405626260|18610,69405626260|18610,69405626260|18610,69405626260|18610,69405626260|18610,69405626260|18610,69405626260|18610,69405626260|18610,69405626260|18610,69405626260|18610,69405626260|18901,93884400805|18647,55597593892|18647,55597593892|18647,55597593892|18792,67404129345|18647,55597593892|18901,93884400805|18610,69405626260|18610,69405626260|18610,69405626260|18610,69405626260|18646,47742689595|18299,33770311845|18299,33770311845|  0,00000000000|18610,69405626260|19130,60654146034|18610,69405626260|18610,69405626260|19425,78956729240
Rabbit                    |18427,79413072197|18427,79413072197|18427,79413072197|18427,79413072197|18427,79413072197|18427,79413072197|18427,79413072197|18427,79413072197|18427,79413072197|18427,79413072197|18427,79413072197|18901,93884400805|18647,55597593892|18647,55597593892|18647,55597593892|18792,67404129345|18647,55597593892|18901,93884400805|18427,79413072197|18499,37515797607|17732,45536259010|17732,45536259010|18646,47742689595|18610,69405626260|18610,69405626260|18610,69405626260|  0,00000000000|19130,60654146034|18427,79413072197|18427,79413072197|19425,78956729240
Hedgehog                  |19130,60654146034|19130,60654146034|19130,60654146034|19130,60654146034|19130,60654146034|19130,60654146034|19130,60654146034|19130,60654146034|19130,60654146034|19130,60654146034|19130,60654146034|19130,60654146034|19130,60654146034|19130,60654146034|19130,60654146034|19130,60654146034|19130,60654146034|19130,60654146034|19130,60654146034|19130,60654146034|19130,60654146034|19130,60654146034|19130,60654146034|19130,60654146034|19130,60654146034|19130,60654146034|19130,60654146034|  0,00000000000|19130,60654146034|19130,60654146034|19425,78956729240
Dormouse                  |18197,33200128357|18197,33200128357|18197,33200128357|18197,33200128357|18197,33200128357|18341,11614603835|18197,33200128357|18197,33200128357|18197,33200128357|18197,33200128357|18145,53911391503|18901,93884400805|18647,55597593892|18647,55597593892|18647,55597593892|18792,67404129345|18647,55597593892|18901,93884400805|18145,53911391503|18499,37515797607|18427,79413072197|18427,79413072197|18646,47742689595|18610,69405626260|18610,69405626260|18610,69405626260|18427,79413072197|19130,60654146034|  0,00000000000|18055,00822923528|19425,78956729240
Squirrel                  |18197,33200128357|18197,33200128357|18197,33200128357|18197,33200128357|18197,33200128357|18341,11614603835|18197,33200128357|18197,33200128357|18197,33200128357|18197,33200128357|18145,53911391503|18901,93884400805|18647,55597593892|18647,55597593892|18647,55597593892|18792,67404129345|18647,55597593892|18901,93884400805|18145,53911391503|18499,37515797607|18427,79413072197|18427,79413072197|18646,47742689595|18610,69405626260|18610,69405626260|18610,69405626260|18427,79413072197|19130,60654146034|18055,00822923528|  0,00000000000|19425,78956729240
Blue_Whale                |19425,78956729240|19425,78956729240|19425,78956729240|19425,78956729240|19425,78956729240|19425,78956729240|19425,78956729240|19425,78956729240|19425,78956729240|19425,78956729240|19425,78956729240|19425,78956729240|19425,78956729240|19425,78956729240|19425,78956729240|19425,78956729240|19425,78956729240|19425,78956729240|19425,78956729240|19425,78956729240|19425,78956729240|19425,78956729240|19425,78956729240|19425,78956729240|19425,78956729240|19425,78956729240|19425,78956729240|19425,78956729240|19425,78956729240|19425,78956729240|  0,00000000000
                           |Human          |P_Chim         |Com_Chim       |Gibbon         |Baboon         |Ver_Monkey     |Macaca_Thibet  |Bor_Oran       |Sum_Oran       |Gorilla        |Cat            |Dog            |Pig            |Sheep          |Goat           |Cow            |Buffalo        |Wolf           |Tiger          |Leopard        |Indian_Rhino   |White_Rhino    |Black_Bear     |Brown_Bear     |Polar_Bear     |Giant_Panda    |Rabbit         |Hedgehog       |Dormouse       |Squirrel       |Blue_Whale     
Human                     |  0,00000000000|  9,08621972611|  9,08621972611|  9,08621972611|  9,17089154160|  9,49889306439|  9,08621972611|  9,08621972611|  8,65442593633|  9,08621972611|  9,21164795513| 10,61927791232| 10,11108394658| 10,11108394658| 10,11108394658| 10,40099389883| 10,11108394658| 10,61927791232|  9,21164795513|  9,81505537320|  9,67205420969|  9,67205420969| 10,10892927273| 10,03744296090| 10,03744296090| 10,03744296090|  9,67205420969| 11,07609933622|  9,21164795513|  9,21164795513| 11,66580191193
P_Chim                    |  9,08621972611|  0,00000000000|  6,15918611452|  6,51097965809|  9,17089154160|  9,49889306439|  8,88829411657|  8,89301394345|  9,08621972611|  6,15918611452|  9,21164795513| 10,61927791232| 10,11108394658| 10,11108394658| 10,11108394658| 10,40099389883| 10,11108394658| 10,61927791232|  9,21164795513|  9,81505537320|  9,67205420969|  9,67205420969| 10,10892927273| 10,03744296090| 10,03744296090| 10,03744296090|  9,67205420969| 11,07609933622|  9,21164795513|  9,21164795513| 11,66580191193
Com_Chim                  |  9,08621972611|  6,15918611452|  0,00000000000|  6,51097965809|  9,17089154160|  9,49889306439|  8,88829411657|  8,89301394345|  9,08621972611|  2,18187445265|  9,21164795513| 10,61927791232| 10,11108394658| 10,11108394658| 10,11108394658| 10,40099389883| 10,11108394658| 10,61927791232|  9,21164795513|  9,81505537320|  9,67205420969|  9,67205420969| 10,10892927273| 10,03744296090| 10,03744296090| 10,03744296090|  9,67205420969| 11,07609933622|  9,21164795513|  9,21164795513| 11,66580191193
Gibbon                    |  9,08621972611|  6,51097965809|  6,51097965809|  0,00000000000|  9,17089154160|  9,49889306439|  8,88829411657|  8,89301394345|  9,08621972611|  6,51097965809|  9,21164795513| 10,61927791232| 10,11108394658| 10,11108394658| 10,11108394658| 10,40099389883| 10,11108394658| 10,61927791232|  9,21164795513|  9,81505537320|  9,67205420969|  9,67205420969| 10,10892927273| 10,03744296090| 10,03744296090| 10,03744296090|  9,67205420969| 11,07609933622|  9,21164795513|  9,21164795513| 11,66580191193
Baboon                    |  9,17089154160|  9,17089154160|  9,17089154160|  9,17089154160|  0,00000000000|  9,49889306439|  9,17089154160|  9,17089154160|  9,17089154160|  9,17089154160|  9,21164795513| 10,61927791232| 10,11108394658| 10,11108394658| 10,11108394658| 10,40099389883| 10,11108394658| 10,61927791232|  9,21164795513|  9,81505537320|  9,67205420969|  9,67205420969| 10,10892927273| 10,03744296090| 10,03744296090| 10,03744296090|  9,67205420969| 11,07609933622|  9,21164795513|  9,21164795513| 11,66580191193
Ver_Monkey                |  9,49889306439|  9,49889306439|  9,49889306439|  9,49889306439|  9,49889306439|  0,00000000000|  9,49889306439|  9,49889306439|  9,49889306439|  9,49889306439|  9,49889306439| 10,61927791232| 10,11108394658| 10,11108394658| 10,11108394658| 10,40099389883| 10,11108394658| 10,61927791232|  9,49889306439|  9,81505537320|  9,67205420969|  9,67205420969| 10,10892927273| 10,03744296090| 10,03744296090| 10,03744296090|  9,67205420969| 11,07609933622|  9,49889306439|  9,49889306439| 11,66580191193
Macaca_Thibet             |  9,08621972611|  8,88829411657|  8,88829411657|  8,88829411657|  9,17089154160|  9,49889306439|  0,00000000000|  8,89301394345|  9,08621972611|  8,88829411657|  9,21164795513| 10,61927791232| 10,11108394658| 10,11108394658| 10,11108394658| 10,40099389883| 10,11108394658| 10,61927791232|  9,21164795513|  9,81505537320|  9,67205420969|  9,67205420969| 10,10892927273| 10,03744296090| 10,03744296090| 10,03744296090|  9,67205420969| 11,07609933622|  9,21164795513|  9,21164795513| 11,66580191193
Bor_Oran                  |  9,08621972611|  8,89301394345|  8,89301394345|  8,89301394345|  9,17089154160|  9,49889306439|  8,89301394345|  0,00000000000|  9,08621972611|  8,89301394345|  9,21164795513| 10,61927791232| 10,11108394658| 10,11108394658| 10,11108394658| 10,40099389883| 10,11108394658| 10,61927791232|  9,21164795513|  9,81505537320|  9,67205420969|  9,67205420969| 10,10892927273| 10,03744296090| 10,03744296090| 10,03744296090|  9,67205420969| 11,07609933622|  9,21164795513|  9,21164795513| 11,66580191193
Sum_Oran                  |  8,65442593633|  9,08621972611|  9,08621972611|  9,08621972611|  9,17089154160|  9,49889306439|  9,08621972611|  9,08621972611|  0,00000000000|  9,08621972611|  9,21164795513| 10,61927791232| 10,11108394658| 10,11108394658| 10,11108394658| 10,40099389883| 10,11108394658| 10,61927791232|  9,21164795513|  9,81505537320|  9,67205420969|  9,67205420969| 10,10892927273| 10,03744296090| 10,03744296090| 10,03744296090|  9,67205420969| 11,07609933622|  9,21164795513|  9,21164795513| 11,66580191193
Gorilla                   |  9,08621972611|  6,15918611452|  2,18187445265|  6,51097965809|  9,17089154160|  9,49889306439|  8,88829411657|  8,89301394345|  9,08621972611|  0,00000000000|  9,21164795513| 10,61927791232| 10,11108394658| 10,11108394658| 10,11108394658| 10,40099389883| 10,11108394658| 10,61927791232|  9,21164795513|  9,81505537320|  9,67205420969|  9,67205420969| 10,10892927273| 10,03744296090| 10,03744296090| 10,03744296090|  9,67205420969| 11,07609933622|  9,21164795513|  9,21164795513| 11,66580191193
Cat                       |  9,21164795513|  9,21164795513|  9,21164795513|  9,21164795513|  9,21164795513|  9,49889306439|  9,21164795513|  9,21164795513|  9,21164795513|  9,21164795513|  0,00000000000| 10,61927791232| 10,11108394658| 10,11108394658| 10,11108394658| 10,40099389883| 10,11108394658| 10,61927791232|  8,17301681716|  9,81505537320|  9,67205420969|  9,67205420969| 10,10892927273| 10,03744296090| 10,03744296090| 10,03744296090|  9,67205420969| 11,07609933622|  9,10817859405|  9,10817859405| 11,66580191193
Dog                       | 10,61927791232| 10,61927791232| 10,61927791232| 10,61927791232| 10,61927791232| 10,61927791232| 10,61927791232| 10,61927791232| 10,61927791232| 10,61927791232| 10,61927791232|  0,00000000000| 10,61927791232| 10,61927791232| 10,61927791232| 10,61927791232| 10,61927791232|  0,56644200568| 10,61927791232| 10,61927791232| 10,61927791232| 10,61927791232| 10,61927791232| 10,61927791232| 10,61927791232| 10,61927791232| 10,61927791232| 11,07609933622| 10,61927791232| 10,61927791232| 11,66580191193
Pig                       | 10,11108394658| 10,11108394658| 10,11108394658| 10,11108394658| 10,11108394658| 10,11108394658| 10,11108394658| 10,11108394658| 10,11108394658| 10,11108394658| 10,11108394658| 10,61927791232|  0,00000000000|  9,72365122454|  9,72365122454| 10,40099389883|  9,72365122454| 10,61927791232| 10,11108394658| 10,11108394658| 10,11108394658| 10,11108394658| 10,11108394658| 10,11108394658| 10,11108394658| 10,11108394658| 10,11108394658| 11,07609933622| 10,11108394658| 10,11108394658| 11,66580191193
Sheep                     | 10,11108394658| 10,11108394658| 10,11108394658| 10,11108394658| 10,11108394658| 10,11108394658| 10,11108394658| 10,11108394658| 10,11108394658| 10,11108394658| 10,11108394658| 10,61927791232|  9,72365122454|  0,00000000000|  9,14283039897| 10,40099389883|  9,14283039897| 10,61927791232| 10,11108394658| 10,11108394658| 10,11108394658| 10,11108394658| 10,11108394658| 10,11108394658| 10,11108394658| 10,11108394658| 10,11108394658| 11,07609933622| 10,11108394658| 10,11108394658| 11,66580191193
Goat                      | 10,11108394658| 10,11108394658| 10,11108394658| 10,11108394658| 10,11108394658| 10,11108394658| 10,11108394658| 10,11108394658| 10,11108394658| 10,11108394658| 10,11108394658| 10,61927791232|  9,72365122454|  9,14283039897|  0,00000000000| 10,40099389883|  5,94849514298| 10,61927791232| 10,11108394658| 10,11108394658| 10,11108394658| 10,11108394658| 10,11108394658| 10,11108394658| 10,11108394658| 10,11108394658| 10,11108394658| 11,07609933622| 10,11108394658| 10,11108394658| 11,66580191193
Cow                       | 10,40099389883| 10,40099389883| 10,40099389883| 10,40099389883| 10,40099389883| 10,40099389883| 10,40099389883| 10,40099389883| 10,40099389883| 10,40099389883| 10,40099389883| 10,61927791232| 10,40099389883| 10,40099389883| 10,40099389883|  0,00000000000| 10,40099389883| 10,61927791232| 10,40099389883| 10,40099389883| 10,40099389883| 10,40099389883| 10,40099389883| 10,40099389883| 10,40099389883| 10,40099389883| 10,40099389883| 11,07609933622| 10,40099389883| 10,40099389883| 11,66580191193
Buffalo                   | 10,11108394658| 10,11108394658| 10,11108394658| 10,11108394658| 10,11108394658| 10,11108394658| 10,11108394658| 10,11108394658| 10,11108394658| 10,11108394658| 10,11108394658| 10,61927791232|  9,72365122454|  9,14283039897|  5,94849514298| 10,40099389883|  0,00000000000| 10,61927791232| 10,11108394658| 10,11108394658| 10,11108394658| 10,11108394658| 10,11108394658| 10,11108394658| 10,11108394658| 10,11108394658| 10,11108394658| 11,07609933622| 10,11108394658| 10,11108394658| 11,66580191193
Wolf                      | 10,61927791232| 10,61927791232| 10,61927791232| 10,61927791232| 10,61927791232| 10,61927791232| 10,61927791232| 10,61927791232| 10,61927791232| 10,61927791232| 10,61927791232|  0,56644200568| 10,61927791232| 10,61927791232| 10,61927791232| 10,61927791232| 10,61927791232|  0,00000000000| 10,61927791232| 10,61927791232| 10,61927791232| 10,61927791232| 10,61927791232| 10,61927791232| 10,61927791232| 10,61927791232| 10,61927791232| 11,07609933622| 10,61927791232| 10,61927791232| 11,66580191193
Tiger                     |  9,21164795513|  9,21164795513|  9,21164795513|  9,21164795513|  9,21164795513|  9,49889306439|  9,21164795513|  9,21164795513|  9,21164795513|  9,21164795513|  8,17301681716| 10,61927791232| 10,11108394658| 10,11108394658| 10,11108394658| 10,40099389883| 10,11108394658| 10,61927791232|  0,00000000000|  9,81505537320|  9,67205420969|  9,67205420969| 10,10892927273| 10,03744296090| 10,03744296090| 10,03744296090|  9,67205420969| 11,07609933622|  9,10817859405|  9,10817859405| 11,66580191193
Leopard                   |  9,81505537320|  9,81505537320|  9,81505537320|  9,81505537320|  9,81505537320|  9,81505537320|  9,81505537320|  9,81505537320|  9,81505537320|  9,81505537320|  9,81505537320| 10,61927791232| 10,11108394658| 10,11108394658| 10,11108394658| 10,40099389883| 10,11108394658| 10,61927791232|  9,81505537320|  0,00000000000|  9,81505537320|  9,81505537320| 10,10892927273| 10,03744296090| 10,03744296090| 10,03744296090|  9,81505537320| 11,07609933622|  9,81505537320|  9,81505537320| 11,66580191193
Indian_Rhino              |  9,67205420969|  9,67205420969|  9,67205420969|  9,67205420969|  9,67205420969|  9,67205420969|  9,67205420969|  9,67205420969|  9,67205420969|  9,67205420969|  9,67205420969| 10,61927791232| 10,11108394658| 10,11108394658| 10,11108394658| 10,40099389883| 10,11108394658| 10,61927791232|  9,67205420969|  9,81505537320|  0,00000000000|  7,46558544451| 10,10892927273| 10,03744296090| 10,03744296090| 10,03744296090|  8,28293957004| 11,07609933622|  9,67205420969|  9,67205420969| 11,66580191193
White_Rhino               |  9,67205420969|  9,67205420969|  9,67205420969|  9,67205420969|  9,67205420969|  9,67205420969|  9,67205420969|  9,67205420969|  9,67205420969|  9,67205420969|  9,67205420969| 10,61927791232| 10,11108394658| 10,11108394658| 10,11108394658| 10,40099389883| 10,11108394658| 10,61927791232|  9,67205420969|  9,81505537320|  7,46558544451|  0,00000000000| 10,10892927273| 10,03744296090| 10,03744296090| 10,03744296090|  8,28293957004| 11,07609933622|  9,67205420969|  9,67205420969| 11,66580191193
Black_Bear                | 10,10892927273| 10,10892927273| 10,10892927273| 10,10892927273| 10,10892927273| 10,10892927273| 10,10892927273| 10,10892927273| 10,10892927273| 10,10892927273| 10,10892927273| 10,61927791232| 10,11108394658| 10,11108394658| 10,11108394658| 10,40099389883| 10,11108394658| 10,61927791232| 10,10892927273| 10,10892927273| 10,10892927273| 10,10892927273|  0,00000000000| 10,10892927273| 10,10892927273| 10,10892927273| 10,10892927273| 11,07609933622| 10,10892927273| 10,10892927273| 11,66580191193
Brown_Bear                | 10,03744296090| 10,03744296090| 10,03744296090| 10,03744296090| 10,03744296090| 10,03744296090| 10,03744296090| 10,03744296090| 10,03744296090| 10,03744296090| 10,03744296090| 10,61927791232| 10,11108394658| 10,11108394658| 10,11108394658| 10,40099389883| 10,11108394658| 10,61927791232| 10,03744296090| 10,03744296090| 10,03744296090| 10,03744296090| 10,10892927273|  0,00000000000|  7,20568227342|  9,41543008298| 10,03744296090| 11,07609933622| 10,03744296090| 10,03744296090| 11,66580191193
Polar_Bear                | 10,03744296090| 10,03744296090| 10,03744296090| 10,03744296090| 10,03744296090| 10,03744296090| 10,03744296090| 10,03744296090| 10,03744296090| 10,03744296090| 10,03744296090| 10,61927791232| 10,11108394658| 10,11108394658| 10,11108394658| 10,40099389883| 10,11108394658| 10,61927791232| 10,03744296090| 10,03744296090| 10,03744296090| 10,03744296090| 10,10892927273|  7,20568227342|  0,00000000000|  9,41543008298| 10,03744296090| 11,07609933622| 10,03744296090| 10,03744296090| 11,66580191193
Giant_Panda               | 10,03744296090| 10,03744296090| 10,03744296090| 10,03744296090| 10,03744296090| 10,03744296090| 10,03744296090| 10,03744296090| 10,03744296090| 10,03744296090| 10,03744296090| 10,61927791232| 10,11108394658| 10,11108394658| 10,11108394658| 10,40099389883| 10,11108394658| 10,61927791232| 10,03744296090| 10,03744296090| 10,03744296090| 10,03744296090| 10,10892927273|  9,41543008298|  9,41543008298|  0,00000000000| 10,03744296090| 11,07609933622| 10,03744296090| 10,03744296090| 11,66580191193
Rabbit                    |  9,67205420969|  9,67205420969|  9,67205420969|  9,67205420969|  9,67205420969|  9,67205420969|  9,67205420969|  9,67205420969|  9,67205420969|  9,67205420969|  9,67205420969| 10,61927791232| 10,11108394658| 10,11108394658| 10,11108394658| 10,40099389883| 10,11108394658| 10,61927791232|  9,67205420969|  9,81505537320|  8,28293957004|  8,28293957004| 10,10892927273| 10,03744296090| 10,03744296090| 10,03744296090|  0,00000000000| 11,07609933622|  9,67205420969|  9,67205420969| 11,66580191193
Hedgehog                  | 11,07609933622| 11,07609933622| 11,07609933622| 11,07609933622| 11,07609933622| 11,07609933622| 11,07609933622| 11,07609933622| 11,07609933622| 11,07609933622| 11,07609933622| 11,07609933622| 11,07609933622| 11,07609933622| 11,07609933622| 11,07609933622| 11,07609933622| 11,07609933622| 11,07609933622| 11,07609933622| 11,07609933622| 11,07609933622| 11,07609933622| 11,07609933622| 11,07609933622| 11,07609933622| 11,07609933622|  0,00000000000| 11,07609933622| 11,07609933622| 11,66580191193
Dormouse                  |  9,21164795513|  9,21164795513|  9,21164795513|  9,21164795513|  9,21164795513|  9,49889306439|  9,21164795513|  9,21164795513|  9,21164795513|  9,21164795513|  9,10817859405| 10,61927791232| 10,11108394658| 10,11108394658| 10,11108394658| 10,40099389883| 10,11108394658| 10,61927791232|  9,10817859405|  9,81505537320|  9,67205420969|  9,67205420969| 10,10892927273| 10,03744296090| 10,03744296090| 10,03744296090|  9,67205420969| 11,07609933622|  0,00000000000|  8,92732030883| 11,66580191193
Squirrel                  |  9,21164795513|  9,21164795513|  9,21164795513|  9,21164795513|  9,21164795513|  9,49889306439|  9,21164795513|  9,21164795513|  9,21164795513|  9,21164795513|  9,10817859405| 10,61927791232| 10,11108394658| 10,11108394658| 10,11108394658| 10,40099389883| 10,11108394658| 10,61927791232|  9,10817859405|  9,81505537320|  9,67205420969|  9,67205420969| 10,10892927273| 10,03744296090| 10,03744296090| 10,03744296090|  9,67205420969| 11,07609933622|  8,92732030883|  0,00000000000| 11,66580191193
Blue_Whale                | 11,66580191193| 11,66580191193| 11,66580191193| 11,66580191193| 11,66580191193| 11,66580191193| 11,66580191193| 11,66580191193| 11,66580191193| 11,66580191193| 11,66580191193| 11,66580191193| 11,66580191193| 11,66580191193| 11,66580191193| 11,66580191193| 11,66580191193| 11,66580191193| 11,66580191193| 11,66580191193| 11,66580191193| 11,66580191193| 11,66580191193| 11,66580191193| 11,66580191193| 11,66580191193| 11,66580191193| 11,66580191193| 11,66580191193| 11,66580191193|  0,00000000000
                           |Human          |P_Chim         |Com_Chim       |Gibbon         |Baboon         |Ver_Monkey     |Macaca_Thibet  |Bor_Oran       |Sum_Oran       |Gorilla        |Cat            |Dog            |Pig            |Sheep          |Goat           |Cow            |Buffalo        |Wolf           |Tiger          |Leopard        |Indian_Rhino   |White_Rhino    |Black_Bear     |Brown_Bear     |Polar_Bear     |Giant_Panda    |Rabbit         |Hedgehog       |Dormouse       |Squirrel       |Blue_Whale     
Human                     |  0,00000000000|  7,00000000000|  8,00000000000|  6,00000000000|  4,00000000000|  6,00000000000|  5,00000000000|  4,00000000000|  2,00000000000|  8,00000000000|  7,00000000000| 14,00000000000| 12,00000000000| 13,00000000000| 14,00000000000| 12,00000000000| 14,00000000000| 14,00000000000|  7,00000000000|  8,00000000000|  9,00000000000|  9,00000000000| 10,00000000000| 11,00000000000| 11,00000000000| 10,00000000000|  8,00000000000| 14,00000000000|  7,00000000000|  7,00000000000| 15,00000000000
P_Chim                    |  7,00000000000|  0,00000000000|  3,00000000000|  3,00000000000|  7,00000000000|  9,00000000000|  4,00000000000|  5,00000000000|  7,00000000000|  3,00000000000| 10,00000000000| 17,00000000000| 15,00000000000| 16,00000000000| 17,00000000000| 15,00000000000| 17,00000000000| 17,00000000000| 10,00000000000| 11,00000000000| 12,00000000000| 12,00000000000| 13,00000000000| 14,00000000000| 14,00000000000| 13,00000000000| 11,00000000000| 17,00000000000| 10,00000000000| 10,00000000000| 18,00000000000
Com_Chim                  |  8,00000000000|  3,00000000000|  0,00000000000|  4,00000000000|  8,00000000000| 10,00000000000|  5,00000000000|  6,00000000000|  8,00000000000|  2,00000000000| 11,00000000000| 18,00000000000| 16,00000000000| 17,00000000000| 18,00000000000| 16,00000000000| 18,00000000000| 18,00000000000| 11,00000000000| 12,00000000000| 13,00000000000| 13,00000000000| 14,00000000000| 15,00000000000| 15,00000000000| 14,00000000000| 12,00000000000| 18,00000000000| 11,00000000000| 11,00000000000| 19,00000000000
Gibbon                    |  6,00000000000|  3,00000000000|  4,00000000000|  0,00000000000|  6,00000000000|  8,00000000000|  3,00000000000|  4,00000000000|  6,00000000000|  4,00000000000|  9,00000000000| 16,00000000000| 14,00000000000| 15,00000000000| 16,00000000000| 14,00000000000| 16,00000000000| 16,00000000000|  9,00000000000| 10,00000000000| 11,00000000000| 11,00000000000| 12,00000000000| 13,00000000000| 13,00000000000| 12,00000000000| 10,00000000000| 16,00000000000|  9,00000000000|  9,00000000000| 17,00000000000
Baboon                    |  4,00000000000|  7,00000000000|  8,00000000000|  6,00000000000|  0,00000000000|  4,00000000000|  5,00000000000|  4,00000000000|  4,00000000000|  8,00000000000|  5,00000000000| 12,00000000000| 10,00000000000| 11,00000000000| 12,00000000000| 10,00000000000| 12,00000000000| 12,00000000000|  5,00000000000|  6,00000000000|  7,00000000000|  7,00000000000|  8,00000000000|  9,00000000000|  9,00000000000|  8,00000000000|  6,00000000000| 12,00000000000|  5,00000000000|  5,00000000000| 13,00000000000
Ver_Monkey                |  6,00000000000|  9,00000000000| 10,00000000000|  8,00000000000|  4,00000000000|  0,00000000000|  7,00000000000|  6,00000000000|  6,00000000000| 10,00000000000|  5,00000000000| 10,00000000000|  8,00000000000|  9,00000000000| 10,00000000000|  8,00000000000| 10,00000000000| 10,00000000000|  5,00000000000|  4,00000000000|  5,00000000000|  5,00000000000|  6,00000000000|  7,00000000000|  7,00000000000|  6,00000000000|  4,00000000000| 10,00000000000|  5,00000000000|  5,00000000000| 11,00000000000
Macaca_Thibet             |  5,00000000000|  4,00000000000|  5,00000000000|  3,00000000000|  5,00000000000|  7,00000000000|  0,00000000000|  3,00000000000|  5,00000000000|  5,00000000000|  8,00000000000| 15,00000000000| 13,00000000000| 14,00000000000| 15,00000000000| 13,00000000000| 15,00000000000| 15,00000000000|  8,00000000000|  9,00000000000| 10,00000000000| 10,00000000000| 11,00000000000| 12,00000000000| 12,00000000000| 11,00000000000|  9,00000000000| 15,00000000000|  8,00000000000|  8,00000000000| 16,00000000000
Bor_Oran                  |  4,00000000000|  5,00000000000|  6,00000000000|  4,00000000000|  4,00000000000|  6,00000000000|  3,00000000000|  0,00000000000|  4,00000000000|  6,00000000000|  7,00000000000| 14,00000000000| 12,00000000000| 13,00000000000| 14,00000000000| 12,00000000000| 14,00000000000| 14,00000000000|  7,00000000000|  8,00000000000|  9,00000000000|  9,00000000000| 10,00000000000| 11,00000000000| 11,00000000000| 10,00000000000|  8,00000000000| 14,00000000000|  7,00000000000|  7,00000000000| 15,00000000000
Sum_Oran                  |  2,00000000000|  7,00000000000|  8,00000000000|  6,00000000000|  4,00000000000|  6,00000000000|  5,00000000000|  4,00000000000|  0,00000000000|  8,00000000000|  7,00000000000| 14,00000000000| 12,00000000000| 13,00000000000| 14,00000000000| 12,00000000000| 14,00000000000| 14,00000000000|  7,00000000000|  8,00000000000|  9,00000000000|  9,00000000000| 10,00000000000| 11,00000000000| 11,00000000000| 10,00000000000|  8,00000000000| 14,00000000000|  7,00000000000|  7,00000000000| 15,00000000000
Gorilla                   |  8,00000000000|  3,00000000000|  2,00000000000|  4,00000000000|  8,00000000000| 10,00000000000|  5,00000000000|  6,00000000000|  8,00000000000|  0,00000000000| 11,00000000000| 18,00000000000| 16,00000000000| 17,00000000000| 18,00000000000| 16,00000000000| 18,00000000000| 18,00000000000| 11,00000000000| 12,00000000000| 13,00000000000| 13,00000000000| 14,00000000000| 15,00000000000| 15,00000000000| 14,00000000000| 12,00000000000| 18,00000000000| 11,00000000000| 11,00000000000| 19,00000000000
Cat                       |  7,00000000000| 10,00000000000| 11,00000000000|  9,00000000000|  5,00000000000|  5,00000000000|  8,00000000000|  7,00000000000|  7,00000000000| 11,00000000000|  0,00000000000| 13,00000000000| 11,00000000000| 12,00000000000| 13,00000000000| 11,00000000000| 13,00000000000| 13,00000000000|  2,00000000000|  7,00000000000|  8,00000000000|  8,00000000000|  9,00000000000| 10,00000000000| 10,00000000000|  9,00000000000|  7,00000000000| 13,00000000000|  4,00000000000|  4,00000000000| 14,00000000000
Dog                       | 14,00000000000| 17,00000000000| 18,00000000000| 16,00000000000| 12,00000000000| 10,00000000000| 15,00000000000| 14,00000000000| 14,00000000000| 18,00000000000| 13,00000000000|  0,00000000000|  6,00000000000|  7,00000000000|  8,00000000000|  4,00000000000|  8,00000000000|  2,00000000000| 13,00000000000|  8,00000000000| 11,00000000000| 11,00000000000|  6,00000000000|  9,00000000000|  9,00000000000|  8,00000000000| 10,00000000000|  4,00000000000| 13,00000000000| 13,00000000000|  5,00000000000
Pig                       | 12,00000000000| 15,00000000000| 16,00000000000| 14,00000000000| 10,00000000000|  8,00000000000| 13,00000000000| 12,00000000000| 12,00000000000| 16,00000000000| 11,00000000000|  6,00000000000|  0,00000000000|  3,00000000000|  4,00000000000|  4,00000000000|  4,00000000000|  6,00000000000| 11,00000000000|  6,00000000000|  9,00000000000|  9,00000000000|  4,00000000000|  7,00000000000|  7,00000000000|  6,00000000000|  8,00000000000|  6,00000000000| 11,00000000000| 11,00000000000|  7,00000000000
Sheep                     | 13,00000000000| 16,00000000000| 17,00000000000| 15,00000000000| 11,00000000000|  9,00000000000| 14,00000000000| 13,00000000000| 13,00000000000| 17,00000000000| 12,00000000000|  7,00000000000|  3,00000000000|  0,00000000000|  3,00000000000|  5,00000000000|  3,00000000000|  7,00000000000| 12,00000000000|  7,00000000000| 10,00000000000| 10,00000000000|  5,00000000000|  8,00000000000|  8,00000000000|  7,00000000000|  9,00000000000|  7,00000000000| 12,00000000000| 12,00000000000|  8,00000000000
Goat                      | 14,00000000000| 17,00000000000| 18,00000000000| 16,00000000000| 12,00000000000| 10,00000000000| 15,00000000000| 14,00000000000| 14,00000000000| 18,00000000000| 13,00000000000|  8,00000000000|  4,00000000000|  3,00000000000|  0,00000000000|  6,00000000000|  2,00000000000|  8,00000000000| 13,00000000000|  8,00000000000| 11,00000000000| 11,00000000000|  6,00000000000|  9,00000000000|  9,00000000000|  8,00000000000| 10,00000000000|  8,00000000000| 13,00000000000| 13,00000000000|  9,00000000000
Cow                       | 12,00000000000| 15,00000000000| 16,00000000000| 14,00000000000| 10,00000000000|  8,00000000000| 13,00000000000| 12,00000000000| 12,00000000000| 16,00000000000| 11,00000000000|  4,00000000000|  4,00000000000|  5,00000000000|  6,00000000000|  0,00000000000|  6,00000000000|  4,00000000000| 11,00000000000|  6,00000000000|  9,00000000000|  9,00000000000|  4,00000000000|  7,00000000000|  7,00000000000|  6,00000000000|  8,00000000000|  4,00000000000| 11,00000000000| 11,00000000000|  5,00000000000
Buffalo                   | 14,00000000000| 17,00000000000| 18,00000000000| 16,00000000000| 12,00000000000| 10,00000000000| 15,00000000000| 14,00000000000| 14,00000000000| 18,00000000000| 13,00000000000|  8,00000000000|  4,00000000000|  3,00000000000|  2,00000000000|  6,00000000000|  0,00000000000|  8,00000000000| 13,00000000000|  8,00000000000| 11,00000000000| 11,00000000000|  6,00000000000|  9,00000000000|  9,00000000000|  8,00000000000| 10,00000000000|  8,00000000000| 13,00000000000| 13,00000000000|  9,00000000000
Wolf                      | 14,00000000000| 17,00000000000| 18,00000000000| 16,00000000000| 12,00000000000| 10,00000000000| 15,00000000000| 14,00000000000| 14,00000000000| 18,00000000000| 13,00000000000|  2,00000000000|  6,00000000000|  7,00000000000|  8,00000000000|  4,00000000000|  8,00000000000|  0,00000000000| 13,00000000000|  8,00000000000| 11,00000000000| 11,00000000000|  6,00000000000|  9,00000000000|  9,00000000000|  8,00000000000| 10,00000000000|  4,00000000000| 13,00000000000| 13,00000000000|  5,00000000000
Tiger                     |  7,00000000000| 10,00000000000| 11,00000000000|  9,00000000000|  5,00000000000|  5,00000000000|  8,00000000000|  7,00000000000|  7,00000000000| 11,00000000000|  2,00000000000| 13,00000000000| 11,00000000000| 12,00000000000| 13,00000000000| 11,00000000000| 13,00000000000| 13,00000000000|  0,00000000000|  7,00000000000|  8,00000000000|  8,00000000000|  9,00000000000| 10,00000000000| 10,00000000000|  9,00000000000|  7,00000000000| 13,00000000000|  4,00000000000|  4,00000000000| 14,00000000000
Leopard                   |  8,00000000000| 11,00000000000| 12,00000000000| 10,00000000000|  6,00000000000|  4,00000000000|  9,00000000000|  8,00000000000|  8,00000000000| 12,00000000000|  7,00000000000|  8,00000000000|  6,00000000000|  7,00000000000|  8,00000000000|  6,00000000000|  8,00000000000|  8,00000000000|  7,00000000000|  0,00000000000|  5,00000000000|  5,00000000000|  4,00000000000|  5,00000000000|  5,00000000000|  4,00000000000|  4,00000000000|  8,00000000000|  7,00000000000|  7,00000000000|  9,00000000000
Indian_Rhino              |  9,00000000000| 12,00000000000| 13,00000000000| 11,00000000000|  7,00000000000|  5,00000000000| 10,00000000000|  9,00000000000|  9,00000000000| 13,00000000000|  8,00000000000| 11,00000000000|  9,00000000000| 10,00000000000| 11,00000000000|  9,00000000000| 11,00000000000| 11,00000000000|  8,00000000000|  5,00000000000|  0,00000000000|  2,00000000000|  7,00000000000|  8,00000000000|  8,00000000000|  7,00000000000|  3,00000000000| 11,00000000000|  8,00000000000|  8,00000000000| 12,00000000000
White_Rhino               |  9,00000000000| 12,00000000000| 13,00000000000| 11,00000000000|  7,00000000000|  5,00000000000| 10,00000000000|  9,00000000000|  9,00000000000| 13,00000000000|  8,00000000000| 11,00000000000|  9,00000000000| 10,00000000000| 11,00000000000|  9,00000000000| 11,00000000000| 11,00000000000|  8,00000000000|  5,00000000000|  2,00000000000|  0,00000000000|  7,00000000000|  8,00000000000|  8,00000000000|  7,00000000000|  3,00000000000| 11,00000000000|  8,00000000000|  8,00000000000| 12,00000000000
Black_Bear                | 10,00000000000| 13,00000000000| 14,00000000000| 12,00000000000|  8,00000000000|  6,00000000000| 11,00000000000| 10,00000000000| 10,00000000000| 14,00000000000|  9,00000000000|  6,00000000000|  4,00000000000|  5,00000000000|  6,00000000000|  4,00000000000|  6,00000000000|  6,00000000000|  9,00000000000|  4,00000000000|  7,00000000000|  7,00000000000|  0,00000000000|  5,00000000000|  5,00000000000|  4,00000000000|  6,00000000000|  6,00000000000|  9,00000000000|  9,00000000000|  7,00000000000
Brown_Bear                | 11,00000000000| 14,00000000000| 15,00000000000| 13,00000000000|  9,00000000000|  7,00000000000| 12,00000000000| 11,00000000000| 11,00000000000| 15,00000000000| 10,00000000000|  9,00000000000|  7,00000000000|  8,00000000000|  9,00000000000|  7,00000000000|  9,00000000000|  9,00000000000| 10,00000000000|  5,00000000000|  8,00000000000|  8,00000000000|  5,00000000000|  0,00000000000|  2,00000000000|  3,00000000000|  7,00000000000|  9,00000000000| 10,00000000000| 10,00000000000| 10,00000000000
Polar_Bear                | 11,00000000000| 14,00000000000| 15,00000000000| 13,00000000000|  9,00000000000|  7,00000000000| 12,00000000000| 11,00000000000| 11,00000000000| 15,00000000000| 10,00000000000|  9,00000000000|  7,00000000000|  8,00000000000|  9,00000000000|  7,00000000000|  9,00000000000|  9,00000000000| 10,00000000000|  5,00000000000|  8,00000000000|  8,00000000000|  5,00000000000|  2,00000000000|  0,00000000000|  3,00000000000|  7,00000000000|  9,00000000000| 10,00000000000| 10,00000000000| 10,00000000000
Giant_Panda               | 10,00000000000| 13,00000000000| 14,00000000000| 12,00000000000|  8,00000000000|  6,00000000000| 11,00000000000| 10,00000000000| 10,00000000000| 14,00000000000|  9,00000000000|  8,00000000000|  6,00000000000|  7,00000000000|  8,00000000000|  6,00000000000|  8,00000000000|  8,00000000000|  9,00000000000|  4,00000000000|  7,00000000000|  7,00000000000|  4,00000000000|  3,00000000000|  3,00000000000|  0,00000000000|  6,00000000000|  8,00000000000|  9,00000000000|  9,00000000000|  9,00000000000
Rabbit                    |  8,00000000000| 11,00000000000| 12,00000000000| 10,00000000000|  6,00000000000|  4,00000000000|  9,00000000000|  8,00000000000|  8,00000000000| 12,00000000000|  7,00000000000| 10,00000000000|  8,00000000000|  9,00000000000| 10,00000000000|  8,00000000000| 10,00000000000| 10,00000000000|  7,00000000000|  4,00000000000|  3,00000000000|  3,00000000000|  6,00000000000|  7,00000000000|  7,00000000000|  6,00000000000|  0,00000000000| 10,00000000000|  7,00000000000|  7,00000000000| 11,00000000000
Hedgehog                  | 14,00000000000| 17,00000000000| 18,00000000000| 16,00000000000| 12,00000000000| 10,00000000000| 15,00000000000| 14,00000000000| 14,00000000000| 18,00000000000| 13,00000000000|  4,00000000000|  6,00000000000|  7,00000000000|  8,00000000000|  4,00000000000|  8,00000000000|  4,00000000000| 13,00000000000|  8,00000000000| 11,00000000000| 11,00000000000|  6,00000000000|  9,00000000000|  9,00000000000|  8,00000000000| 10,00000000000|  0,00000000000| 13,00000000000| 13,00000000000|  3,00000000000
Dormouse                  |  7,00000000000| 10,00000000000| 11,00000000000|  9,00000000000|  5,00000000000|  5,00000000000|  8,00000000000|  7,00000000000|  7,00000000000| 11,00000000000|  4,00000000000| 13,00000000000| 11,00000000000| 12,00000000000| 13,00000000000| 11,00000000000| 13,00000000000| 13,00000000000|  4,00000000000|  7,00000000000|  8,00000000000|  8,00000000000|  9,00000000000| 10,00000000000| 10,00000000000|  9,00000000000|  7,00000000000| 13,00000000000|  0,00000000000|  2,00000000000| 14,00000000000
Squirrel                  |  7,00000000000| 10,00000000000| 11,00000000000|  9,00000000000|  5,00000000000|  5,00000000000|  8,00000000000|  7,00000000000|  7,00000000000| 11,00000000000|  4,00000000000| 13,00000000000| 11,00000000000| 12,00000000000| 13,00000000000| 11,00000000000| 13,00000000000| 13,00000000000|  4,00000000000|  7,00000000000|  8,00000000000|  8,00000000000|  9,00000000000| 10,00000000000| 10,00000000000|  9,00000000000|  7,00000000000| 13,00000000000|  2,00000000000|  0,00000000000| 14,00000000000
Blue_Whale                | 15,00000000000| 18,00000000000| 19,00000000000| 17,00000000000| 13,00000000000| 11,00000000000| 16,00000000000| 15,00000000000| 15,00000000000| 19,00000000000| 14,00000000000|  5,00000000000|  7,00000000000|  8,00000000000|  9,00000000000|  5,00000000000|  9,00000000000|  5,00000000000| 14,00000000000|  9,00000000000| 12,00000000000| 12,00000000000|  7,00000000000| 10,00000000000| 10,00000000000|  9,00000000000| 11,00000000000|  3,00000000000| 14,00000000000| 14,00000000000|  0,00000000000
