                           |Human          |P_Chim         |Com_Chim       |Gibbon         |Baboon         |Ver_Monkey     |Macaca_Thibet  |Bor_Oran       |Sum_Oran       |Gorilla        |Cat            |Dog            |Pig            |Sheep          |Goat           |Cow            |Buffalo        |Wolf           |Tiger          |Leopard        |Indian_Rhino   |White_Rhino    |Black_Bear     |Brown_Bear     |Polar_Bear     |Giant_Panda    |Rabbit         |Hedgehog       |Dormouse       |Squirrel       |Blue_Whale     
Human                     |  0,00000000000|11552,43537104657|11552,43537104657|14355,69404364024|15180,75630098932|15180,75630098932|15180,75630098932|13956,12960048922|13956,12960048922|11552,43537104657|18547,09879262148|18547,09879262148|18547,09879262148|18547,09879262148|18547,09879262148|18547,09879262148|18547,09879262148|18547,09879262148|18547,09879262148|18547,09879262148|18547,09879262148|18547,09879262148|18547,09879262148|18547,09879262148|18547,09879262148|18547,09879262148|18547,09879262148|18547,09879262148|18547,09879262148|18547,09879262148|18547,09879262148
P_Chim                    |11552,43537104657|  0,00000000000|7844,67799315401|14355,69404364024|15180,75630098932|15180,75630098932|15180,75630098932|13956,12960048922|13956,12960048922|10573,95380500587|18547,09879262148|18547,09879262148|18547,09879262148|18547,09879262148|18547,09879262148|18547,09879262148|18547,09879262148|18547,09879262148|18547,09879262148|18547,09879262148|18547,09879262148|18547,09879262148|18547,09879262148|18547,09879262148|18547,09879262148|18547,09879262148|18547,09879262148|18547,09879262148|18547,09879262148|18547,09879262148|18547,09879262148
Com_Chim                  |11552,43537104657|7844,67799315401|  0,00000000000|14355,69404364024|15180,75630098932|15180,75630098932|15180,75630098932|13956,12960048922|13956,12960048922|10573,95380500587|18547,09879262148|18547,09879262148|18547,09879262148|18547,09879262148|18547,09879262148|18547,09879262148|18547,09879262148|18547,09879262148|18547,09879262148|18547,09879262148|18547,09879262148|18547,09879262148|18547,09879262148|18547,09879262148|18547,09879262148|18547,09879262148|18547,09879262148|18547,09879262148|18547,09879262148|18547,09879262148|18547,09879262148
Gibbon                    |14355,69404364024|14355,69404364024|14355,69404364024|  0,00000000000|15180,75630098932|15180,75630098932|15180,75630098932|14355,69404364024|14355,69404364024|14355,69404364024|18547,09879262148|18547,09879262148|18547,09879262148|18547,09879262148|18547,09879262148|18547,09879262148|18547,09879262148|18547,09879262148|18547,09879262148|18547,09879262148|18547,09879262148|18547,09879262148|18547,09879262148|18547,09879262148|18547,09879262148|18547,09879262148|18547,09879262148|18547,09879262148|18547,09879262148|18547,09879262148|18547,09879262148
Baboon                    |15180,75630098932|15180,75630098932|15180,75630098932|15180,75630098932|  0,00000000000|14586,17782881251|14067,72783078150|15180,75630098932|15180,75630098932|15180,75630098932|18547,09879262148|18547,09879262148|18547,09879262148|18547,09879262148|18547,09879262148|18547,09879262148|18547,09879262148|18547,09879262148|18547,09879262148|18547,09879262148|18547,09879262148|18547,09879262148|18547,09879262148|18547,09879262148|18547,09879262148|18547,09879262148|18547,09879262148|18547,09879262148|18547,09879262148|18547,09879262148|18547,09879262148
Ver_Monkey                |15180,75630098932|15180,75630098932|15180,75630098932|15180,75630098932|14586,17782881251|  0,00000000000|14586,17782881251|15180,75630098932|15180,75630098932|15180,75630098932|18547,09879262148|18547,09879262148|18547,09879262148|18547,09879262148|18547,09879262148|18547,09879262148|18547,09879262148|18547,09879262148|18547,09879262148|18547,09879262148|18547,09879262148|18547,09879262148|18547,09879262148|18547,09879262148|18547,09879262148|18547,09879262148|18547,09879262148|18547,09879262148|18547,09879262148|18547,09879262148|18547,09879262148
Macaca_Thibet             |15180,75630098932|15180,75630098932|15180,75630098932|15180,75630098932|14067,72783078150|14586,17782881251|  0,00000000000|15180,75630098932|15180,75630098932|15180,75630098932|18547,09879262148|18547,09879262148|18547,09879262148|18547,09879262148|18547,09879262148|18547,09879262148|18547,09879262148|18547,09879262148|18547,09879262148|18547,09879262148|18547,09879262148|18547,09879262148|18547,09879262148|18547,09879262148|18547,09879262148|18547,09879262148|18547,09879262148|18547,09879262148|18547,09879262148|18547,09879262148|18547,09879262148
Bor_Oran                  |13956,12960048922|13956,12960048922|13956,12960048922|14355,69404364024|15180,75630098932|15180,75630098932|15180,75630098932|  0,00000000000|10680,46217295417|13956,12960048922|18547,09879262148|18547,09879262148|18547,09879262148|18547,09879262148|18547,09879262148|18547,09879262148|18547,09879262148|18547,09879262148|18547,09879262148|18547,09879262148|18547,09879262148|18547,09879262148|18547,09879262148|18547,09879262148|18547,09879262148|18547,09879262148|18547,09879262148|18547,09879262148|18547,09879262148|18547,09879262148|18547,09879262148
Sum_Oran                  |13956,12960048922|13956,12960048922|13956,12960048922|14355,69404364024|15180,75630098932|15180,75630098932|15180,75630098932|10680,46217295417|  0,00000000000|13956,12960048922|18547,09879262148|18547,09879262148|18547,09879262148|18547,09879262148|18547,09879262148|18547,09879262148|18547,09879262148|18547,09879262148|18547,09879262148|18547,09879262148|18547,09879262148|18547,09879262148|18547,09879262148|18547,09879262148|18547,09879262148|18547,09879262148|18547,09879262148|18547,09879262148|18547,09879262148|18547,09879262148|18547,09879262148
Gorilla                   |11552,43537104657|10573,95380500587|10573,95380500587|14355,69404364024|15180,75630098932|15180,75630098932|15180,75630098932|13956,12960048922|13956,12960048922|  0,00000000000|18547,09879262148|18547,09879262148|18547,09879262148|18547,09879262148|18547,09879262148|18547,09879262148|18547,09879262148|18547,09879262148|18547,09879262148|18547,09879262148|18547,09879262148|18547,09879262148|18547,09879262148|18547,09879262148|18547,09879262148|18547,09879262148|18547,09879262148|18547,09879262148|18547,09879262148|18547,09879262148|18547,09879262148
Cat                       |18547,09879262148|18547,09879262148|18547,09879262148|18547,09879262148|18547,09879262148|18547,09879262148|18547,09879262148|18547,09879262148|18547,09879262148|18547,09879262148|  0,00000000000|16708,48366925025|16708,48366925025|16708,48366925025|16708,48366925025|16708,48366925025|16708,48366925025|16708,48366925025|13274,15499684564|13274,15499684564|16708,48366925025|16708,48366925025|16708,48366925025|17439,33064337467|17439,33064337467|16987,53555436484|16708,48366925025|17142,82491175058|16708,48366925025|16708,48366925025|16708,48366925025
Dog                       |18547,09879262148|18547,09879262148|18547,09879262148|18547,09879262148|18547,09879262148|18547,09879262148|18547,09879262148|18547,09879262148|18547,09879262148|18547,09879262148|16708,48366925025|  0,00000000000|15811,26805503176|15811,26805503176|15811,26805503176|15811,26805503176|15811,26805503176|7258,91212817194|16708,48366925025|16708,48366925025|15873,83200337473|15873,83200337473|16451,55140316568|17439,33064337467|17439,33064337467|16987,53555436484|16401,10909030174|17142,82491175058|16671,95763669436|16363,44052040158|15811,26805503176
Pig                       |18547,09879262148|18547,09879262148|18547,09879262148|18547,09879262148|18547,09879262148|18547,09879262148|18547,09879262148|18547,09879262148|18547,09879262148|18547,09879262148|16708,48366925025|15811,26805503176|  0,00000000000|14708,07456302108|14708,07456302108|14708,07456302108|14708,07456302108|15811,26805503176|16708,48366925025|16708,48366925025|15873,83200337473|15873,83200337473|16451,55140316568|17439,33064337467|17439,33064337467|16987,53555436484|16401,10909030174|17142,82491175058|16671,95763669436|16363,44052040158|15073,54696498129
Sheep                     |18547,09879262148|18547,09879262148|18547,09879262148|18547,09879262148|18547,09879262148|18547,09879262148|18547,09879262148|18547,09879262148|18547,09879262148|18547,09879262148|16708,48366925025|15811,26805503176|14708,07456302108|  0,00000000000|11703,30402391622|13914,04697319765|13356,15143526652|15811,26805503176|16708,48366925025|16708,48366925025|15873,83200337473|15873,83200337473|16451,55140316568|17439,33064337467|17439,33064337467|16987,53555436484|16401,10909030174|17142,82491175058|16671,95763669436|16363,44052040158|15073,54696498129
Goat                      |18547,09879262148|18547,09879262148|18547,09879262148|18547,09879262148|18547,09879262148|18547,09879262148|18547,09879262148|18547,09879262148|18547,09879262148|18547,09879262148|16708,48366925025|15811,26805503176|14708,07456302108|11703,30402391622|  0,00000000000|13914,04697319765|13356,15143526652|15811,26805503176|16708,48366925025|16708,48366925025|15873,83200337473|15873,83200337473|16451,55140316568|17439,33064337467|17439,33064337467|16987,53555436484|16401,10909030174|17142,82491175058|16671,95763669436|16363,44052040158|15073,54696498129
Cow                       |18547,09879262148|18547,09879262148|18547,09879262148|18547,09879262148|18547,09879262148|18547,09879262148|18547,09879262148|18547,09879262148|18547,09879262148|18547,09879262148|16708,48366925025|15811,26805503176|14708,07456302108|13914,04697319765|13914,04697319765|  0,00000000000|13914,04697319765|15811,26805503176|16708,48366925025|16708,48366925025|15873,83200337473|15873,83200337473|16451,55140316568|17439,33064337467|17439,33064337467|16987,53555436484|16401,10909030174|17142,82491175058|16671,95763669436|16363,44052040158|15073,54696498129
Buffalo                   |18547,09879262148|18547,09879262148|18547,09879262148|18547,09879262148|18547,09879262148|18547,09879262148|18547,09879262148|18547,09879262148|18547,09879262148|18547,09879262148|16708,48366925025|15811,26805503176|14708,07456302108|13356,15143526652|13356,15143526652|13914,04697319765|  0,00000000000|15811,26805503176|16708,48366925025|16708,48366925025|15873,83200337473|15873,83200337473|16451,55140316568|17439,33064337467|17439,33064337467|16987,53555436484|16401,10909030174|17142,82491175058|16671,95763669436|16363,44052040158|15073,54696498129
Wolf                      |18547,09879262148|18547,09879262148|18547,09879262148|18547,09879262148|18547,09879262148|18547,09879262148|18547,09879262148|18547,09879262148|18547,09879262148|18547,09879262148|16708,48366925025|7258,91212817194|15811,26805503176|15811,26805503176|15811,26805503176|15811,26805503176|15811,26805503176|  0,00000000000|16708,48366925025|16708,48366925025|15873,83200337473|15873,83200337473|16451,55140316568|17439,33064337467|17439,33064337467|16987,53555436484|16401,10909030174|17142,82491175058|16671,95763669436|16363,44052040158|15811,26805503176
Tiger                     |18547,09879262148|18547,09879262148|18547,09879262148|18547,09879262148|18547,09879262148|18547,09879262148|18547,09879262148|18547,09879262148|18547,09879262148|18547,09879262148|13274,15499684564|16708,48366925025|16708,48366925025|16708,48366925025|16708,48366925025|16708,48366925025|16708,48366925025|16708,48366925025|  0,00000000000|12486,55012478081|16708,48366925025|16708,48366925025|16708,48366925025|17439,33064337467|17439,33064337467|16987,53555436484|16708,48366925025|17142,82491175058|16708,48366925025|16708,48366925025|16708,48366925025
Leopard                   |18547,09879262148|18547,09879262148|18547,09879262148|18547,09879262148|18547,09879262148|18547,09879262148|18547,09879262148|18547,09879262148|18547,09879262148|18547,09879262148|13274,15499684564|16708,48366925025|16708,48366925025|16708,48366925025|16708,48366925025|16708,48366925025|16708,48366925025|16708,48366925025|12486,55012478081|  0,00000000000|16708,48366925025|16708,48366925025|16708,48366925025|17439,33064337467|17439,33064337467|16987,53555436484|16708,48366925025|17142,82491175058|16708,48366925025|16708,48366925025|16708,48366925025
Indian_Rhino              |18547,09879262148|18547,09879262148|18547,09879262148|18547,09879262148|18547,09879262148|18547,09879262148|18547,09879262148|18547,09879262148|18547,09879262148|18547,09879262148|16708,48366925025|15873,83200337473|15873,83200337473|15873,83200337473|15873,83200337473|15873,83200337473|15873,83200337473|15873,83200337473|16708,48366925025|16708,48366925025|  0,00000000000|11788,77126827144|16451,55140316568|17439,33064337467|17439,33064337467|16987,53555436484|16401,10909030174|17142,82491175058|16671,95763669436|16363,44052040158|15873,83200337473
White_Rhino               |18547,09879262148|18547,09879262148|18547,09879262148|18547,09879262148|18547,09879262148|18547,09879262148|18547,09879262148|18547,09879262148|18547,09879262148|18547,09879262148|16708,48366925025|15873,83200337473|15873,83200337473|15873,83200337473|15873,83200337473|15873,83200337473|15873,83200337473|15873,83200337473|16708,48366925025|16708,48366925025|11788,77126827144|  0,00000000000|16451,55140316568|17439,33064337467|17439,33064337467|16987,53555436484|16401,10909030174|17142,82491175058|16671,95763669436|16363,44052040158|15873,83200337473
Black_Bear                |18547,09879262148|18547,09879262148|18547,09879262148|18547,09879262148|18547,09879262148|18547,09879262148|18547,09879262148|18547,09879262148|18547,09879262148|18547,09879262148|16708,48366925025|16451,55140316568|16451,55140316568|16451,55140316568|16451,55140316568|16451,55140316568|16451,55140316568|16451,55140316568|16708,48366925025|16708,48366925025|16451,55140316568|16451,55140316568|  0,00000000000|17439,33064337467|17439,33064337467|16987,53555436484|16451,55140316568|17142,82491175058|16671,95763669436|16451,55140316568|16451,55140316568
Brown_Bear                |18547,09879262148|18547,09879262148|18547,09879262148|18547,09879262148|18547,09879262148|18547,09879262148|18547,09879262148|18547,09879262148|18547,09879262148|18547,09879262148|17439,33064337467|17439,33064337467|17439,33064337467|17439,33064337467|17439,33064337467|17439,33064337467|17439,33064337467|17439,33064337467|17439,33064337467|17439,33064337467|17439,33064337467|17439,33064337467|17439,33064337467|  0,00000000000|7172,14350107058|17439,33064337467|17439,33064337467|17439,33064337467|17439,33064337467|17439,33064337467|17439,33064337467
Polar_Bear                |18547,09879262148|18547,09879262148|18547,09879262148|18547,09879262148|18547,09879262148|18547,09879262148|18547,09879262148|18547,09879262148|18547,09879262148|18547,09879262148|17439,33064337467|17439,33064337467|17439,33064337467|17439,33064337467|17439,33064337467|17439,33064337467|17439,33064337467|17439,33064337467|17439,33064337467|17439,33064337467|17439,33064337467|17439,33064337467|17439,33064337467|7172,14350107058|  0,00000000000|17439,33064337467|17439,33064337467|17439,33064337467|17439,33064337467|17439,33064337467|17439,33064337467
Giant_Panda               |18547,09879262148|18547,09879262148|18547,09879262148|18547,09879262148|18547,09879262148|18547,09879262148|18547,09879262148|18547,09879262148|18547,09879262148|18547,09879262148|16987,53555436484|16987,53555436484|16987,53555436484|16987,53555436484|16987,53555436484|16987,53555436484|16987,53555436484|16987,53555436484|16987,53555436484|16987,53555436484|16987,53555436484|16987,53555436484|16987,53555436484|17439,33064337467|17439,33064337467|  0,00000000000|16987,53555436484|17142,82491175058|16987,53555436484|16987,53555436484|16987,53555436484
Rabbit                    |18547,09879262148|18547,09879262148|18547,09879262148|18547,09879262148|18547,09879262148|18547,09879262148|18547,09879262148|18547,09879262148|18547,09879262148|18547,09879262148|16708,48366925025|16401,10909030174|16401,10909030174|16401,10909030174|16401,10909030174|16401,10909030174|16401,10909030174|16401,10909030174|16708,48366925025|16708,48366925025|16401,10909030174|16401,10909030174|16451,55140316568|17439,33064337467|17439,33064337467|16987,53555436484|  0,00000000000|17142,82491175058|16671,95763669436|16401,10909030174|16401,10909030174
Hedgehog                  |18547,09879262148|18547,09879262148|18547,09879262148|18547,09879262148|18547,09879262148|18547,09879262148|18547,09879262148|18547,09879262148|18547,09879262148|18547,09879262148|17142,82491175058|17142,82491175058|17142,82491175058|17142,82491175058|17142,82491175058|17142,82491175058|17142,82491175058|17142,82491175058|17142,82491175058|17142,82491175058|17142,82491175058|17142,82491175058|17142,82491175058|17439,33064337467|17439,33064337467|17142,82491175058|17142,82491175058|  0,00000000000|17142,82491175058|17142,82491175058|17142,82491175058
Dormouse                  |18547,09879262148|18547,09879262148|18547,09879262148|18547,09879262148|18547,09879262148|18547,09879262148|18547,09879262148|18547,09879262148|18547,09879262148|18547,09879262148|16708,48366925025|16671,95763669436|16671,95763669436|16671,95763669436|16671,95763669436|16671,95763669436|16671,95763669436|16671,95763669436|16708,48366925025|16708,48366925025|16671,95763669436|16671,95763669436|16671,95763669436|17439,33064337467|17439,33064337467|16987,53555436484|16671,95763669436|17142,82491175058|  0,00000000000|16671,95763669436|16671,95763669436
Squirrel                  |18547,09879262148|18547,09879262148|18547,09879262148|18547,09879262148|18547,09879262148|18547,09879262148|18547,09879262148|18547,09879262148|18547,09879262148|18547,09879262148|16708,48366925025|16363,44052040158|16363,44052040158|16363,44052040158|16363,44052040158|16363,44052040158|16363,44052040158|16363,44052040158|16708,48366925025|16708,48366925025|16363,44052040158|16363,44052040158|16451,55140316568|17439,33064337467|17439,33064337467|16987,53555436484|16401,10909030174|17142,82491175058|16671,95763669436|  0,00000000000|16363,44052040158
Blue_Whale                |18547,09879262148|18547,09879262148|18547,09879262148|18547,09879262148|18547,09879262148|18547,09879262148|18547,09879262148|18547,09879262148|18547,09879262148|18547,09879262148|16708,48366925025|15811,26805503176|15073,54696498129|15073,54696498129|15073,54696498129|15073,54696498129|15073,54696498129|15811,26805503176|16708,48366925025|16708,48366925025|15873,83200337473|15873,83200337473|16451,55140316568|17439,33064337467|17439,33064337467|16987,53555436484|16401,10909030174|17142,82491175058|16671,95763669436|16363,44052040158|  0,00000000000
                           |Human          |P_Chim         |Com_Chim       |Gibbon         |Baboon         |Ver_Monkey     |Macaca_Thibet  |Bor_Oran       |Sum_Oran       |Gorilla        |Cat            |Dog            |Pig            |Sheep          |Goat           |Cow            |Buffalo        |Wolf           |Tiger          |Leopard        |Indian_Rhino   |White_Rhino    |Black_Bear     |Brown_Bear     |Polar_Bear     |Giant_Panda    |Rabbit         |Hedgehog       |Dormouse       |Squirrel       |Blue_Whale     
Human                     |  0,00000000000|  6,82767243133|  6,82767243133|  8,41782114537|  8,88583777913|  8,88583777913|  8,88583777913|  8,19116818192|  8,19116818192|  6,82767243133| 10,79539583612| 10,79539583612| 10,79539583612| 10,79539583612| 10,79539583612| 10,79539583612| 10,79539583612| 10,79539583612| 10,79539583612| 10,79539583612| 10,79539583612| 10,79539583612| 10,79539583612| 10,79539583612| 10,79539583612| 10,79539583612| 10,79539583612| 10,79539583612| 10,79539583612| 10,79539583612| 10,79539583612
P_Chim                    |  6,82767243133|  0,00000000000|  4,72444675186|  8,41782114537|  8,88583777913|  8,88583777913|  8,88583777913|  8,19116818192|  8,19116818192|  6,27262868201| 10,79539583612| 10,79539583612| 10,79539583612| 10,79539583612| 10,79539583612| 10,79539583612| 10,79539583612| 10,79539583612| 10,79539583612| 10,79539583612| 10,79539583612| 10,79539583612| 10,79539583612| 10,79539583612| 10,79539583612| 10,79539583612| 10,79539583612| 10,79539583612| 10,79539583612| 10,79539583612| 10,79539583612
Com_Chim                  |  6,82767243133|  4,72444675186|  0,00000000000|  8,41782114537|  8,88583777913|  8,88583777913|  8,88583777913|  8,19116818192|  8,19116818192|  6,27262868201| 10,79539583612| 10,79539583612| 10,79539583612| 10,79539583612| 10,79539583612| 10,79539583612| 10,79539583612| 10,79539583612| 10,79539583612| 10,79539583612| 10,79539583612| 10,79539583612| 10,79539583612| 10,79539583612| 10,79539583612| 10,79539583612| 10,79539583612| 10,79539583612| 10,79539583612| 10,79539583612| 10,79539583612
Gibbon                    |  8,41782114537|  8,41782114537|  8,41782114537|  0,00000000000|  8,88583777913|  8,88583777913|  8,88583777913|  8,41782114537|  8,41782114537|  8,41782114537| 10,79539583612| 10,79539583612| 10,79539583612| 10,79539583612| 10,79539583612| 10,79539583612| 10,79539583612| 10,79539583612| 10,79539583612| 10,79539583612| 10,79539583612| 10,79539583612| 10,79539583612| 10,79539583612| 10,79539583612| 10,79539583612| 10,79539583612| 10,79539583612| 10,79539583612| 10,79539583612| 10,79539583612
Baboon                    |  8,88583777913|  8,88583777913|  8,88583777913|  8,88583777913|  0,00000000000|  8,54856309158|  8,25447228729|  8,88583777913|  8,88583777913|  8,88583777913| 10,79539583612| 10,79539583612| 10,79539583612| 10,79539583612| 10,79539583612| 10,79539583612| 10,79539583612| 10,79539583612| 10,79539583612| 10,79539583612| 10,79539583612| 10,79539583612| 10,79539583612| 10,79539583612| 10,79539583612| 10,79539583612| 10,79539583612| 10,79539583612| 10,79539583612| 10,79539583612| 10,79539583612
Ver_Monkey                |  8,88583777913|  8,88583777913|  8,88583777913|  8,88583777913|  8,54856309158|  0,00000000000|  8,54856309158|  8,88583777913|  8,88583777913|  8,88583777913| 10,79539583612| 10,79539583612| 10,79539583612| 10,79539583612| 10,79539583612| 10,79539583612| 10,79539583612| 10,79539583612| 10,79539583612| 10,79539583612| 10,79539583612| 10,79539583612| 10,79539583612| 10,79539583612| 10,79539583612| 10,79539583612| 10,79539583612| 10,79539583612| 10,79539583612| 10,79539583612| 10,79539583612
Macaca_Thibet             |  8,88583777913|  8,88583777913|  8,88583777913|  8,88583777913|  8,25447228729|  8,54856309158|  0,00000000000|  8,88583777913|  8,88583777913|  8,88583777913| 10,79539583612| 10,79539583612| 10,79539583612| 10,79539583612| 10,79539583612| 10,79539583612| 10,79539583612| 10,79539583612| 10,79539583612| 10,79539583612| 10,79539583612| 10,79539583612| 10,79539583612| 10,79539583612| 10,79539583612| 10,79539583612| 10,79539583612| 10,79539583612| 10,79539583612| 10,79539583612| 10,79539583612
Bor_Oran                  |  8,19116818192|  8,19116818192|  8,19116818192|  8,41782114537|  8,88583777913|  8,88583777913|  8,88583777913|  0,00000000000|  6,33304556255|  8,19116818192| 10,79539583612| 10,79539583612| 10,79539583612| 10,79539583612| 10,79539583612| 10,79539583612| 10,79539583612| 10,79539583612| 10,79539583612| 10,79539583612| 10,79539583612| 10,79539583612| 10,79539583612| 10,79539583612| 10,79539583612| 10,79539583612| 10,79539583612| 10,79539583612| 10,79539583612| 10,79539583612| 10,79539583612
Sum_Oran                  |  8,19116818192|  8,19116818192|  8,19116818192|  8,41782114537|  8,88583777913|  8,88583777913|  8,88583777913|  6,33304556255|  0,00000000000|  8,19116818192| 10,79539583612| 10,79539583612| 10,79539583612| 10,79539583612| 10,79539583612| 10,79539583612| 10,79539583612| 10,79539583612| 10,79539583612| 10,79539583612| 10,79539583612| 10,79539583612| 10,79539583612| 10,79539583612| 10,79539583612| 10,79539583612| 10,79539583612| 10,79539583612| 10,79539583612| 10,79539583612| 10,79539583612
Gorilla                   |  6,82767243133|  6,27262868201|  6,27262868201|  8,41782114537|  8,88583777913|  8,88583777913|  8,88583777913|  8,19116818192|  8,19116818192|  0,00000000000| 10,79539583612| 10,79539583612| 10,79539583612| 10,79539583612| 10,79539583612| 10,79539583612| 10,79539583612| 10,79539583612| 10,79539583612| 10,79539583612| 10,79539583612| 10,79539583612| 10,79539583612| 10,79539583612| 10,79539583612| 10,79539583612| 10,79539583612| 10,79539583612| 10,79539583612| 10,79539583612| 10,79539583612
Cat                       | 10,79539583612| 10,79539583612| 10,79539583612| 10,79539583612| 10,79539583612| 10,79539583612| 10,79539583612| 10,79539583612| 10,79539583612| 10,79539583612|  0,00000000000|  9,75244125522|  9,75244125522|  9,75244125522|  9,75244125522|  9,75244125522|  9,75244125522|  9,75244125522|  7,80431803156|  7,80431803156|  9,75244125522|  9,75244125522|  9,75244125522| 10,16701426178| 10,16701426178|  9,91073346015|  9,75244125522|  9,99882136097|  9,75244125522|  9,75244125522|  9,75244125522
Dog                       | 10,79539583612| 10,79539583612| 10,79539583612| 10,79539583612| 10,79539583612| 10,79539583612| 10,79539583612| 10,79539583612| 10,79539583612| 10,79539583612|  9,75244125522|  0,00000000000|  9,24349562380|  9,24349562380|  9,24349562380|  9,24349562380|  9,24349562380|  4,39217101647|  9,75244125522|  9,75244125522|  9,27898502867|  9,27898502867|  9,60669640602| 10,16701426178| 10,16701426178|  9,91073346015|  9,57808299987|  9,99882136097|  9,73172186023|  9,55671550048|  9,24349562380
Pig                       | 10,79539583612| 10,79539583612| 10,79539583612| 10,79539583612| 10,79539583612| 10,79539583612| 10,79539583612| 10,79539583612| 10,79539583612| 10,79539583612|  9,75244125522|  9,24349562380|  0,00000000000|  8,61770902415|  8,61770902415|  8,61770902415|  8,61770902415|  9,24349562380|  9,75244125522|  9,75244125522|  9,27898502867|  9,27898502867|  9,60669640602| 10,16701426178| 10,16701426178|  9,91073346015|  9,57808299987|  9,99882136097|  9,73172186023|  9,55671550048|  8,82502327441
Sheep                     | 10,79539583612| 10,79539583612| 10,79539583612| 10,79539583612| 10,79539583612| 10,79539583612| 10,79539583612| 10,79539583612| 10,79539583612| 10,79539583612|  9,75244125522|  9,24349562380|  8,61770902415|  0,00000000000|  6,91325268716|  8,16729680811|  7,85083051804|  9,24349562380|  9,75244125522|  9,75244125522|  9,27898502867|  9,27898502867|  9,60669640602| 10,16701426178| 10,16701426178|  9,91073346015|  9,57808299987|  9,99882136097|  9,73172186023|  9,55671550048|  8,82502327441
Goat                      | 10,79539583612| 10,79539583612| 10,79539583612| 10,79539583612| 10,79539583612| 10,79539583612| 10,79539583612| 10,79539583612| 10,79539583612| 10,79539583612|  9,75244125522|  9,24349562380|  8,61770902415|  6,91325268716|  0,00000000000|  8,16729680811|  7,85083051804|  9,24349562380|  9,75244125522|  9,75244125522|  9,27898502867|  9,27898502867|  9,60669640602| 10,16701426178| 10,16701426178|  9,91073346015|  9,57808299987|  9,99882136097|  9,73172186023|  9,55671550048|  8,82502327441
Cow                       | 10,79539583612| 10,79539583612| 10,79539583612| 10,79539583612| 10,79539583612| 10,79539583612| 10,79539583612| 10,79539583612| 10,79539583612| 10,79539583612|  9,75244125522|  9,24349562380|  8,61770902415|  8,16729680811|  8,16729680811|  0,00000000000|  8,16729680811|  9,24349562380|  9,75244125522|  9,75244125522|  9,27898502867|  9,27898502867|  9,60669640602| 10,16701426178| 10,16701426178|  9,91073346015|  9,57808299987|  9,99882136097|  9,73172186023|  9,55671550048|  8,82502327441
Buffalo                   | 10,79539583612| 10,79539583612| 10,79539583612| 10,79539583612| 10,79539583612| 10,79539583612| 10,79539583612| 10,79539583612| 10,79539583612| 10,79539583612|  9,75244125522|  9,24349562380|  8,61770902415|  7,85083051804|  7,85083051804|  8,16729680811|  0,00000000000|  9,24349562380|  9,75244125522|  9,75244125522|  9,27898502867|  9,27898502867|  9,60669640602| 10,16701426178| 10,16701426178|  9,91073346015|  9,57808299987|  9,99882136097|  9,73172186023|  9,55671550048|  8,82502327441
Wolf                      | 10,79539583612| 10,79539583612| 10,79539583612| 10,79539583612| 10,79539583612| 10,79539583612| 10,79539583612| 10,79539583612| 10,79539583612| 10,79539583612|  9,75244125522|  4,39217101647|  9,24349562380|  9,24349562380|  9,24349562380|  9,24349562380|  9,24349562380|  0,00000000000|  9,75244125522|  9,75244125522|  9,27898502867|  9,27898502867|  9,60669640602| 10,16701426178| 10,16701426178|  9,91073346015|  9,57808299987|  9,99882136097|  9,73172186023|  9,55671550048|  9,24349562380
Tiger                     | 10,79539583612| 10,79539583612| 10,79539583612| 10,79539583612| 10,79539583612| 10,79539583612| 10,79539583612| 10,79539583612| 10,79539583612| 10,79539583612|  7,80431803156|  9,75244125522|  9,75244125522|  9,75244125522|  9,75244125522|  9,75244125522|  9,75244125522|  9,75244125522|  0,00000000000|  7,35754910270|  9,75244125522|  9,75244125522|  9,75244125522| 10,16701426178| 10,16701426178|  9,91073346015|  9,75244125522|  9,99882136097|  9,75244125522|  9,75244125522|  9,75244125522
Leopard                   | 10,79539583612| 10,79539583612| 10,79539583612| 10,79539583612| 10,79539583612| 10,79539583612| 10,79539583612| 10,79539583612| 10,79539583612| 10,79539583612|  7,80431803156|  9,75244125522|  9,75244125522|  9,75244125522|  9,75244125522|  9,75244125522|  9,75244125522|  9,75244125522|  7,35754910270|  0,00000000000|  9,75244125522|  9,75244125522|  9,75244125522| 10,16701426178| 10,16701426178|  9,91073346015|  9,75244125522|  9,99882136097|  9,75244125522|  9,75244125522|  9,75244125522
Indian_Rhino              | 10,79539583612| 10,79539583612| 10,79539583612| 10,79539583612| 10,79539583612| 10,79539583612| 10,79539583612| 10,79539583612| 10,79539583612| 10,79539583612|  9,75244125522|  9,27898502867|  9,27898502867|  9,27898502867|  9,27898502867|  9,27898502867|  9,27898502867|  9,27898502867|  9,75244125522|  9,75244125522|  0,00000000000|  6,96173398859|  9,60669640602| 10,16701426178| 10,16701426178|  9,91073346015|  9,57808299987|  9,99882136097|  9,73172186023|  9,55671550048|  9,27898502867
White_Rhino               | 10,79539583612| 10,79539583612| 10,79539583612| 10,79539583612| 10,79539583612| 10,79539583612| 10,79539583612| 10,79539583612| 10,79539583612| 10,79539583612|  9,75244125522|  9,27898502867|  9,27898502867|  9,27898502867|  9,27898502867|  9,27898502867|  9,27898502867|  9,27898502867|  9,75244125522|  9,75244125522|  6,96173398859|  0,00000000000|  9,60669640602| 10,16701426178| 10,16701426178|  9,91073346015|  9,57808299987|  9,99882136097|  9,73172186023|  9,55671550048|  9,27898502867
Black_Bear                | 10,79539583612| 10,79539583612| 10,79539583612| 10,79539583612| 10,79539583612| 10,79539583612| 10,79539583612| 10,79539583612| 10,79539583612| 10,79539583612|  9,75244125522|  9,60669640602|  9,60669640602|  9,60669640602|  9,60669640602|  9,60669640602|  9,60669640602|  9,60669640602|  9,75244125522|  9,75244125522|  9,60669640602|  9,60669640602|  0,00000000000| 10,16701426178| 10,16701426178|  9,91073346015|  9,60669640602|  9,99882136097|  9,73172186023|  9,60669640602|  9,60669640602
Brown_Bear                | 10,79539583612| 10,79539583612| 10,79539583612| 10,79539583612| 10,79539583612| 10,79539583612| 10,79539583612| 10,79539583612| 10,79539583612| 10,79539583612| 10,16701426178| 10,16701426178| 10,16701426178| 10,16701426178| 10,16701426178| 10,16701426178| 10,16701426178| 10,16701426178| 10,16701426178| 10,16701426178| 10,16701426178| 10,16701426178| 10,16701426178|  0,00000000000|  4,34295150556| 10,16701426178| 10,16701426178| 10,16701426178| 10,16701426178| 10,16701426178| 10,16701426178
Polar_Bear                | 10,79539583612| 10,79539583612| 10,79539583612| 10,79539583612| 10,79539583612| 10,79539583612| 10,79539583612| 10,79539583612| 10,79539583612| 10,79539583612| 10,16701426178| 10,16701426178| 10,16701426178| 10,16701426178| 10,16701426178| 10,16701426178| 10,16701426178| 10,16701426178| 10,16701426178| 10,16701426178| 10,16701426178| 10,16701426178| 10,16701426178|  4,34295150556|  0,00000000000| 10,16701426178| 10,16701426178| 10,16701426178| 10,16701426178| 10,16701426178| 10,16701426178
Giant_Panda               | 10,79539583612| 10,79539583612| 10,79539583612| 10,79539583612| 10,79539583612| 10,79539583612| 10,79539583612| 10,79539583612| 10,79539583612| 10,79539583612|  9,91073346015|  9,91073346015|  9,91073346015|  9,91073346015|  9,91073346015|  9,91073346015|  9,91073346015|  9,91073346015|  9,91073346015|  9,91073346015|  9,91073346015|  9,91073346015|  9,91073346015| 10,16701426178| 10,16701426178|  0,00000000000|  9,91073346015|  9,99882136097|  9,91073346015|  9,91073346015|  9,91073346015
Rabbit                    | 10,79539583612| 10,79539583612| 10,79539583612| 10,79539583612| 10,79539583612| 10,79539583612| 10,79539583612| 10,79539583612| 10,79539583612| 10,79539583612|  9,75244125522|  9,57808299987|  9,57808299987|  9,57808299987|  9,57808299987|  9,57808299987|  9,57808299987|  9,57808299987|  9,75244125522|  9,75244125522|  9,57808299987|  9,57808299987|  9,60669640602| 10,16701426178| 10,16701426178|  9,91073346015|  0,00000000000|  9,99882136097|  9,73172186023|  9,57808299987|  9,57808299987
Hedgehog                  | 10,79539583612| 10,79539583612| 10,79539583612| 10,79539583612| 10,79539583612| 10,79539583612| 10,79539583612| 10,79539583612| 10,79539583612| 10,79539583612|  9,99882136097|  9,99882136097|  9,99882136097|  9,99882136097|  9,99882136097|  9,99882136097|  9,99882136097|  9,99882136097|  9,99882136097|  9,99882136097|  9,99882136097|  9,99882136097|  9,99882136097| 10,16701426178| 10,16701426178|  9,99882136097|  9,99882136097|  0,00000000000|  9,99882136097|  9,99882136097|  9,99882136097
Dormouse                  | 10,79539583612| 10,79539583612| 10,79539583612| 10,79539583612| 10,79539583612| 10,79539583612| 10,79539583612| 10,79539583612| 10,79539583612| 10,79539583612|  9,75244125522|  9,73172186023|  9,73172186023|  9,73172186023|  9,73172186023|  9,73172186023|  9,73172186023|  9,73172186023|  9,75244125522|  9,75244125522|  9,73172186023|  9,73172186023|  9,73172186023| 10,16701426178| 10,16701426178|  9,91073346015|  9,73172186023|  9,99882136097|  0,00000000000|  9,73172186023|  9,73172186023
Squirrel                  | 10,79539583612| 10,79539583612| 10,79539583612| 10,79539583612| 10,79539583612| 10,79539583612| 10,79539583612| 10,79539583612| 10,79539583612| 10,79539583612|  9,75244125522|  9,55671550048|  9,55671550048|  9,55671550048|  9,55671550048|  9,55671550048|  9,55671550048|  9,55671550048|  9,75244125522|  9,75244125522|  9,55671550048|  9,55671550048|  9,60669640602| 10,16701426178| 10,16701426178|  9,91073346015|  9,57808299987|  9,99882136097|  9,73172186023|  0,00000000000|  9,55671550048
Blue_Whale                | 10,79539583612| 10,79539583612| 10,79539583612| 10,79539583612| 10,79539583612| 10,79539583612| 10,79539583612| 10,79539583612| 10,79539583612| 10,79539583612|  9,75244125522|  9,24349562380|  8,82502327441|  8,82502327441|  8,82502327441|  8,82502327441|  8,82502327441|  9,24349562380|  9,75244125522|  9,75244125522|  9,27898502867|  9,27898502867|  9,60669640602| 10,16701426178| 10,16701426178|  9,91073346015|  9,57808299987|  9,99882136097|  9,73172186023|  9,55671550048|  0,00000000000
                           |Human          |P_Chim         |Com_Chim       |Gibbon         |Baboon         |Ver_Monkey     |Macaca_Thibet  |Bor_Oran       |Sum_Oran       |Gorilla        |Cat            |Dog            |Pig            |Sheep          |Goat           |Cow            |Buffalo        |Wolf           |Tiger          |Leopard        |Indian_Rhino   |White_Rhino    |Black_Bear     |Brown_Bear     |Polar_Bear     |Giant_Panda    |Rabbit         |Hedgehog       |Dormouse       |Squirrel       |Blue_Whale     
Human                     |  0,00000000000|  4,00000000000|  4,00000000000|  4,00000000000|  7,00000000000|  6,00000000000|  7,00000000000|  4,00000000000|  4,00000000000|  3,00000000000| 11,00000000000| 17,00000000000| 18,00000000000| 21,00000000000| 21,00000000000| 19,00000000000| 20,00000000000| 17,00000000000| 12,00000000000| 12,00000000000| 16,00000000000| 16,00000000000| 12,00000000000|  8,00000000000|  8,00000000000|  9,00000000000| 13,00000000000|  8,00000000000| 11,00000000000| 14,00000000000| 17,00000000000
P_Chim                    |  4,00000000000|  0,00000000000|  2,00000000000|  6,00000000000|  9,00000000000|  8,00000000000|  9,00000000000|  6,00000000000|  6,00000000000|  3,00000000000| 13,00000000000| 19,00000000000| 20,00000000000| 23,00000000000| 23,00000000000| 21,00000000000| 22,00000000000| 19,00000000000| 14,00000000000| 14,00000000000| 18,00000000000| 18,00000000000| 14,00000000000| 10,00000000000| 10,00000000000| 11,00000000000| 15,00000000000| 10,00000000000| 13,00000000000| 16,00000000000| 19,00000000000
Com_Chim                  |  4,00000000000|  2,00000000000|  0,00000000000|  6,00000000000|  9,00000000000|  8,00000000000|  9,00000000000|  6,00000000000|  6,00000000000|  3,00000000000| 13,00000000000| 19,00000000000| 20,00000000000| 23,00000000000| 23,00000000000| 21,00000000000| 22,00000000000| 19,00000000000| 14,00000000000| 14,00000000000| 18,00000000000| 18,00000000000| 14,00000000000| 10,00000000000| 10,00000000000| 11,00000000000| 15,00000000000| 10,00000000000| 13,00000000000| 16,00000000000| 19,00000000000
Gibbon                    |  4,00000000000|  6,00000000000|  6,00000000000|  0,00000000000|  5,00000000000|  4,00000000000|  5,00000000000|  4,00000000000|  4,00000000000|  5,00000000000|  9,00000000000| 15,00000000000| 16,00000000000| 19,00000000000| 19,00000000000| 17,00000000000| 18,00000000000| 15,00000000000| 10,00000000000| 10,00000000000| 14,00000000000| 14,00000000000| 10,00000000000|  6,00000000000|  6,00000000000|  7,00000000000| 11,00000000000|  6,00000000000|  9,00000000000| 12,00000000000| 15,00000000000
Baboon                    |  7,00000000000|  9,00000000000|  9,00000000000|  5,00000000000|  0,00000000000|  3,00000000000|  2,00000000000|  7,00000000000|  7,00000000000|  8,00000000000| 10,00000000000| 16,00000000000| 17,00000000000| 20,00000000000| 20,00000000000| 18,00000000000| 19,00000000000| 16,00000000000| 11,00000000000| 11,00000000000| 15,00000000000| 15,00000000000| 11,00000000000|  7,00000000000|  7,00000000000|  8,00000000000| 12,00000000000|  7,00000000000| 10,00000000000| 13,00000000000| 16,00000000000
Ver_Monkey                |  6,00000000000|  8,00000000000|  8,00000000000|  4,00000000000|  3,00000000000|  0,00000000000|  3,00000000000|  6,00000000000|  6,00000000000|  7,00000000000|  9,00000000000| 15,00000000000| 16,00000000000| 19,00000000000| 19,00000000000| 17,00000000000| 18,00000000000| 15,00000000000| 10,00000000000| 10,00000000000| 14,00000000000| 14,00000000000| 10,00000000000|  6,00000000000|  6,00000000000|  7,00000000000| 11,00000000000|  6,00000000000|  9,00000000000| 12,00000000000| 15,00000000000
Macaca_Thibet             |  7,00000000000|  9,00000000000|  9,00000000000|  5,00000000000|  2,00000000000|  3,00000000000|  0,00000000000|  7,00000000000|  7,00000000000|  8,00000000000| 10,00000000000| 16,00000000000| 17,00000000000| 20,00000000000| 20,00000000000| 18,00000000000| 19,00000000000| 16,00000000000| 11,00000000000| 11,00000000000| 15,00000000000| 15,00000000000| 11,00000000000|  7,00000000000|  7,00000000000|  8,00000000000| 12,00000000000|  7,00000000000| 10,00000000000| 13,00000000000| 16,00000000000
Bor_Oran                  |  4,00000000000|  6,00000000000|  6,00000000000|  4,00000000000|  7,00000000000|  6,00000000000|  7,00000000000|  0,00000000000|  2,00000000000|  5,00000000000| 11,00000000000| 17,00000000000| 18,00000000000| 21,00000000000| 21,00000000000| 19,00000000000| 20,00000000000| 17,00000000000| 12,00000000000| 12,00000000000| 16,00000000000| 16,00000000000| 12,00000000000|  8,00000000000|  8,00000000000|  9,00000000000| 13,00000000000|  8,00000000000| 11,00000000000| 14,00000000000| 17,00000000000
Sum_Oran                  |  4,00000000000|  6,00000000000|  6,00000000000|  4,00000000000|  7,00000000000|  6,00000000000|  7,00000000000|  2,00000000000|  0,00000000000|  5,00000000000| 11,00000000000| 17,00000000000| 18,00000000000| 21,00000000000| 21,00000000000| 19,00000000000| 20,00000000000| 17,00000000000| 12,00000000000| 12,00000000000| 16,00000000000| 16,00000000000| 12,00000000000|  8,00000000000|  8,00000000000|  9,00000000000| 13,00000000000|  8,00000000000| 11,00000000000| 14,00000000000| 17,00000000000
Gorilla                   |  3,00000000000|  3,00000000000|  3,00000000000|  5,00000000000|  8,00000000000|  7,00000000000|  8,00000000000|  5,00000000000|  5,00000000000|  0,00000000000| 12,00000000000| 18,00000000000| 19,00000000000| 22,00000000000| 22,00000000000| 20,00000000000| 21,00000000000| 18,00000000000| 13,00000000000| 13,00000000000| 17,00000000000| 17,00000000000| 13,00000000000|  9,00000000000|  9,00000000000| 10,00000000000| 14,00000000000|  9,00000000000| 12,00000000000| 15,00000000000| 18,00000000000
Cat                       | 11,00000000000| 13,00000000000| 13,00000000000|  9,00000000000| 10,00000000000|  9,00000000000| 10,00000000000| 11,00000000000| 11,00000000000| 12,00000000000|  0,00000000000| 10,00000000000| 11,00000000000| 14,00000000000| 14,00000000000| 12,00000000000| 13,00000000000| 10,00000000000|  3,00000000000|  3,00000000000|  9,00000000000|  9,00000000000|  5,00000000000|  7,00000000000|  7,00000000000|  4,00000000000|  6,00000000000|  5,00000000000|  4,00000000000|  7,00000000000| 10,00000000000
Dog                       | 17,00000000000| 19,00000000000| 19,00000000000| 15,00000000000| 16,00000000000| 15,00000000000| 16,00000000000| 17,00000000000| 17,00000000000| 18,00000000000| 10,00000000000|  0,00000000000|  5,00000000000|  8,00000000000|  8,00000000000|  6,00000000000|  7,00000000000|  2,00000000000| 11,00000000000| 11,00000000000|  5,00000000000|  5,00000000000|  7,00000000000| 13,00000000000| 13,00000000000| 10,00000000000|  6,00000000000| 11,00000000000|  8,00000000000|  5,00000000000|  4,00000000000
Pig                       | 18,00000000000| 20,00000000000| 20,00000000000| 16,00000000000| 17,00000000000| 16,00000000000| 17,00000000000| 18,00000000000| 18,00000000000| 19,00000000000| 11,00000000000|  5,00000000000|  0,00000000000|  5,00000000000|  5,00000000000|  3,00000000000|  4,00000000000|  5,00000000000| 12,00000000000| 12,00000000000|  6,00000000000|  6,00000000000|  8,00000000000| 14,00000000000| 14,00000000000| 11,00000000000|  7,00000000000| 12,00000000000|  9,00000000000|  6,00000000000|  3,00000000000
Sheep                     | 21,00000000000| 23,00000000000| 23,00000000000| 19,00000000000| 20,00000000000| 19,00000000000| 20,00000000000| 21,00000000000| 21,00000000000| 22,00000000000| 14,00000000000|  8,00000000000|  5,00000000000|  0,00000000000|  2,00000000000|  4,00000000000|  3,00000000000|  8,00000000000| 15,00000000000| 15,00000000000|  9,00000000000|  9,00000000000| 11,00000000000| 17,00000000000| 17,00000000000| 14,00000000000| 10,00000000000| 15,00000000000| 12,00000000000|  9,00000000000|  6,00000000000
Goat                      | 21,00000000000| 23,00000000000| 23,00000000000| 19,00000000000| 20,00000000000| 19,00000000000| 20,00000000000| 21,00000000000| 21,00000000000| 22,00000000000| 14,00000000000|  8,00000000000|  5,00000000000|  2,00000000000|  0,00000000000|  4,00000000000|  3,00000000000|  8,00000000000| 15,00000000000| 15,00000000000|  9,00000000000|  9,00000000000| 11,00000000000| 17,00000000000| 17,00000000000| 14,00000000000| 10,00000000000| 15,00000000000| 12,00000000000|  9,00000000000|  6,00000000000
Cow                       | 19,00000000000| 21,00000000000| 21,00000000000| 17,00000000000| 18,00000000000| 17,00000000000| 18,00000000000| 19,00000000000| 19,00000000000| 20,00000000000| 12,00000000000|  6,00000000000|  3,00000000000|  4,00000000000|  4,00000000000|  0,00000000000|  3,00000000000|  6,00000000000| 13,00000000000| 13,00000000000|  7,00000000000|  7,00000000000|  9,00000000000| 15,00000000000| 15,00000000000| 12,00000000000|  8,00000000000| 13,00000000000| 10,00000000000|  7,00000000000|  4,00000000000
Buffalo                   | 20,00000000000| 22,00000000000| 22,00000000000| 18,00000000000| 19,00000000000| 18,00000000000| 19,00000000000| 20,00000000000| 20,00000000000| 21,00000000000| 13,00000000000|  7,00000000000|  4,00000000000|  3,00000000000|  3,00000000000|  3,00000000000|  0,00000000000|  7,00000000000| 14,00000000000| 14,00000000000|  8,00000000000|  8,00000000000| 10,00000000000| 16,00000000000| 16,00000000000| 13,00000000000|  9,00000000000| 14,00000000000| 11,00000000000|  8,00000000000|  5,00000000000
Wolf                      | 17,00000000000| 19,00000000000| 19,00000000000| 15,00000000000| 16,00000000000| 15,00000000000| 16,00000000000| 17,00000000000| 17,00000000000| 18,00000000000| 10,00000000000|  2,00000000000|  5,00000000000|  8,00000000000|  8,00000000000|  6,00000000000|  7,00000000000|  0,00000000000| 11,00000000000| 11,00000000000|  5,00000000000|  5,00000000000|  7,00000000000| 13,00000000000| 13,00000000000| 10,00000000000|  6,00000000000| 11,00000000000|  8,00000000000|  5,00000000000|  4,00000000000
Tiger                     | 12,00000000000| 14,00000000000| 14,00000000000| 10,00000000000| 11,00000000000| 10,00000000000| 11,00000000000| 12,00000000000| 12,00000000000| 13,00000000000|  3,00000000000| 11,00000000000| 12,00000000000| 15,00000000000| 15,00000000000| 13,00000000000| 14,00000000000| 11,00000000000|  0,00000000000|  2,00000000000| 10,00000000000| 10,00000000000|  6,00000000000|  8,00000000000|  8,00000000000|  5,00000000000|  7,00000000000|  6,00000000000|  5,00000000000|  8,00000000000| 11,00000000000
Leopard                   | 12,00000000000| 14,00000000000| 14,00000000000| 10,00000000000| 11,00000000000| 10,00000000000| 11,00000000000| 12,00000000000| 12,00000000000| 13,00000000000|  3,00000000000| 11,00000000000| 12,00000000000| 15,00000000000| 15,00000000000| 13,00000000000| 14,00000000000| 11,00000000000|  2,00000000000|  0,00000000000| 10,00000000000| 10,00000000000|  6,00000000000|  8,00000000000|  8,00000000000|  5,00000000000|  7,00000000000|  6,00000000000|  5,00000000000|  8,00000000000| 11,00000000000
Indian_Rhino              | 16,00000000000| 18,00000000000| 18,00000000000| 14,00000000000| 15,00000000000| 14,00000000000| 15,00000000000| 16,00000000000| 16,00000000000| 17,00000000000|  9,00000000000|  5,00000000000|  6,00000000000|  9,00000000000|  9,00000000000|  7,00000000000|  8,00000000000|  5,00000000000| 10,00000000000| 10,00000000000|  0,00000000000|  2,00000000000|  6,00000000000| 12,00000000000| 12,00000000000|  9,00000000000|  5,00000000000| 10,00000000000|  7,00000000000|  4,00000000000|  5,00000000000
White_Rhino               | 16,00000000000| 18,00000000000| 18,00000000000| 14,00000000000| 15,00000000000| 14,00000000000| 15,00000000000| 16,00000000000| 16,00000000000| 17,00000000000|  9,00000000000|  5,00000000000|  6,00000000000|  9,00000000000|  9,00000000000|  7,00000000000|  8,00000000000|  5,00000000000| 10,00000000000| 10,00000000000|  2,00000000000|  0,00000000000|  6,00000000000| 12,00000000000| 12,00000000000|  9,00000000000|  5,00000000000| 10,00000000000|  7,00000000000|  4,00000000000|  5,00000000000
Black_Bear                | 12,00000000000| 14,00000000000| 14,00000000000| 10,00000000000| 11,00000000000| 10,00000000000| 11,00000000000| 12,00000000000| 12,00000000000| 13,00000000000|  5,00000000000|  7,00000000000|  8,00000000000| 11,00000000000| 11,00000000000|  9,00000000000| 10,00000000000|  7,00000000000|  6,00000000000|  6,00000000000|  6,00000000000|  6,00000000000|  0,00000000000|  8,00000000000|  8,00000000000|  5,00000000000|  3,00000000000|  6,00000000000|  3,00000000000|  4,00000000000|  7,00000000000
Brown_Bear                |  8,00000000000| 10,00000000000| 10,00000000000|  6,00000000000|  7,00000000000|  6,00000000000|  7,00000000000|  8,00000000000|  8,00000000000|  9,00000000000|  7,00000000000| 13,00000000000| 14,00000000000| 17,00000000000| 17,00000000000| 15,00000000000| 16,00000000000| 13,00000000000|  8,00000000000|  8,00000000000| 12,00000000000| 12,00000000000|  8,00000000000|  0,00000000000|  2,00000000000|  5,00000000000|  9,00000000000|  4,00000000000|  7,00000000000| 10,00000000000| 13,00000000000
Polar_Bear                |  8,00000000000| 10,00000000000| 10,00000000000|  6,00000000000|  7,00000000000|  6,00000000000|  7,00000000000|  8,00000000000|  8,00000000000|  9,00000000000|  7,00000000000| 13,00000000000| 14,00000000000| 17,00000000000| 17,00000000000| 15,00000000000| 16,00000000000| 13,00000000000|  8,00000000000|  8,00000000000| 12,00000000000| 12,00000000000|  8,00000000000|  2,00000000000|  0,00000000000|  5,00000000000|  9,00000000000|  4,00000000000|  7,00000000000| 10,00000000000| 13,00000000000
Giant_Panda               |  9,00000000000| 11,00000000000| 11,00000000000|  7,00000000000|  8,00000000000|  7,00000000000|  8,00000000000|  9,00000000000|  9,00000000000| 10,00000000000|  4,00000000000| 10,00000000000| 11,00000000000| 14,00000000000| 14,00000000000| 12,00000000000| 13,00000000000| 10,00000000000|  5,00000000000|  5,00000000000|  9,00000000000|  9,00000000000|  5,00000000000|  5,00000000000|  5,00000000000|  0,00000000000|  6,00000000000|  3,00000000000|  4,00000000000|  7,00000000000| 10,00000000000
Rabbit                    | 13,00000000000| 15,00000000000| 15,00000000000| 11,00000000000| 12,00000000000| 11,00000000000| 12,00000000000| 13,00000000000| 13,00000000000| 14,00000000000|  6,00000000000|  6,00000000000|  7,00000000000| 10,00000000000| 10,00000000000|  8,00000000000|  9,00000000000|  6,00000000000|  7,00000000000|  7,00000000000|  5,00000000000|  5,00000000000|  3,00000000000|  9,00000000000|  9,00000000000|  6,00000000000|  0,00000000000|  7,00000000000|  4,00000000000|  3,00000000000|  6,00000000000
Hedgehog                  |  8,00000000000| 10,00000000000| 10,00000000000|  6,00000000000|  7,00000000000|  6,00000000000|  7,00000000000|  8,00000000000|  8,00000000000|  9,00000000000|  5,00000000000| 11,00000000000| 12,00000000000| 15,00000000000| 15,00000000000| 13,00000000000| 14,00000000000| 11,00000000000|  6,00000000000|  6,00000000000| 10,00000000000| 10,00000000000|  6,00000000000|  4,00000000000|  4,00000000000|  3,00000000000|  7,00000000000|  0,00000000000|  5,00000000000|  8,00000000000| 11,00000000000
Dormouse                  | 11,00000000000| 13,00000000000| 13,00000000000|  9,00000000000| 10,00000000000|  9,00000000000| 10,00000000000| 11,00000000000| 11,00000000000| 12,00000000000|  4,00000000000|  8,00000000000|  9,00000000000| 12,00000000000| 12,00000000000| 10,00000000000| 11,00000000000|  8,00000000000|  5,00000000000|  5,00000000000|  7,00000000000|  7,00000000000|  3,00000000000|  7,00000000000|  7,00000000000|  4,00000000000|  4,00000000000|  5,00000000000|  0,00000000000|  5,00000000000|  8,00000000000
Squirrel                  | 14,00000000000| 16,00000000000| 16,00000000000| 12,00000000000| 13,00000000000| 12,00000000000| 13,00000000000| 14,00000000000| 14,00000000000| 15,00000000000|  7,00000000000|  5,00000000000|  6,00000000000|  9,00000000000|  9,00000000000|  7,00000000000|  8,00000000000|  5,00000000000|  8,00000000000|  8,00000000000|  4,00000000000|  4,00000000000|  4,00000000000| 10,00000000000| 10,00000000000|  7,00000000000|  3,00000000000|  8,00000000000|  5,00000000000|  0,00000000000|  5,00000000000
Blue_Whale                | 17,00000000000| 19,00000000000| 19,00000000000| 15,00000000000| 16,00000000000| 15,00000000000| 16,00000000000| 17,00000000000| 17,00000000000| 18,00000000000| 10,00000000000|  4,00000000000|  3,00000000000|  6,00000000000|  6,00000000000|  4,00000000000|  5,00000000000|  4,00000000000| 11,00000000000| 11,00000000000|  5,00000000000|  5,00000000000|  7,00000000000| 13,00000000000| 13,00000000000| 10,00000000000|  6,00000000000| 11,00000000000|  8,00000000000|  5,00000000000|  0,00000000000
