                           |Human          |P_Chim         |Com_Chim       |Gibbon         |Baboon         |Ver_Monkey     |Macaca_Thibet  |Bor_Oran       |Sum_Oran       |Gorilla        |Cat            |Dog            |Pig            |Sheep          |Goat           |Cow            |Buffalo        |Wolf           |Tiger          |Leopard        |Indian_Rhino   |White_Rhino    |Black_Bear     |Brown_Bear     |Polar_Bear     |Giant_Panda    |Rabbit         |Hedgehog       |Dormouse       |Squirrel       |Blue_Whale     
Human                     |  0,00000000000|18384,05905199235|18384,05905199235|18384,05905199235|18384,05905199235|18384,05905199235|18384,05905199235|18384,05905199235|18384,05905199235|18384,05905199235|21957,73762426417|20806,70798872500|20806,70798872500|20806,70798872500|20806,70798872500|20806,70798872500|20806,70798872500|20806,70798872500|21957,73762426417|21957,73762426417|20806,70798872500|20806,70798872500|21135,02844571220|22501,57446786215|22501,57446786215|21135,02844571220|20806,70798872500|20806,70798872500|20806,70798872500|20806,70798872500|20806,70798872500
P_Chim                    |18384,05905199235|  0,00000000000|9526,54385281410|16665,51201864771|17992,10345447886|17992,10345447886|17992,10345447886|16502,94547176387|16502,94547176387|11685,83728576367|21957,73762426417|20806,70798872500|20806,70798872500|20806,70798872500|20806,70798872500|20806,70798872500|20806,70798872500|20806,70798872500|21957,73762426417|21957,73762426417|20806,70798872500|20806,70798872500|21135,02844571220|22501,57446786215|22501,57446786215|21135,02844571220|20806,70798872500|20806,70798872500|20806,70798872500|20806,70798872500|20806,70798872500
Com_Chim                  |18384,05905199235|9526,54385281410|  0,00000000000|16665,51201864771|17992,10345447886|17992,10345447886|17992,10345447886|16502,94547176387|16502,94547176387|11685,83728576367|21957,73762426417|20806,70798872500|20806,70798872500|20806,70798872500|20806,70798872500|20806,70798872500|20806,70798872500|20806,70798872500|21957,73762426417|21957,73762426417|20806,70798872500|20806,70798872500|21135,02844571220|22501,57446786215|22501,57446786215|21135,02844571220|20806,70798872500|20806,70798872500|20806,70798872500|20806,70798872500|20806,70798872500
Gibbon                    |18384,05905199235|16665,51201864771|16665,51201864771|  0,00000000000|17992,10345447886|17992,10345447886|17992,10345447886|16665,51201864771|16665,51201864771|16665,51201864771|21957,73762426417|20806,70798872500|20806,70798872500|20806,70798872500|20806,70798872500|20806,70798872500|20806,70798872500|20806,70798872500|21957,73762426417|21957,73762426417|20806,70798872500|20806,70798872500|21135,02844571220|22501,57446786215|22501,57446786215|21135,02844571220|20806,70798872500|20806,70798872500|20806,70798872500|20806,70798872500|20806,70798872500
Baboon                    |18384,05905199235|17992,10345447886|17992,10345447886|17992,10345447886|  0,00000000000|16777,91896621347|16871,44538772544|17992,10345447886|17992,10345447886|17992,10345447886|21957,73762426417|20806,70798872500|20806,70798872500|20806,70798872500|20806,70798872500|20806,70798872500|20806,70798872500|20806,70798872500|21957,73762426417|21957,73762426417|20806,70798872500|20806,70798872500|21135,02844571220|22501,57446786215|22501,57446786215|21135,02844571220|20806,70798872500|20806,70798872500|20806,70798872500|20806,70798872500|20806,70798872500
Ver_Monkey                |18384,05905199235|17992,10345447886|17992,10345447886|17992,10345447886|16777,91896621347|  0,00000000000|16871,44538772544|17992,10345447886|17992,10345447886|17992,10345447886|21957,73762426417|20806,70798872500|20806,70798872500|20806,70798872500|20806,70798872500|20806,70798872500|20806,70798872500|20806,70798872500|21957,73762426417|21957,73762426417|20806,70798872500|20806,70798872500|21135,02844571220|22501,57446786215|22501,57446786215|21135,02844571220|20806,70798872500|20806,70798872500|20806,70798872500|20806,70798872500|20806,70798872500
Macaca_Thibet             |18384,05905199235|17992,10345447886|17992,10345447886|17992,10345447886|16871,44538772544|16871,44538772544|  0,00000000000|17992,10345447886|17992,10345447886|17992,10345447886|21957,73762426417|20806,70798872500|20806,70798872500|20806,70798872500|20806,70798872500|20806,70798872500|20806,70798872500|20806,70798872500|21957,73762426417|21957,73762426417|20806,70798872500|20806,70798872500|21135,02844571220|22501,57446786215|22501,57446786215|21135,02844571220|20806,70798872500|20806,70798872500|20806,70798872500|20806,70798872500|20806,70798872500
Bor_Oran                  |18384,05905199235|16502,94547176387|16502,94547176387|16665,51201864771|17992,10345447886|17992,10345447886|17992,10345447886|  0,00000000000|13112,11451246767|16502,94547176387|21957,73762426417|20806,70798872500|20806,70798872500|20806,70798872500|20806,70798872500|20806,70798872500|20806,70798872500|20806,70798872500|21957,73762426417|21957,73762426417|20806,70798872500|20806,70798872500|21135,02844571220|22501,57446786215|22501,57446786215|21135,02844571220|20806,70798872500|20806,70798872500|20806,70798872500|20806,70798872500|20806,70798872500
Sum_Oran                  |18384,05905199235|16502,94547176387|16502,94547176387|16665,51201864771|17992,10345447886|17992,10345447886|17992,10345447886|13112,11451246767|  0,00000000000|16502,94547176387|21957,73762426417|20806,70798872500|20806,70798872500|20806,70798872500|20806,70798872500|20806,70798872500|20806,70798872500|20806,70798872500|21957,73762426417|21957,73762426417|20806,70798872500|20806,70798872500|21135,02844571220|22501,57446786215|22501,57446786215|21135,02844571220|20806,70798872500|20806,70798872500|20806,70798872500|20806,70798872500|20806,70798872500
Gorilla                   |18384,05905199235|11685,83728576367|11685,83728576367|16665,51201864771|17992,10345447886|17992,10345447886|17992,10345447886|16502,94547176387|16502,94547176387|  0,00000000000|21957,73762426417|20806,70798872500|20806,70798872500|20806,70798872500|20806,70798872500|20806,70798872500|20806,70798872500|20806,70798872500|21957,73762426417|21957,73762426417|20806,70798872500|20806,70798872500|21135,02844571220|22501,57446786215|22501,57446786215|21135,02844571220|20806,70798872500|20806,70798872500|20806,70798872500|20806,70798872500|20806,70798872500
Cat                       |21957,73762426417|21957,73762426417|21957,73762426417|21957,73762426417|21957,73762426417|21957,73762426417|21957,73762426417|21957,73762426417|21957,73762426417|21957,73762426417|  0,00000000000|21957,73762426417|21957,73762426417|21957,73762426417|21957,73762426417|21957,73762426417|21957,73762426417|21957,73762426417|16979,06172374792|16979,06172374792|21957,73762426417|21957,73762426417|21957,73762426417|22501,57446786215|22501,57446786215|21957,73762426417|21957,73762426417|21957,73762426417|21957,73762426417|21957,73762426417|21957,73762426417
Dog                       |20806,70798872500|20806,70798872500|20806,70798872500|20806,70798872500|20806,70798872500|20806,70798872500|20806,70798872500|20806,70798872500|20806,70798872500|20806,70798872500|21957,73762426417|  0,00000000000|18864,12349652287|18864,12349652287|18864,12349652287|18864,12349652287|18864,12349652287|9060,06963090471|21957,73762426417|21957,73762426417|18627,14530499973|18627,14530499973|21135,02844571220|22501,57446786215|22501,57446786215|21135,02844571220|19604,26488007503|19952,68611016794|19931,89796531706|19634,75367698249|18864,12349652287
Pig                       |20806,70798872500|20806,70798872500|20806,70798872500|20806,70798872500|20806,70798872500|20806,70798872500|20806,70798872500|20806,70798872500|20806,70798872500|20806,70798872500|21957,73762426417|18864,12349652287|  0,00000000000|17754,95171982075|17754,95171982075|18675,79755118272|17754,95171982075|18864,12349652287|21957,73762426417|21957,73762426417|18864,12349652287|18864,12349652287|21135,02844571220|22501,57446786215|22501,57446786215|21135,02844571220|19604,26488007503|19952,68611016794|19931,89796531706|19634,75367698249|18675,79755118272
Sheep                     |20806,70798872500|20806,70798872500|20806,70798872500|20806,70798872500|20806,70798872500|20806,70798872500|20806,70798872500|20806,70798872500|20806,70798872500|20806,70798872500|21957,73762426417|18864,12349652287|17754,95171982075|  0,00000000000|13839,74331274330|18675,79755118272|15936,06203279626|18864,12349652287|21957,73762426417|21957,73762426417|18864,12349652287|18864,12349652287|21135,02844571220|22501,57446786215|22501,57446786215|21135,02844571220|19604,26488007503|19952,68611016794|19931,89796531706|19634,75367698249|18675,79755118272
Goat                      |20806,70798872500|20806,70798872500|20806,70798872500|20806,70798872500|20806,70798872500|20806,70798872500|20806,70798872500|20806,70798872500|20806,70798872500|20806,70798872500|21957,73762426417|18864,12349652287|17754,95171982075|13839,74331274330|  0,00000000000|18675,79755118272|15936,06203279626|18864,12349652287|21957,73762426417|21957,73762426417|18864,12349652287|18864,12349652287|21135,02844571220|22501,57446786215|22501,57446786215|21135,02844571220|19604,26488007503|19952,68611016794|19931,89796531706|19634,75367698249|18675,79755118272
Cow                       |20806,70798872500|20806,70798872500|20806,70798872500|20806,70798872500|20806,70798872500|20806,70798872500|20806,70798872500|20806,70798872500|20806,70798872500|20806,70798872500|21957,73762426417|18864,12349652287|18675,79755118272|18675,79755118272|18675,79755118272|  0,00000000000|18675,79755118272|18864,12349652287|21957,73762426417|21957,73762426417|18864,12349652287|18864,12349652287|21135,02844571220|22501,57446786215|22501,57446786215|21135,02844571220|19604,26488007503|19952,68611016794|19931,89796531706|19634,75367698249|18218,42080709407
Buffalo                   |20806,70798872500|20806,70798872500|20806,70798872500|20806,70798872500|20806,70798872500|20806,70798872500|20806,70798872500|20806,70798872500|20806,70798872500|20806,70798872500|21957,73762426417|18864,12349652287|17754,95171982075|15936,06203279626|15936,06203279626|18675,79755118272|  0,00000000000|18864,12349652287|21957,73762426417|21957,73762426417|18864,12349652287|18864,12349652287|21135,02844571220|22501,57446786215|22501,57446786215|21135,02844571220|19604,26488007503|19952,68611016794|19931,89796531706|19634,75367698249|18675,79755118272
Wolf                      |20806,70798872500|20806,70798872500|20806,70798872500|20806,70798872500|20806,70798872500|20806,70798872500|20806,70798872500|20806,70798872500|20806,70798872500|20806,70798872500|21957,73762426417|9060,06963090471|18864,12349652287|18864,12349652287|18864,12349652287|18864,12349652287|18864,12349652287|  0,00000000000|21957,73762426417|21957,73762426417|18627,14530499973|18627,14530499973|21135,02844571220|22501,57446786215|22501,57446786215|21135,02844571220|19604,26488007503|19952,68611016794|19931,89796531706|19634,75367698249|18864,12349652287
Tiger                     |21957,73762426417|21957,73762426417|21957,73762426417|21957,73762426417|21957,73762426417|21957,73762426417|21957,73762426417|21957,73762426417|21957,73762426417|21957,73762426417|16979,06172374792|21957,73762426417|21957,73762426417|21957,73762426417|21957,73762426417|21957,73762426417|21957,73762426417|21957,73762426417|  0,00000000000|15284,26580120042|21957,73762426417|21957,73762426417|21957,73762426417|22501,57446786215|22501,57446786215|21957,73762426417|21957,73762426417|21957,73762426417|21957,73762426417|21957,73762426417|21957,73762426417
Leopard                   |21957,73762426417|21957,73762426417|21957,73762426417|21957,73762426417|21957,73762426417|21957,73762426417|21957,73762426417|21957,73762426417|21957,73762426417|21957,73762426417|16979,06172374792|21957,73762426417|21957,73762426417|21957,73762426417|21957,73762426417|21957,73762426417|21957,73762426417|21957,73762426417|15284,26580120042|  0,00000000000|21957,73762426417|21957,73762426417|21957,73762426417|22501,57446786215|22501,57446786215|21957,73762426417|21957,73762426417|21957,73762426417|21957,73762426417|21957,73762426417|21957,73762426417
Indian_Rhino              |20806,70798872500|20806,70798872500|20806,70798872500|20806,70798872500|20806,70798872500|20806,70798872500|20806,70798872500|20806,70798872500|20806,70798872500|20806,70798872500|21957,73762426417|18627,14530499973|18864,12349652287|18864,12349652287|18864,12349652287|18864,12349652287|18864,12349652287|18627,14530499973|21957,73762426417|21957,73762426417|  0,00000000000|13805,75799420301|21135,02844571220|22501,57446786215|22501,57446786215|21135,02844571220|19604,26488007503|19952,68611016794|19931,89796531706|19634,75367698249|18864,12349652287
White_Rhino               |20806,70798872500|20806,70798872500|20806,70798872500|20806,70798872500|20806,70798872500|20806,70798872500|20806,70798872500|20806,70798872500|20806,70798872500|20806,70798872500|21957,73762426417|18627,14530499973|18864,12349652287|18864,12349652287|18864,12349652287|18864,12349652287|18864,12349652287|18627,14530499973|21957,73762426417|21957,73762426417|13805,75799420301|  0,00000000000|21135,02844571220|22501,57446786215|22501,57446786215|21135,02844571220|19604,26488007503|19952,68611016794|19931,89796531706|19634,75367698249|18864,12349652287
Black_Bear                |21135,02844571220|21135,02844571220|21135,02844571220|21135,02844571220|21135,02844571220|21135,02844571220|21135,02844571220|21135,02844571220|21135,02844571220|21135,02844571220|21957,73762426417|21135,02844571220|21135,02844571220|21135,02844571220|21135,02844571220|21135,02844571220|21135,02844571220|21135,02844571220|21957,73762426417|21957,73762426417|21135,02844571220|21135,02844571220|  0,00000000000|22501,57446786215|22501,57446786215|20828,77650443452|21135,02844571220|21135,02844571220|21135,02844571220|21135,02844571220|21135,02844571220
Brown_Bear                |22501,57446786215|22501,57446786215|22501,57446786215|22501,57446786215|22501,57446786215|22501,57446786215|22501,57446786215|22501,57446786215|22501,57446786215|22501,57446786215|22501,57446786215|22501,57446786215|22501,57446786215|22501,57446786215|22501,57446786215|22501,57446786215|22501,57446786215|22501,57446786215|22501,57446786215|22501,57446786215|22501,57446786215|22501,57446786215|22501,57446786215|  0,00000000000|9107,69310597533|22501,57446786215|22501,57446786215|22501,57446786215|22501,57446786215|22501,57446786215|22501,57446786215
Polar_Bear                |22501,57446786215|22501,57446786215|22501,57446786215|22501,57446786215|22501,57446786215|22501,57446786215|22501,57446786215|22501,57446786215|22501,57446786215|22501,57446786215|22501,57446786215|22501,57446786215|22501,57446786215|22501,57446786215|22501,57446786215|22501,57446786215|22501,57446786215|22501,57446786215|22501,57446786215|22501,57446786215|22501,57446786215|22501,57446786215|22501,57446786215|9107,69310597533|  0,00000000000|22501,57446786215|22501,57446786215|22501,57446786215|22501,57446786215|22501,57446786215|22501,57446786215
Giant_Panda               |21135,02844571220|21135,02844571220|21135,02844571220|21135,02844571220|21135,02844571220|21135,02844571220|21135,02844571220|21135,02844571220|21135,02844571220|21135,02844571220|21957,73762426417|21135,02844571220|21135,02844571220|21135,02844571220|21135,02844571220|21135,02844571220|21135,02844571220|21135,02844571220|21957,73762426417|21957,73762426417|21135,02844571220|21135,02844571220|20828,77650443452|22501,57446786215|22501,57446786215|  0,00000000000|21135,02844571220|21135,02844571220|21135,02844571220|21135,02844571220|21135,02844571220
Rabbit                    |20806,70798872500|20806,70798872500|20806,70798872500|20806,70798872500|20806,70798872500|20806,70798872500|20806,70798872500|20806,70798872500|20806,70798872500|20806,70798872500|21957,73762426417|19604,26488007503|19604,26488007503|19604,26488007503|19604,26488007503|19604,26488007503|19604,26488007503|19604,26488007503|21957,73762426417|21957,73762426417|19604,26488007503|19604,26488007503|21135,02844571220|22501,57446786215|22501,57446786215|21135,02844571220|  0,00000000000|19952,68611016794|19931,89796531706|19634,75367698249|19604,26488007503
Hedgehog                  |20806,70798872500|20806,70798872500|20806,70798872500|20806,70798872500|20806,70798872500|20806,70798872500|20806,70798872500|20806,70798872500|20806,70798872500|20806,70798872500|21957,73762426417|19952,68611016794|19952,68611016794|19952,68611016794|19952,68611016794|19952,68611016794|19952,68611016794|19952,68611016794|21957,73762426417|21957,73762426417|19952,68611016794|19952,68611016794|21135,02844571220|22501,57446786215|22501,57446786215|21135,02844571220|19952,68611016794|  0,00000000000|19952,68611016794|19952,68611016794|19952,68611016794
Dormouse                  |20806,70798872500|20806,70798872500|20806,70798872500|20806,70798872500|20806,70798872500|20806,70798872500|20806,70798872500|20806,70798872500|20806,70798872500|20806,70798872500|21957,73762426417|19931,89796531706|19931,89796531706|19931,89796531706|19931,89796531706|19931,89796531706|19931,89796531706|19931,89796531706|21957,73762426417|21957,73762426417|19931,89796531706|19931,89796531706|21135,02844571220|22501,57446786215|22501,57446786215|21135,02844571220|19931,89796531706|19952,68611016794|  0,00000000000|19931,89796531706|19931,89796531706
Squirrel                  |20806,70798872500|20806,70798872500|20806,70798872500|20806,70798872500|20806,70798872500|20806,70798872500|20806,70798872500|20806,70798872500|20806,70798872500|20806,70798872500|21957,73762426417|19634,75367698249|19634,75367698249|19634,75367698249|19634,75367698249|19634,75367698249|19634,75367698249|19634,75367698249|21957,73762426417|21957,73762426417|19634,75367698249|19634,75367698249|21135,02844571220|22501,57446786215|22501,57446786215|21135,02844571220|19634,75367698249|19952,68611016794|19931,89796531706|  0,00000000000|19634,75367698249
Blue_Whale                |20806,70798872500|20806,70798872500|20806,70798872500|20806,70798872500|20806,70798872500|20806,70798872500|20806,70798872500|20806,70798872500|20806,70798872500|20806,70798872500|21957,73762426417|18864,12349652287|18675,79755118272|18675,79755118272|18675,79755118272|18218,42080709407|18675,79755118272|18864,12349652287|21957,73762426417|21957,73762426417|18864,12349652287|18864,12349652287|21135,02844571220|22501,57446786215|22501,57446786215|21135,02844571220|19604,26488007503|19952,68611016794|19931,89796531706|19634,75367698249|  0,00000000000
                           |Human          |P_Chim         |Com_Chim       |Gibbon         |Baboon         |Ver_Monkey     |Macaca_Thibet  |Bor_Oran       |Sum_Oran       |Gorilla        |Cat            |Dog            |Pig            |Sheep          |Goat           |Cow            |Buffalo        |Wolf           |Tiger          |Leopard        |Indian_Rhino   |White_Rhino    |Black_Bear     |Brown_Bear     |Polar_Bear     |Giant_Panda    |Rabbit         |Hedgehog       |Dormouse       |Squirrel       |Blue_Whale     
Human                     |  0,00000000000|  8,91518982270|  8,91518982270|  8,91518982270|  8,91518982270|  8,91518982270|  8,91518982270|  8,91518982270|  8,91518982270|  8,91518982270| 10,77114101463| 10,17336626213| 10,17336626213| 10,17336626213| 10,17336626213| 10,17336626213| 10,17336626213| 10,17336626213| 10,77114101463| 10,77114101463| 10,17336626213| 10,17336626213| 10,34387592918| 11,05357677869| 11,05357677869| 10,34387592918| 10,17336626213| 10,17336626213| 10,17336626213| 10,17336626213| 10,17336626213
P_Chim                    |  8,91518982270|  0,00000000000|  4,31513540845|  8,02268106724|  8,71163193586|  8,71163193586|  8,71163193586|  7,93825389497|  7,93825389497|  5,43654102442| 10,77114101463| 10,17336626213| 10,17336626213| 10,17336626213| 10,17336626213| 10,17336626213| 10,17336626213| 10,17336626213| 10,77114101463| 10,77114101463| 10,17336626213| 10,17336626213| 10,34387592918| 11,05357677869| 11,05357677869| 10,34387592918| 10,17336626213| 10,17336626213| 10,17336626213| 10,17336626213| 10,17336626213
Com_Chim                  |  8,91518982270|  4,31513540845|  0,00000000000|  8,02268106724|  8,71163193586|  8,71163193586|  8,71163193586|  7,93825389497|  7,93825389497|  5,43654102442| 10,77114101463| 10,17336626213| 10,17336626213| 10,17336626213| 10,17336626213| 10,17336626213| 10,17336626213| 10,17336626213| 10,77114101463| 10,77114101463| 10,17336626213| 10,17336626213| 10,34387592918| 11,05357677869| 11,05357677869| 10,34387592918| 10,17336626213| 10,17336626213| 10,17336626213| 10,17336626213| 10,17336626213
Gibbon                    |  8,91518982270|  8,02268106724|  8,02268106724|  0,00000000000|  8,71163193586|  8,71163193586|  8,71163193586|  8,02268106724|  8,02268106724|  8,02268106724| 10,77114101463| 10,17336626213| 10,17336626213| 10,17336626213| 10,17336626213| 10,17336626213| 10,17336626213| 10,17336626213| 10,77114101463| 10,77114101463| 10,17336626213| 10,17336626213| 10,34387592918| 11,05357677869| 11,05357677869| 10,34387592918| 10,17336626213| 10,17336626213| 10,17336626213| 10,17336626213| 10,17336626213
Baboon                    |  8,91518982270|  8,71163193586|  8,71163193586|  8,71163193586|  0,00000000000|  8,08105839584|  8,12963032809|  8,71163193586|  8,71163193586|  8,71163193586| 10,77114101463| 10,17336626213| 10,17336626213| 10,17336626213| 10,17336626213| 10,17336626213| 10,17336626213| 10,17336626213| 10,77114101463| 10,77114101463| 10,17336626213| 10,17336626213| 10,34387592918| 11,05357677869| 11,05357677869| 10,34387592918| 10,17336626213| 10,17336626213| 10,17336626213| 10,17336626213| 10,17336626213
Ver_Monkey                |  8,91518982270|  8,71163193586|  8,71163193586|  8,71163193586|  8,08105839584|  0,00000000000|  8,12963032809|  8,71163193586|  8,71163193586|  8,71163193586| 10,77114101463| 10,17336626213| 10,17336626213| 10,17336626213| 10,17336626213| 10,17336626213| 10,17336626213| 10,17336626213| 10,77114101463| 10,77114101463| 10,17336626213| 10,17336626213| 10,34387592918| 11,05357677869| 11,05357677869| 10,34387592918| 10,17336626213| 10,17336626213| 10,17336626213| 10,17336626213| 10,17336626213
Macaca_Thibet             |  8,91518982270|  8,71163193586|  8,71163193586|  8,71163193586|  8,12963032809|  8,12963032809|  0,00000000000|  8,71163193586|  8,71163193586|  8,71163193586| 10,77114101463| 10,17336626213| 10,17336626213| 10,17336626213| 10,17336626213| 10,17336626213| 10,17336626213| 10,17336626213| 10,77114101463| 10,77114101463| 10,17336626213| 10,17336626213| 10,34387592918| 11,05357677869| 11,05357677869| 10,34387592918| 10,17336626213| 10,17336626213| 10,17336626213| 10,17336626213| 10,17336626213
Bor_Oran                  |  8,91518982270|  7,93825389497|  7,93825389497|  8,02268106724|  8,71163193586|  8,71163193586|  8,71163193586|  0,00000000000|  6,17726262694|  7,93825389497| 10,77114101463| 10,17336626213| 10,17336626213| 10,17336626213| 10,17336626213| 10,17336626213| 10,17336626213| 10,17336626213| 10,77114101463| 10,77114101463| 10,17336626213| 10,17336626213| 10,34387592918| 11,05357677869| 11,05357677869| 10,34387592918| 10,17336626213| 10,17336626213| 10,17336626213| 10,17336626213| 10,17336626213
Sum_Oran                  |  8,91518982270|  7,93825389497|  7,93825389497|  8,02268106724|  8,71163193586|  8,71163193586|  8,71163193586|  6,17726262694|  0,00000000000|  7,93825389497| 10,77114101463| 10,17336626213| 10,17336626213| 10,17336626213| 10,17336626213| 10,17336626213| 10,17336626213| 10,17336626213| 10,77114101463| 10,77114101463| 10,17336626213| 10,17336626213| 10,34387592918| 11,05357677869| 11,05357677869| 10,34387592918| 10,17336626213| 10,17336626213| 10,17336626213| 10,17336626213| 10,17336626213
Gorilla                   |  8,91518982270|  5,43654102442|  5,43654102442|  8,02268106724|  8,71163193586|  8,71163193586|  8,71163193586|  7,93825389497|  7,93825389497|  0,00000000000| 10,77114101463| 10,17336626213| 10,17336626213| 10,17336626213| 10,17336626213| 10,17336626213| 10,17336626213| 10,17336626213| 10,77114101463| 10,77114101463| 10,17336626213| 10,17336626213| 10,34387592918| 11,05357677869| 11,05357677869| 10,34387592918| 10,17336626213| 10,17336626213| 10,17336626213| 10,17336626213| 10,17336626213
Cat                       | 10,77114101463| 10,77114101463| 10,77114101463| 10,77114101463| 10,77114101463| 10,77114101463| 10,77114101463| 10,77114101463| 10,77114101463| 10,77114101463|  0,00000000000| 10,77114101463| 10,77114101463| 10,77114101463| 10,77114101463| 10,77114101463| 10,77114101463| 10,77114101463|  8,18551970456|  8,18551970456| 10,77114101463| 10,77114101463| 10,77114101463| 11,05357677869| 11,05357677869| 10,77114101463| 10,77114101463| 10,77114101463| 10,77114101463| 10,77114101463| 10,77114101463
Dog                       | 10,17336626213| 10,17336626213| 10,17336626213| 10,17336626213| 10,17336626213| 10,17336626213| 10,17336626213| 10,17336626213| 10,17336626213| 10,17336626213| 10,77114101463|  0,00000000000|  9,16450608324|  9,16450608324|  9,16450608324|  9,16450608324|  9,16450608324|  4,07287708257| 10,77114101463| 10,77114101463|  9,04143403070|  9,04143403070| 10,34387592918| 11,05357677869| 11,05357677869| 10,34387592918|  9,54889048022|  9,72983926568|  9,71904316821|  9,56472450609|  9,16450608324
Pig                       | 10,17336626213| 10,17336626213| 10,17336626213| 10,17336626213| 10,17336626213| 10,17336626213| 10,17336626213| 10,17336626213| 10,17336626213| 10,17336626213| 10,77114101463|  9,16450608324|  0,00000000000|  8,58846975558|  8,58846975558|  9,06670104687|  8,58846975558|  9,16450608324| 10,77114101463| 10,77114101463|  9,16450608324|  9,16450608324| 10,34387592918| 11,05357677869| 11,05357677869| 10,34387592918|  9,54889048022|  9,72983926568|  9,71904316821|  9,56472450609|  9,06670104687
Sheep                     | 10,17336626213| 10,17336626213| 10,17336626213| 10,17336626213| 10,17336626213| 10,17336626213| 10,17336626213| 10,17336626213| 10,17336626213| 10,17336626213| 10,77114101463|  9,16450608324|  8,58846975558|  0,00000000000|  6,55514874955|  9,06670104687|  7,64384913166|  9,16450608324| 10,77114101463| 10,77114101463|  9,16450608324|  9,16450608324| 10,34387592918| 11,05357677869| 11,05357677869| 10,34387592918|  9,54889048022|  9,72983926568|  9,71904316821|  9,56472450609|  9,06670104687
Goat                      | 10,17336626213| 10,17336626213| 10,17336626213| 10,17336626213| 10,17336626213| 10,17336626213| 10,17336626213| 10,17336626213| 10,17336626213| 10,17336626213| 10,77114101463|  9,16450608324|  8,58846975558|  6,55514874955|  0,00000000000|  9,06670104687|  7,64384913166|  9,16450608324| 10,77114101463| 10,77114101463|  9,16450608324|  9,16450608324| 10,34387592918| 11,05357677869| 11,05357677869| 10,34387592918|  9,54889048022|  9,72983926568|  9,71904316821|  9,56472450609|  9,06670104687
Cow                       | 10,17336626213| 10,17336626213| 10,17336626213| 10,17336626213| 10,17336626213| 10,17336626213| 10,17336626213| 10,17336626213| 10,17336626213| 10,17336626213| 10,77114101463|  9,16450608324|  9,06670104687|  9,06670104687|  9,06670104687|  0,00000000000|  9,06670104687|  9,16450608324| 10,77114101463| 10,77114101463|  9,16450608324|  9,16450608324| 10,34387592918| 11,05357677869| 11,05357677869| 10,34387592918|  9,54889048022|  9,72983926568|  9,71904316821|  9,56472450609|  8,82916739739
Buffalo                   | 10,17336626213| 10,17336626213| 10,17336626213| 10,17336626213| 10,17336626213| 10,17336626213| 10,17336626213| 10,17336626213| 10,17336626213| 10,17336626213| 10,77114101463|  9,16450608324|  8,58846975558|  7,64384913166|  7,64384913166|  9,06670104687|  0,00000000000|  9,16450608324| 10,77114101463| 10,77114101463|  9,16450608324|  9,16450608324| 10,34387592918| 11,05357677869| 11,05357677869| 10,34387592918|  9,54889048022|  9,72983926568|  9,71904316821|  9,56472450609|  9,06670104687
Wolf                      | 10,17336626213| 10,17336626213| 10,17336626213| 10,17336626213| 10,17336626213| 10,17336626213| 10,17336626213| 10,17336626213| 10,17336626213| 10,17336626213| 10,77114101463|  4,07287708257|  9,16450608324|  9,16450608324|  9,16450608324|  9,16450608324|  9,16450608324|  0,00000000000| 10,77114101463| 10,77114101463|  9,04143403070|  9,04143403070| 10,34387592918| 11,05357677869| 11,05357677869| 10,34387592918|  9,54889048022|  9,72983926568|  9,71904316821|  9,56472450609|  9,16450608324
Tiger                     | 10,77114101463| 10,77114101463| 10,77114101463| 10,77114101463| 10,77114101463| 10,77114101463| 10,77114101463| 10,77114101463| 10,77114101463| 10,77114101463|  8,18551970456| 10,77114101463| 10,77114101463| 10,77114101463| 10,77114101463| 10,77114101463| 10,77114101463| 10,77114101463|  0,00000000000|  7,30534583080| 10,77114101463| 10,77114101463| 10,77114101463| 11,05357677869| 11,05357677869| 10,77114101463| 10,77114101463| 10,77114101463| 10,77114101463| 10,77114101463| 10,77114101463
Leopard                   | 10,77114101463| 10,77114101463| 10,77114101463| 10,77114101463| 10,77114101463| 10,77114101463| 10,77114101463| 10,77114101463| 10,77114101463| 10,77114101463|  8,18551970456| 10,77114101463| 10,77114101463| 10,77114101463| 10,77114101463| 10,77114101463| 10,77114101463| 10,77114101463|  7,30534583080|  0,00000000000| 10,77114101463| 10,77114101463| 10,77114101463| 11,05357677869| 11,05357677869| 10,77114101463| 10,77114101463| 10,77114101463| 10,77114101463| 10,77114101463| 10,77114101463
Indian_Rhino              | 10,17336626213| 10,17336626213| 10,17336626213| 10,17336626213| 10,17336626213| 10,17336626213| 10,17336626213| 10,17336626213| 10,17336626213| 10,17336626213| 10,77114101463|  9,04143403070|  9,16450608324|  9,16450608324|  9,16450608324|  9,16450608324|  9,16450608324|  9,04143403070| 10,77114101463| 10,77114101463|  0,00000000000|  6,53749884311| 10,34387592918| 11,05357677869| 11,05357677869| 10,34387592918|  9,54889048022|  9,72983926568|  9,71904316821|  9,56472450609|  9,16450608324
White_Rhino               | 10,17336626213| 10,17336626213| 10,17336626213| 10,17336626213| 10,17336626213| 10,17336626213| 10,17336626213| 10,17336626213| 10,17336626213| 10,17336626213| 10,77114101463|  9,04143403070|  9,16450608324|  9,16450608324|  9,16450608324|  9,16450608324|  9,16450608324|  9,04143403070| 10,77114101463| 10,77114101463|  6,53749884311|  0,00000000000| 10,34387592918| 11,05357677869| 11,05357677869| 10,34387592918|  9,54889048022|  9,72983926568|  9,71904316821|  9,56472450609|  9,16450608324
Black_Bear                | 10,34387592918| 10,34387592918| 10,34387592918| 10,34387592918| 10,34387592918| 10,34387592918| 10,34387592918| 10,34387592918| 10,34387592918| 10,34387592918| 10,77114101463| 10,34387592918| 10,34387592918| 10,34387592918| 10,34387592918| 10,34387592918| 10,34387592918| 10,34387592918| 10,77114101463| 10,77114101463| 10,34387592918| 10,34387592918|  0,00000000000| 11,05357677869| 11,05357677869| 10,18482730632| 10,34387592918| 10,34387592918| 10,34387592918| 10,34387592918| 10,34387592918
Brown_Bear                | 11,05357677869| 11,05357677869| 11,05357677869| 11,05357677869| 11,05357677869| 11,05357677869| 11,05357677869| 11,05357677869| 11,05357677869| 11,05357677869| 11,05357677869| 11,05357677869| 11,05357677869| 11,05357677869| 11,05357677869| 11,05357677869| 11,05357677869| 11,05357677869| 11,05357677869| 11,05357677869| 11,05357677869| 11,05357677869| 11,05357677869|  0,00000000000|  4,09760981763| 11,05357677869| 11,05357677869| 11,05357677869| 11,05357677869| 11,05357677869| 11,05357677869
Polar_Bear                | 11,05357677869| 11,05357677869| 11,05357677869| 11,05357677869| 11,05357677869| 11,05357677869| 11,05357677869| 11,05357677869| 11,05357677869| 11,05357677869| 11,05357677869| 11,05357677869| 11,05357677869| 11,05357677869| 11,05357677869| 11,05357677869| 11,05357677869| 11,05357677869| 11,05357677869| 11,05357677869| 11,05357677869| 11,05357677869| 11,05357677869|  4,09760981763|  0,00000000000| 11,05357677869| 11,05357677869| 11,05357677869| 11,05357677869| 11,05357677869| 11,05357677869
Giant_Panda               | 10,34387592918| 10,34387592918| 10,34387592918| 10,34387592918| 10,34387592918| 10,34387592918| 10,34387592918| 10,34387592918| 10,34387592918| 10,34387592918| 10,77114101463| 10,34387592918| 10,34387592918| 10,34387592918| 10,34387592918| 10,34387592918| 10,34387592918| 10,34387592918| 10,77114101463| 10,77114101463| 10,34387592918| 10,34387592918| 10,18482730632| 11,05357677869| 11,05357677869|  0,00000000000| 10,34387592918| 10,34387592918| 10,34387592918| 10,34387592918| 10,34387592918
Rabbit                    | 10,17336626213| 10,17336626213| 10,17336626213| 10,17336626213| 10,17336626213| 10,17336626213| 10,17336626213| 10,17336626213| 10,17336626213| 10,17336626213| 10,77114101463|  9,54889048022|  9,54889048022|  9,54889048022|  9,54889048022|  9,54889048022|  9,54889048022|  9,54889048022| 10,77114101463| 10,77114101463|  9,54889048022|  9,54889048022| 10,34387592918| 11,05357677869| 11,05357677869| 10,34387592918|  0,00000000000|  9,72983926568|  9,71904316821|  9,56472450609|  9,54889048022
Hedgehog                  | 10,17336626213| 10,17336626213| 10,17336626213| 10,17336626213| 10,17336626213| 10,17336626213| 10,17336626213| 10,17336626213| 10,17336626213| 10,17336626213| 10,77114101463|  9,72983926568|  9,72983926568|  9,72983926568|  9,72983926568|  9,72983926568|  9,72983926568|  9,72983926568| 10,77114101463| 10,77114101463|  9,72983926568|  9,72983926568| 10,34387592918| 11,05357677869| 11,05357677869| 10,34387592918|  9,72983926568|  0,00000000000|  9,72983926568|  9,72983926568|  9,72983926568
Dormouse                  | 10,17336626213| 10,17336626213| 10,17336626213| 10,17336626213| 10,17336626213| 10,17336626213| 10,17336626213| 10,17336626213| 10,17336626213| 10,17336626213| 10,77114101463|  9,71904316821|  9,71904316821|  9,71904316821|  9,71904316821|  9,71904316821|  9,71904316821|  9,71904316821| 10,77114101463| 10,77114101463|  9,71904316821|  9,71904316821| 10,34387592918| 11,05357677869| 11,05357677869| 10,34387592918|  9,71904316821|  9,72983926568|  0,00000000000|  9,71904316821|  9,71904316821
Squirrel                  | 10,17336626213| 10,17336626213| 10,17336626213| 10,17336626213| 10,17336626213| 10,17336626213| 10,17336626213| 10,17336626213| 10,17336626213| 10,17336626213| 10,77114101463|  9,56472450609|  9,56472450609|  9,56472450609|  9,56472450609|  9,56472450609|  9,56472450609|  9,56472450609| 10,77114101463| 10,77114101463|  9,56472450609|  9,56472450609| 10,34387592918| 11,05357677869| 11,05357677869| 10,34387592918|  9,56472450609|  9,72983926568|  9,71904316821|  0,00000000000|  9,56472450609
Blue_Whale                | 10,17336626213| 10,17336626213| 10,17336626213| 10,17336626213| 10,17336626213| 10,17336626213| 10,17336626213| 10,17336626213| 10,17336626213| 10,17336626213| 10,77114101463|  9,16450608324|  9,06670104687|  9,06670104687|  9,06670104687|  8,82916739739|  9,06670104687|  9,16450608324| 10,77114101463| 10,77114101463|  9,16450608324|  9,16450608324| 10,34387592918| 11,05357677869| 11,05357677869| 10,34387592918|  9,54889048022|  9,72983926568|  9,71904316821|  9,56472450609|  0,00000000000
                           |Human          |P_Chim         |Com_Chim       |Gibbon         |Baboon         |Ver_Monkey     |Macaca_Thibet  |Bor_Oran       |Sum_Oran       |Gorilla        |Cat            |Dog            |Pig            |Sheep          |Goat           |Cow            |Buffalo        |Wolf           |Tiger          |Leopard        |Indian_Rhino   |White_Rhino    |Black_Bear     |Brown_Bear     |Polar_Bear     |Giant_Panda    |Rabbit         |Hedgehog       |Dormouse       |Squirrel       |Blue_Whale     
Human                     |  0,00000000000|  7,00000000000|  7,00000000000|  4,00000000000|  5,00000000000|  5,00000000000|  4,00000000000|  6,00000000000|  6,00000000000|  6,00000000000|  6,00000000000| 10,00000000000| 10,00000000000| 12,00000000000| 12,00000000000| 10,00000000000| 11,00000000000| 10,00000000000|  7,00000000000|  7,00000000000| 10,00000000000| 10,00000000000|  5,00000000000|  7,00000000000|  7,00000000000|  5,00000000000|  7,00000000000|  4,00000000000|  5,00000000000|  6,00000000000| 10,00000000000
P_Chim                    |  7,00000000000|  0,00000000000|  2,00000000000|  5,00000000000|  8,00000000000|  8,00000000000|  7,00000000000|  5,00000000000|  5,00000000000|  3,00000000000| 11,00000000000| 15,00000000000| 15,00000000000| 17,00000000000| 17,00000000000| 15,00000000000| 16,00000000000| 15,00000000000| 12,00000000000| 12,00000000000| 15,00000000000| 15,00000000000| 10,00000000000| 12,00000000000| 12,00000000000| 10,00000000000| 12,00000000000|  9,00000000000| 10,00000000000| 11,00000000000| 15,00000000000
Com_Chim                  |  7,00000000000|  2,00000000000|  0,00000000000|  5,00000000000|  8,00000000000|  8,00000000000|  7,00000000000|  5,00000000000|  5,00000000000|  3,00000000000| 11,00000000000| 15,00000000000| 15,00000000000| 17,00000000000| 17,00000000000| 15,00000000000| 16,00000000000| 15,00000000000| 12,00000000000| 12,00000000000| 15,00000000000| 15,00000000000| 10,00000000000| 12,00000000000| 12,00000000000| 10,00000000000| 12,00000000000|  9,00000000000| 10,00000000000| 11,00000000000| 15,00000000000
Gibbon                    |  4,00000000000|  5,00000000000|  5,00000000000|  0,00000000000|  5,00000000000|  5,00000000000|  4,00000000000|  4,00000000000|  4,00000000000|  4,00000000000|  8,00000000000| 12,00000000000| 12,00000000000| 14,00000000000| 14,00000000000| 12,00000000000| 13,00000000000| 12,00000000000|  9,00000000000|  9,00000000000| 12,00000000000| 12,00000000000|  7,00000000000|  9,00000000000|  9,00000000000|  7,00000000000|  9,00000000000|  6,00000000000|  7,00000000000|  8,00000000000| 12,00000000000
Baboon                    |  5,00000000000|  8,00000000000|  8,00000000000|  5,00000000000|  0,00000000000|  2,00000000000|  3,00000000000|  7,00000000000|  7,00000000000|  7,00000000000|  9,00000000000| 13,00000000000| 13,00000000000| 15,00000000000| 15,00000000000| 13,00000000000| 14,00000000000| 13,00000000000| 10,00000000000| 10,00000000000| 13,00000000000| 13,00000000000|  8,00000000000| 10,00000000000| 10,00000000000|  8,00000000000| 10,00000000000|  7,00000000000|  8,00000000000|  9,00000000000| 13,00000000000
Ver_Monkey                |  5,00000000000|  8,00000000000|  8,00000000000|  5,00000000000|  2,00000000000|  0,00000000000|  3,00000000000|  7,00000000000|  7,00000000000|  7,00000000000|  9,00000000000| 13,00000000000| 13,00000000000| 15,00000000000| 15,00000000000| 13,00000000000| 14,00000000000| 13,00000000000| 10,00000000000| 10,00000000000| 13,00000000000| 13,00000000000|  8,00000000000| 10,00000000000| 10,00000000000|  8,00000000000| 10,00000000000|  7,00000000000|  8,00000000000|  9,00000000000| 13,00000000000
Macaca_Thibet             |  4,00000000000|  7,00000000000|  7,00000000000|  4,00000000000|  3,00000000000|  3,00000000000|  0,00000000000|  6,00000000000|  6,00000000000|  6,00000000000|  8,00000000000| 12,00000000000| 12,00000000000| 14,00000000000| 14,00000000000| 12,00000000000| 13,00000000000| 12,00000000000|  9,00000000000|  9,00000000000| 12,00000000000| 12,00000000000|  7,00000000000|  9,00000000000|  9,00000000000|  7,00000000000|  9,00000000000|  6,00000000000|  7,00000000000|  8,00000000000| 12,00000000000
Bor_Oran                  |  6,00000000000|  5,00000000000|  5,00000000000|  4,00000000000|  7,00000000000|  7,00000000000|  6,00000000000|  0,00000000000|  2,00000000000|  4,00000000000| 10,00000000000| 14,00000000000| 14,00000000000| 16,00000000000| 16,00000000000| 14,00000000000| 15,00000000000| 14,00000000000| 11,00000000000| 11,00000000000| 14,00000000000| 14,00000000000|  9,00000000000| 11,00000000000| 11,00000000000|  9,00000000000| 11,00000000000|  8,00000000000|  9,00000000000| 10,00000000000| 14,00000000000
Sum_Oran                  |  6,00000000000|  5,00000000000|  5,00000000000|  4,00000000000|  7,00000000000|  7,00000000000|  6,00000000000|  2,00000000000|  0,00000000000|  4,00000000000| 10,00000000000| 14,00000000000| 14,00000000000| 16,00000000000| 16,00000000000| 14,00000000000| 15,00000000000| 14,00000000000| 11,00000000000| 11,00000000000| 14,00000000000| 14,00000000000|  9,00000000000| 11,00000000000| 11,00000000000|  9,00000000000| 11,00000000000|  8,00000000000|  9,00000000000| 10,00000000000| 14,00000000000
Gorilla                   |  6,00000000000|  3,00000000000|  3,00000000000|  4,00000000000|  7,00000000000|  7,00000000000|  6,00000000000|  4,00000000000|  4,00000000000|  0,00000000000| 10,00000000000| 14,00000000000| 14,00000000000| 16,00000000000| 16,00000000000| 14,00000000000| 15,00000000000| 14,00000000000| 11,00000000000| 11,00000000000| 14,00000000000| 14,00000000000|  9,00000000000| 11,00000000000| 11,00000000000|  9,00000000000| 11,00000000000|  8,00000000000|  9,00000000000| 10,00000000000| 14,00000000000
Cat                       |  6,00000000000| 11,00000000000| 11,00000000000|  8,00000000000|  9,00000000000|  9,00000000000|  8,00000000000| 10,00000000000| 10,00000000000| 10,00000000000|  0,00000000000| 12,00000000000| 12,00000000000| 14,00000000000| 14,00000000000| 12,00000000000| 13,00000000000| 12,00000000000|  3,00000000000|  3,00000000000| 12,00000000000| 12,00000000000|  5,00000000000|  5,00000000000|  5,00000000000|  5,00000000000|  9,00000000000|  6,00000000000|  7,00000000000|  8,00000000000| 12,00000000000
Dog                       | 10,00000000000| 15,00000000000| 15,00000000000| 12,00000000000| 13,00000000000| 13,00000000000| 12,00000000000| 14,00000000000| 14,00000000000| 14,00000000000| 12,00000000000|  0,00000000000|  6,00000000000|  8,00000000000|  8,00000000000|  6,00000000000|  7,00000000000|  2,00000000000| 13,00000000000| 13,00000000000|  4,00000000000|  4,00000000000| 11,00000000000| 13,00000000000| 13,00000000000| 11,00000000000|  5,00000000000|  8,00000000000|  7,00000000000|  6,00000000000|  6,00000000000
Pig                       | 10,00000000000| 15,00000000000| 15,00000000000| 12,00000000000| 13,00000000000| 13,00000000000| 12,00000000000| 14,00000000000| 14,00000000000| 14,00000000000| 12,00000000000|  6,00000000000|  0,00000000000|  4,00000000000|  4,00000000000|  4,00000000000|  3,00000000000|  6,00000000000| 13,00000000000| 13,00000000000|  6,00000000000|  6,00000000000| 11,00000000000| 13,00000000000| 13,00000000000| 11,00000000000|  5,00000000000|  8,00000000000|  7,00000000000|  6,00000000000|  4,00000000000
Sheep                     | 12,00000000000| 17,00000000000| 17,00000000000| 14,00000000000| 15,00000000000| 15,00000000000| 14,00000000000| 16,00000000000| 16,00000000000| 16,00000000000| 14,00000000000|  8,00000000000|  4,00000000000|  0,00000000000|  2,00000000000|  6,00000000000|  3,00000000000|  8,00000000000| 15,00000000000| 15,00000000000|  8,00000000000|  8,00000000000| 13,00000000000| 15,00000000000| 15,00000000000| 13,00000000000|  7,00000000000| 10,00000000000|  9,00000000000|  8,00000000000|  6,00000000000
Goat                      | 12,00000000000| 17,00000000000| 17,00000000000| 14,00000000000| 15,00000000000| 15,00000000000| 14,00000000000| 16,00000000000| 16,00000000000| 16,00000000000| 14,00000000000|  8,00000000000|  4,00000000000|  2,00000000000|  0,00000000000|  6,00000000000|  3,00000000000|  8,00000000000| 15,00000000000| 15,00000000000|  8,00000000000|  8,00000000000| 13,00000000000| 15,00000000000| 15,00000000000| 13,00000000000|  7,00000000000| 10,00000000000|  9,00000000000|  8,00000000000|  6,00000000000
Cow                       | 10,00000000000| 15,00000000000| 15,00000000000| 12,00000000000| 13,00000000000| 13,00000000000| 12,00000000000| 14,00000000000| 14,00000000000| 14,00000000000| 12,00000000000|  6,00000000000|  4,00000000000|  6,00000000000|  6,00000000000|  0,00000000000|  5,00000000000|  6,00000000000| 13,00000000000| 13,00000000000|  6,00000000000|  6,00000000000| 11,00000000000| 13,00000000000| 13,00000000000| 11,00000000000|  5,00000000000|  8,00000000000|  7,00000000000|  6,00000000000|  2,00000000000
Buffalo                   | 11,00000000000| 16,00000000000| 16,00000000000| 13,00000000000| 14,00000000000| 14,00000000000| 13,00000000000| 15,00000000000| 15,00000000000| 15,00000000000| 13,00000000000|  7,00000000000|  3,00000000000|  3,00000000000|  3,00000000000|  5,00000000000|  0,00000000000|  7,00000000000| 14,00000000000| 14,00000000000|  7,00000000000|  7,00000000000| 12,00000000000| 14,00000000000| 14,00000000000| 12,00000000000|  6,00000000000|  9,00000000000|  8,00000000000|  7,00000000000|  5,00000000000
Wolf                      | 10,00000000000| 15,00000000000| 15,00000000000| 12,00000000000| 13,00000000000| 13,00000000000| 12,00000000000| 14,00000000000| 14,00000000000| 14,00000000000| 12,00000000000|  2,00000000000|  6,00000000000|  8,00000000000|  8,00000000000|  6,00000000000|  7,00000000000|  0,00000000000| 13,00000000000| 13,00000000000|  4,00000000000|  4,00000000000| 11,00000000000| 13,00000000000| 13,00000000000| 11,00000000000|  5,00000000000|  8,00000000000|  7,00000000000|  6,00000000000|  6,00000000000
Tiger                     |  7,00000000000| 12,00000000000| 12,00000000000|  9,00000000000| 10,00000000000| 10,00000000000|  9,00000000000| 11,00000000000| 11,00000000000| 11,00000000000|  3,00000000000| 13,00000000000| 13,00000000000| 15,00000000000| 15,00000000000| 13,00000000000| 14,00000000000| 13,00000000000|  0,00000000000|  2,00000000000| 13,00000000000| 13,00000000000|  6,00000000000|  6,00000000000|  6,00000000000|  6,00000000000| 10,00000000000|  7,00000000000|  8,00000000000|  9,00000000000| 13,00000000000
Leopard                   |  7,00000000000| 12,00000000000| 12,00000000000|  9,00000000000| 10,00000000000| 10,00000000000|  9,00000000000| 11,00000000000| 11,00000000000| 11,00000000000|  3,00000000000| 13,00000000000| 13,00000000000| 15,00000000000| 15,00000000000| 13,00000000000| 14,00000000000| 13,00000000000|  2,00000000000|  0,00000000000| 13,00000000000| 13,00000000000|  6,00000000000|  6,00000000000|  6,00000000000|  6,00000000000| 10,00000000000|  7,00000000000|  8,00000000000|  9,00000000000| 13,00000000000
Indian_Rhino              | 10,00000000000| 15,00000000000| 15,00000000000| 12,00000000000| 13,00000000000| 13,00000000000| 12,00000000000| 14,00000000000| 14,00000000000| 14,00000000000| 12,00000000000|  4,00000000000|  6,00000000000|  8,00000000000|  8,00000000000|  6,00000000000|  7,00000000000|  4,00000000000| 13,00000000000| 13,00000000000|  0,00000000000|  2,00000000000| 11,00000000000| 13,00000000000| 13,00000000000| 11,00000000000|  5,00000000000|  8,00000000000|  7,00000000000|  6,00000000000|  6,00000000000
White_Rhino               | 10,00000000000| 15,00000000000| 15,00000000000| 12,00000000000| 13,00000000000| 13,00000000000| 12,00000000000| 14,00000000000| 14,00000000000| 14,00000000000| 12,00000000000|  4,00000000000|  6,00000000000|  8,00000000000|  8,00000000000|  6,00000000000|  7,00000000000|  4,00000000000| 13,00000000000| 13,00000000000|  2,00000000000|  0,00000000000| 11,00000000000| 13,00000000000| 13,00000000000| 11,00000000000|  5,00000000000|  8,00000000000|  7,00000000000|  6,00000000000|  6,00000000000
Black_Bear                |  5,00000000000| 10,00000000000| 10,00000000000|  7,00000000000|  8,00000000000|  8,00000000000|  7,00000000000|  9,00000000000|  9,00000000000|  9,00000000000|  5,00000000000| 11,00000000000| 11,00000000000| 13,00000000000| 13,00000000000| 11,00000000000| 12,00000000000| 11,00000000000|  6,00000000000|  6,00000000000| 11,00000000000| 11,00000000000|  0,00000000000|  6,00000000000|  6,00000000000|  2,00000000000|  8,00000000000|  5,00000000000|  6,00000000000|  7,00000000000| 11,00000000000
Brown_Bear                |  7,00000000000| 12,00000000000| 12,00000000000|  9,00000000000| 10,00000000000| 10,00000000000|  9,00000000000| 11,00000000000| 11,00000000000| 11,00000000000|  5,00000000000| 13,00000000000| 13,00000000000| 15,00000000000| 15,00000000000| 13,00000000000| 14,00000000000| 13,00000000000|  6,00000000000|  6,00000000000| 13,00000000000| 13,00000000000|  6,00000000000|  0,00000000000|  2,00000000000|  6,00000000000| 10,00000000000|  7,00000000000|  8,00000000000|  9,00000000000| 13,00000000000
Polar_Bear                |  7,00000000000| 12,00000000000| 12,00000000000|  9,00000000000| 10,00000000000| 10,00000000000|  9,00000000000| 11,00000000000| 11,00000000000| 11,00000000000|  5,00000000000| 13,00000000000| 13,00000000000| 15,00000000000| 15,00000000000| 13,00000000000| 14,00000000000| 13,00000000000|  6,00000000000|  6,00000000000| 13,00000000000| 13,00000000000|  6,00000000000|  2,00000000000|  0,00000000000|  6,00000000000| 10,00000000000|  7,00000000000|  8,00000000000|  9,00000000000| 13,00000000000
Giant_Panda               |  5,00000000000| 10,00000000000| 10,00000000000|  7,00000000000|  8,00000000000|  8,00000000000|  7,00000000000|  9,00000000000|  9,00000000000|  9,00000000000|  5,00000000000| 11,00000000000| 11,00000000000| 13,00000000000| 13,00000000000| 11,00000000000| 12,00000000000| 11,00000000000|  6,00000000000|  6,00000000000| 11,00000000000| 11,00000000000|  2,00000000000|  6,00000000000|  6,00000000000|  0,00000000000|  8,00000000000|  5,00000000000|  6,00000000000|  7,00000000000| 11,00000000000
Rabbit                    |  7,00000000000| 12,00000000000| 12,00000000000|  9,00000000000| 10,00000000000| 10,00000000000|  9,00000000000| 11,00000000000| 11,00000000000| 11,00000000000|  9,00000000000|  5,00000000000|  5,00000000000|  7,00000000000|  7,00000000000|  5,00000000000|  6,00000000000|  5,00000000000| 10,00000000000| 10,00000000000|  5,00000000000|  5,00000000000|  8,00000000000| 10,00000000000| 10,00000000000|  8,00000000000|  0,00000000000|  5,00000000000|  4,00000000000|  3,00000000000|  5,00000000000
Hedgehog                  |  4,00000000000|  9,00000000000|  9,00000000000|  6,00000000000|  7,00000000000|  7,00000000000|  6,00000000000|  8,00000000000|  8,00000000000|  8,00000000000|  6,00000000000|  8,00000000000|  8,00000000000| 10,00000000000| 10,00000000000|  8,00000000000|  9,00000000000|  8,00000000000|  7,00000000000|  7,00000000000|  8,00000000000|  8,00000000000|  5,00000000000|  7,00000000000|  7,00000000000|  5,00000000000|  5,00000000000|  0,00000000000|  3,00000000000|  4,00000000000|  8,00000000000
Dormouse                  |  5,00000000000| 10,00000000000| 10,00000000000|  7,00000000000|  8,00000000000|  8,00000000000|  7,00000000000|  9,00000000000|  9,00000000000|  9,00000000000|  7,00000000000|  7,00000000000|  7,00000000000|  9,00000000000|  9,00000000000|  7,00000000000|  8,00000000000|  7,00000000000|  8,00000000000|  8,00000000000|  7,00000000000|  7,00000000000|  6,00000000000|  8,00000000000|  8,00000000000|  6,00000000000|  4,00000000000|  3,00000000000|  0,00000000000|  3,00000000000|  7,00000000000
Squirrel                  |  6,00000000000| 11,00000000000| 11,00000000000|  8,00000000000|  9,00000000000|  9,00000000000|  8,00000000000| 10,00000000000| 10,00000000000| 10,00000000000|  8,00000000000|  6,00000000000|  6,00000000000|  8,00000000000|  8,00000000000|  6,00000000000|  7,00000000000|  6,00000000000|  9,00000000000|  9,00000000000|  6,00000000000|  6,00000000000|  7,00000000000|  9,00000000000|  9,00000000000|  7,00000000000|  3,00000000000|  4,00000000000|  3,00000000000|  0,00000000000|  6,00000000000
Blue_Whale                | 10,00000000000| 15,00000000000| 15,00000000000| 12,00000000000| 13,00000000000| 13,00000000000| 12,00000000000| 14,00000000000| 14,00000000000| 14,00000000000| 12,00000000000|  6,00000000000|  4,00000000000|  6,00000000000|  6,00000000000|  2,00000000000|  5,00000000000|  6,00000000000| 13,00000000000| 13,00000000000|  6,00000000000|  6,00000000000| 11,00000000000| 13,00000000000| 13,00000000000| 11,00000000000|  5,00000000000|  8,00000000000|  7,00000000000|  6,00000000000|  0,00000000000
