                           |Human          |P_Chim         |Com_Chim       |Gibbon         |Baboon         |Ver_Monkey     |Macaca_Thibet  |Bor_Oran       |Sum_Oran       |Gorilla        |Cat            |Dog            |Pig            |Sheep          |Goat           |Cow            |Buffalo        |Wolf           |Tiger          |Leopard        |Indian_Rhino   |White_Rhino    |Black_Bear     |Brown_Bear     |Polar_Bear     |Giant_Panda    |Rabbit         |Hedgehog       |Dormouse       |Squirrel       |Blue_Whale     
Human                     |  0,00000000000|  7,32833919767|  7,50944586884|  8,68834618126|  9,13283675967|  9,37732466607|  9,43545481050|  8,44071883264|  8,88145510753|  7,59680571990| 10,25501515482| 10,27145357433| 10,71441310701| 10,90035158050| 10,61404186565| 10,38102475672| 10,13727911619| 10,20253161829|  9,95908970670| 10,27187159052| 10,16839070190|  9,86264619820| 10,84102898060| 10,67565965283| 10,90430562972| 11,33238795563| 10,41227943074| 12,59591147329| 11,93438507892| 11,14240747293| 10,47395203101
P_Chim                    |  7,32833919767|  0,00000000000|  5,91841509845|  8,46645169267|  8,90408163974|  9,28419811600|  9,48391690701|  8,60199873195|  8,90245415244|  6,86832777867| 10,12178131872|  9,92100946545| 10,38164459752| 10,71079705586| 10,51168836747| 10,12286619082|  9,99315283893|  9,83618986446|  9,82108432435| 10,09567193972|  9,91360440546|  9,63646050155| 10,57325123003| 10,45528172107| 10,71880205464| 10,98829540683| 10,22598931160| 12,42856151152| 11,79963343746| 10,95549727011| 10,29425569513
Com_Chim                  |  7,50944586884|  5,91841509845|  0,00000000000|  8,54184994483|  8,82655461219|  9,56378570335|  9,63862694367|  8,93702094277|  9,18535264155|  6,82551193944| 10,42723076078| 10,01144725863| 10,53612846782| 11,05733192358| 10,77829379306| 10,31121182746| 10,17518498752| 10,04343143539|  9,92892955823| 10,37212146716| 10,00752506284|  9,86822233988| 10,95346668955| 10,86402430442| 11,17060319137| 11,37573613732| 10,48210080295| 12,69395304864| 12,19480196602| 11,23882581881| 10,68990497218
Gibbon                    |  8,68834618126|  8,46645169267|  8,54184994483|  0,00000000000|  9,10189772680|  9,29763410669|  9,12888551988|  9,04430956430|  9,15449769859|  8,62865861483| 10,45279922888| 10,24530475568| 10,79274601308| 11,12980438910| 10,84508258852| 10,66337269155| 10,33586727424| 10,20832893628|  9,97375548676| 10,36250545635| 10,21945886551|  9,90765062083| 10,95564576070| 10,84829155586| 11,10727207456| 11,50938487033| 10,63021508268| 12,77709538661| 12,08023338771| 11,27426010603| 10,60985571825
Baboon                    |  9,13283675967|  8,90408163974|  8,82655461219|  9,10189772680|  0,00000000000|  9,28438682989|  9,20265592777|  9,45114035792|  9,59097132625|  8,93426328871| 10,41995998125| 10,24946487700| 10,50701750409| 10,98785333153| 10,76209185761| 10,43348861037| 10,09070320431| 10,19227044927| 10,02009352019| 10,35007484987| 10,17990591254|  9,85743686986| 10,83854053794| 10,66068733603| 10,95968291563| 11,25764588079| 10,58604665600| 12,77018334024| 12,10530548887| 11,27510734880| 10,56444314138
Ver_Monkey                |  9,37732466607|  9,28419811600|  9,56378570335|  9,29763410669|  9,28438682989|  0,00000000000|  9,06835539638|  9,48470765960|  9,54294643866|  9,47465638094| 10,17357126217| 10,24546838573| 10,38904121711| 10,55512024023| 10,33708206151| 10,31600097104| 10,08230795690| 10,17245934371| 10,06982476458| 10,09240262874| 10,11388751817|  9,82871788276| 10,40055256791| 10,34501092583| 10,56859693850| 10,97444683398| 10,21296336088| 12,06538783800| 11,44594158633| 10,72192120960| 10,15290749446
Macaca_Thibet             |  9,43545481050|  9,48391690701|  9,63862694367|  9,12888551988|  9,20265592777|  9,06835539638|  0,00000000000|  9,53553669389|  9,57811021244|  9,49886099940| 10,23459692385| 10,23636630068| 10,47149141813| 10,54838459453| 10,36314158071| 10,46850311007| 10,06115648123| 10,22191562248| 10,03513251043| 10,15305267411| 10,12551750081|  9,82538075140| 10,52663855469| 10,44646999916| 10,62948283591| 11,20797476202| 10,15588796524| 12,00980040093| 11,34775289489| 10,72803079417| 10,32144220941
Bor_Oran                  |  8,44071883264|  8,60199873195|  8,93702094277|  9,04430956430|  9,45114035792|  9,48470765960|  9,53553669389|  0,00000000000|  7,84752227357|  8,74952289672| 10,37105186753| 10,69604673376| 10,80764967335| 11,00934993740| 10,69892019520| 10,62353286859| 10,42081804434| 10,46963148754| 10,34468369803| 10,27931872972| 10,43584496549| 10,03677828307| 10,70617861167| 10,66137650155| 10,80734861683| 11,47268667567| 10,57238881296| 12,82682831708| 11,90459772785| 11,32803881444| 10,58046103645
Sum_Oran                  |  8,88145510753|  8,90245415244|  9,18535264155|  9,15449769859|  9,59097132625|  9,54294643866|  9,57811021244|  7,84752227357|  0,00000000000|  8,97613684535| 10,60834723976| 10,80388243344| 11,01388856254| 11,05273025368| 10,80384008131| 10,79120405801| 10,49269524487| 10,65713924751| 10,50006772218| 10,52041856699| 10,66864205453| 10,14873474713| 10,86991047256| 10,85088926795| 11,00721203262| 11,65925781757| 10,63539354031| 12,92389123071| 12,09144103712| 11,52079457909| 10,72608900427
Gorilla                   |  7,59680571990|  6,86832777867|  6,82551193944|  8,62865861483|  8,93426328871|  9,47465638094|  9,49886099940|  8,74952289672|  8,97613684535|  0,00000000000| 10,19506352089|  9,96420630061| 10,45671977603| 10,91428730281| 10,62044592566| 10,28842926563| 10,08545597604|  9,95077532474|  9,84772389263| 10,15298284321|  9,92690130573|  9,72040606554| 10,71977875250| 10,60824851889| 10,89827360846| 11,25297340566| 10,32298463528| 12,44514152926| 11,89583432007| 11,04035478679| 10,49930203785
Cat                       | 10,25501515482| 10,12178131872| 10,42723076078| 10,45279922888| 10,41995998125| 10,17357126217| 10,23459692385| 10,37105186753| 10,60834723976| 10,19506352089|  0,00000000000|  9,48448188744|  9,07345983237|  9,34678437583|  9,26107139830|  9,19901177017|  9,18424995410|  9,18896382044|  8,08362116050|  7,31825738288|  9,47545676749|  9,22584685570|  9,08066099806|  9,05101887032|  9,25061351810|  9,33010632093|  9,34442990229| 11,07511949892| 10,30224164587|  9,54845804593|  9,15768138419
Dog                       | 10,27145357433|  9,92100946545| 10,01144725863| 10,24530475568| 10,24946487700| 10,24546838573| 10,23636630068| 10,69604673376| 10,80388243344|  9,96420630061|  9,48448188744|  0,00000000000|  9,40559021891|  9,92789894135|  9,80614785172|  9,48250986526|  9,59534850058|  6,11137434098|  9,12077309023|  9,56139510479|  9,29728799551|  9,37881853511|  9,92710609519|  9,87939540093| 10,20336880132| 10,24284605468|  9,80056234621| 11,28216250171| 10,99595697825| 10,11700447890|  9,90701103797
Pig                       | 10,71441310701| 10,38164459752| 10,53612846782| 10,79274601308| 10,50701750409| 10,38904121711| 10,47149141813| 10,80764967335| 11,01388856254| 10,45671977603|  9,07345983237|  9,40559021891|  0,00000000000|  9,16727171147|  9,20869781015|  9,02064513998|  9,02979652583|  9,28439383438|  9,14385295780|  9,13756958897|  9,45958227785|  9,28725157191|  9,23316071621|  9,29946452120|  9,49118225210|  9,33980069109|  9,52398366974| 11,02721518928| 10,53627087305|  9,60521294694|  9,28994376329
Sheep                     | 10,90035158050| 10,71079705586| 11,05733192358| 11,12980438910| 10,98785333153| 10,55512024023| 10,54838459453| 11,00934993740| 11,05273025368| 10,91428730281|  9,34678437583|  9,92789894135|  9,16727171147|  0,00000000000|  7,26078769909|  8,74379822502|  8,52573146522|  9,65522386463|  9,68986248163|  9,42862252750|  9,93170951006|  9,55308175521|  9,24210083125|  9,33080041260|  9,41605065743|  9,52564621716|  9,53496642753| 10,34310709035|  9,75574250375|  9,30552002907|  9,03560320712
Goat                      | 10,61404186565| 10,51168836747| 10,77829379306| 10,84508258852| 10,76209185761| 10,33708206151| 10,36314158071| 10,69892019520| 10,80384008131| 10,62044592566|  9,26107139830|  9,80614785172|  9,20869781015|  7,26078769909|  0,00000000000|  8,51308465677|  8,37783642500|  9,52786138654|  9,57172919514|  9,37058433263|  9,76342578778|  9,39957300316|  9,20892765855|  9,26321111233|  9,32899233168|  9,64052328299|  9,52221487949| 10,60644941670| 10,10519686591|  9,64053108424|  9,03950221074
Cow                       | 10,38102475672| 10,12286619082| 10,31121182746| 10,66337269155| 10,43348861037| 10,31600097104| 10,46850311007| 10,62353286859| 10,79120405801| 10,28842926563|  9,19901177017|  9,48250986526|  9,02064513998|  8,74379822502|  8,51308465677|  0,00000000000|  7,79965823285|  9,27489774149|  9,11358795617|  9,41176340776|  9,71782957238|  9,30518589050|  9,30510511331|  9,29160160493|  9,42994064636|  9,49635915789|  9,64509200883| 11,38759839856| 10,97360027856|  9,98569719429|  9,30777928037
Buffalo                   | 10,13727911619|  9,99315283893| 10,17518498752| 10,33586727424| 10,09070320431| 10,08230795690| 10,06115648123| 10,42081804434| 10,49269524487| 10,08545597604|  9,18424995410|  9,59534850058|  9,02979652583|  8,52573146522|  8,37783642500|  7,79965823285|  0,00000000000|  9,39422572947|  9,22313174353|  9,32611973345|  9,62927822860|  9,23535793794|  9,27962882861|  9,29471240881|  9,49254820454|  9,74524833483|  9,65615293304| 11,26246179984| 10,83441123747|  9,89583582185|  9,26360245792
Wolf                      | 10,20253161829|  9,83618986446| 10,04343143539| 10,20832893628| 10,19227044927| 10,17245934371| 10,22191562248| 10,46963148754| 10,65713924751|  9,95077532474|  9,18896382044|  6,11137434098|  9,28439383438|  9,65522386463|  9,52786138654|  9,27489774149|  9,39422572947|  0,00000000000|  9,04933511422|  9,32089567593|  9,31046902979|  9,21058916192|  9,60264771477|  9,56901816302|  9,81796054254|  9,91040756777|  9,72477186788| 11,25316576608| 10,77290469313|  9,98646669249|  9,60165826756
Tiger                     |  9,95908970670|  9,82108432435|  9,92892955823|  9,97375548676| 10,02009352019| 10,06982476458| 10,03513251043| 10,34468369803| 10,50006772218|  9,84772389263|  8,08362116050|  9,12077309023|  9,14385295780|  9,68986248163|  9,57172919514|  9,11358795617|  9,22313174353|  9,04933511422|  0,00000000000|  8,14151014241|  9,24794505069|  9,10636200300|  9,51007075348|  9,36694195354|  9,64258474283|  9,72704989883|  9,62398715740| 11,57893813536| 10,92306881450|  9,87685538052|  9,60042131320
Leopard                   | 10,27187159052| 10,09567193972| 10,37212146716| 10,36250545635| 10,35007484987| 10,09240262874| 10,15305267411| 10,27931872972| 10,52041856699| 10,15298284321|  7,31825738288|  9,56139510479|  9,13756958897|  9,42862252750|  9,37058433263|  9,41176340776|  9,32611973345|  9,32089567593|  8,14151014241|  0,00000000000|  9,57648160770|  9,20725452793|  9,16729548161|  9,16473097501|  9,30308513258|  9,65783127658|  9,34229953877| 11,12195955773| 10,41318043947|  9,60186252652|  9,36093181669
Indian_Rhino              | 10,16839070190|  9,91360440546| 10,00752506284| 10,21945886551| 10,17990591254| 10,11388751817| 10,12551750081| 10,43584496549| 10,66864205453|  9,92690130573|  9,47545676749|  9,29728799551|  9,45958227785|  9,93170951006|  9,76342578778|  9,71782957238|  9,62927822860|  9,31046902979|  9,24794505069|  9,57648160770|  0,00000000000|  7,34717813269| 10,04217389543| 10,01908352518| 10,28116073198| 10,33848070463| 10,00186115221| 11,23077371802| 10,72935408723| 10,07423983751|  9,63959527368
White_Rhino               |  9,86264619820|  9,63646050155|  9,86822233988|  9,90765062083|  9,85743686986|  9,82871788276|  9,82538075140| 10,03677828307| 10,14873474713|  9,72040606554|  9,22584685570|  9,37881853511|  9,28725157191|  9,55308175521|  9,39957300316|  9,30518589050|  9,23535793794|  9,21058916192|  9,10636200300|  9,20725452793|  7,34717813269|  0,00000000000|  9,71589520176|  9,70929787038|  9,85300771660| 10,08125940912|  9,68978859654| 11,24834904595| 10,65777524245| 10,03080691135|  9,56080763347
Black_Bear                | 10,84102898060| 10,57325123003| 10,95346668955| 10,95564576070| 10,83854053794| 10,40055256791| 10,52663855469| 10,70617861167| 10,86991047256| 10,71977875250|  9,08066099806|  9,92710609519|  9,23316071621|  9,24210083125|  9,20892765855|  9,30510511331|  9,27962882861|  9,60264771477|  9,51007075348|  9,16729548161| 10,04217389543|  9,71589520176|  0,00000000000|  6,60242871504|  6,79902097716|  8,25717216579|  9,51306239704| 11,04576132597| 10,43193083532|  9,81883469683|  9,14223755766
Brown_Bear                | 10,67565965283| 10,45528172107| 10,86402430442| 10,84829155586| 10,66068733603| 10,34501092583| 10,44646999916| 10,66137650155| 10,85088926795| 10,60824851889|  9,05101887032|  9,87939540093|  9,29946452120|  9,33080041260|  9,26321111233|  9,29160160493|  9,29471240881|  9,56901816302|  9,36694195354|  9,16473097501| 10,01908352518|  9,70929787038|  6,60242871504|  0,00000000000|  5,53352300655|  8,29766749884|  9,59131706771| 11,27799072796| 10,63929393146|  9,93850293540|  8,99761082018
Polar_Bear                | 10,90430562972| 10,71880205464| 11,17060319137| 11,10727207456| 10,95968291563| 10,56859693850| 10,62948283591| 10,80734861683| 11,00721203262| 10,89827360846|  9,25061351810| 10,20336880132|  9,49118225210|  9,41605065743|  9,32899233168|  9,42994064636|  9,49254820454|  9,81796054254|  9,64258474283|  9,30308513258| 10,28116073198|  9,85300771660|  6,79902097716|  5,53352300655|  0,00000000000|  8,46927628007|  9,74830047072| 11,25706524338| 10,52755055585| 10,04238212082|  9,21873743930
Giant_Panda               | 11,33238795563| 10,98829540683| 11,37573613732| 11,50938487033| 11,25764588079| 10,97444683398| 11,20797476202| 11,47268667567| 11,65925781757| 11,25297340566|  9,33010632093| 10,24284605468|  9,33980069109|  9,52564621716|  9,64052328299|  9,49635915789|  9,74524833483|  9,91040756777|  9,72704989883|  9,65783127658| 10,33848070463| 10,08125940912|  8,25717216579|  8,29766749884|  8,46927628007|  0,00000000000| 10,07002861933| 11,28664555145| 10,62067054432|  9,95386248651|  9,30725567448
Rabbit                    | 10,41227943074| 10,22598931160| 10,48210080295| 10,63021508268| 10,58604665600| 10,21296336088| 10,15588796524| 10,57238881296| 10,63539354031| 10,32298463528|  9,34442990229|  9,80056234621|  9,52398366974|  9,53496642753|  9,52221487949|  9,64509200883|  9,65615293304|  9,72477186788|  9,62398715740|  9,34229953877| 10,00186115221|  9,68978859654|  9,51306239704|  9,59131706771|  9,74830047072| 10,07002861933|  0,00000000000| 10,90638333605| 10,29539249333|  9,67131089658|  9,70072739163
Hedgehog                  | 12,59591147329| 12,42856151152| 12,69395304864| 12,77709538661| 12,77018334024| 12,06538783800| 12,00980040093| 12,82682831708| 12,92389123071| 12,44514152926| 11,07511949892| 11,28216250171| 11,02721518928| 10,34310709035| 10,60644941670| 11,38759839856| 11,26246179984| 11,25316576608| 11,57893813536| 11,12195955773| 11,23077371802| 11,24834904595| 11,04576132597| 11,27799072796| 11,25706524338| 11,28664555145| 10,90638333605|  0,00000000000|  9,64860528654|  9,91182935364| 10,98891437747
Dormouse                  | 11,93438507892| 11,79963343746| 12,19480196602| 12,08023338771| 12,10530548887| 11,44594158633| 11,34775289489| 11,90459772785| 12,09144103712| 11,89583432007| 10,30224164587| 10,99595697825| 10,53627087305|  9,75574250375| 10,10519686591| 10,97360027856| 10,83441123747| 10,77290469313| 10,92306881450| 10,41318043947| 10,72935408723| 10,65777524245| 10,43193083532| 10,63929393146| 10,52755055585| 10,62067054432| 10,29539249333|  9,64860528654|  0,00000000000|  9,46249826958| 10,17428510524
Squirrel                  | 11,14240747293| 10,95549727011| 11,23882581881| 11,27426010603| 11,27510734880| 10,72192120960| 10,72803079417| 11,32803881444| 11,52079457909| 11,04035478679|  9,54845804593| 10,11700447890|  9,60521294694|  9,30552002907|  9,64053108424|  9,98569719429|  9,89583582185|  9,98646669249|  9,87685538052|  9,60186252652| 10,07423983751| 10,03080691135|  9,81883469683|  9,93850293540| 10,04238212082|  9,95386248651|  9,67131089658|  9,91182935364|  9,46249826958|  0,00000000000|  9,72598831692
Blue_Whale                | 10,47395203101| 10,29425569513| 10,68990497218| 10,60985571825| 10,56444314138| 10,15290749446| 10,32144220941| 10,58046103645| 10,72608900427| 10,49930203785|  9,15768138419|  9,90701103797|  9,28994376329|  9,03560320712|  9,03950221074|  9,30777928037|  9,26360245792|  9,60165826756|  9,60042131320|  9,36093181669|  9,63959527368|  9,56080763347|  9,14223755766|  8,99761082018|  9,21873743930|  9,30725567448|  9,70072739163| 10,98891437747| 10,17428510524|  9,72598831692|  0,00000000000
