                           |Human          |P_Chim         |Com_Chim       |Gibbon         |Baboon         |Ver_Monkey     |Macaca_Thibet  |Bor_Oran       |Sum_Oran       |Gorilla        |Cat            |Dog            |Pig            |Sheep          |Goat           |Cow            |Buffalo        |Wolf           |Tiger          |Leopard        |Indian_Rhino   |White_Rhino    |Black_Bear     |Brown_Bear     |Polar_Bear     |Giant_Panda    |Rabbit         |Hedgehog       |Dormouse       |Squirrel       |Blue_Whale     
Human                     |  0,00000000000|  6,73614564011|  6,71905064583|  8,31567051178|  9,86715959282|  9,64994796548|  9,64731796636|  8,33326520589|  8,02989480737|  7,03751723930| 10,38274462036| 10,35002743131| 10,40231181382| 10,38963521806| 10,47224349043| 10,29629654928| 10,28682855245| 10,29629654928| 10,15188329758| 10,28703895238| 10,10783081232| 10,05165403111| 11,02762040466| 11,19194274970| 11,16004086037| 10,89062375048| 10,44042050107| 11,04079670025| 10,86461305918| 10,50411907976| 10,20498297982
P_Chim                    |  6,73614564011|  0,00000000000|  5,70800008401|  8,34141820316|  9,87334009075|  9,65910036241|  9,56826019280|  8,20447414897|  8,01987451072|  7,23032247481| 10,25716216237| 10,49862238160| 10,32961863813| 10,26660385921| 10,37858922175| 10,19751378232| 10,38976671801| 10,43700150222| 10,17368599029| 10,26823445867| 10,21631827603| 10,15054199803| 10,93680653504| 11,10026098036| 11,05544579535| 10,81361737624| 10,35328863022| 11,04787139789| 10,73616390215| 10,49281008355| 10,39126581751
Com_Chim                  |  6,71905064583|  5,70800008401|  0,00000000000|  8,37292559263|  9,76566792677|  9,66215116139|  9,62835567270|  8,22314714272|  8,10150968341|  7,16323119725| 10,29145735090| 10,46395899320| 10,21284667719| 10,28514535301| 10,27570365617| 10,18460048664| 10,22226207404| 10,39413251655| 10,14565019967| 10,20884907853| 10,22539177300| 10,14078470130| 10,85283066312| 11,02851460436| 10,99035331713| 10,79736398168| 10,36880562503| 10,95968752738| 10,67488492265| 10,53402216976| 10,26626195933
Gibbon                    |  8,31567051178|  8,34141820316|  8,37292559263|  0,00000000000|  9,63364197093|  9,64894856581|  9,40577884715|  8,91349561181|  8,79014865307|  8,27856122419| 10,34303163365| 10,59009375101| 10,57728565529| 10,30505444635| 10,69303191658| 10,38584801933| 10,37317142357| 10,49409878312| 10,05683512938| 10,19469968326| 10,17271289062| 10,13818100217| 11,08382348586| 11,39650408127| 11,47719245428| 11,11014977705| 10,55806036172| 11,67139158933| 11,05097479685| 10,74468509930| 10,42398300657
Baboon                    |  9,86715959282|  9,87334009075|  9,76566792677|  9,63364197093|  0,00000000000|  8,10695378159|  8,18043595701|  9,45819472961|  9,42800233971|  9,75033503190| 10,95703122827| 11,03766700130| 10,45725249544| 11,02459590567| 10,73242930340| 10,84878046448| 10,74531629909| 10,94624823188| 11,10070808021| 10,86824245797| 10,38114032090| 10,66168232706| 10,94974613071| 11,18539405189| 11,11419997570| 10,88120835363| 10,59756294851| 11,62896970352| 11,48784395072| 11,23502213529| 10,54640946562
Ver_Monkey                |  9,64994796548|  9,65910036241|  9,66215116139|  9,64894856581|  8,10695378159|  0,00000000000|  8,32790000769|  9,49525141722|  9,44094193539|  9,68042965528| 10,86014206068| 11,00005801388| 10,27807065538| 10,93493923566| 10,71515020918| 10,79891568116| 10,83473626918| 10,93493923566| 11,02896170421| 11,01973040730| 10,31896714170| 10,83121207036| 10,81416967606| 11,01549610872| 11,05544579535| 11,13605526839| 10,50414537976| 11,96237469199| 11,29577511496| 10,81827247468| 10,81182897684
Macaca_Thibet             |  9,64731796636|  9,56826019280|  9,62835567270|  9,40577884715|  8,18043595701|  8,32790000769|  0,00000000000|  9,51068951206|  9,57128469179|  9,46676852675| 10,72530200578| 10,81624737536| 10,40673021234| 10,83565676887| 10,73882020126| 10,71307250987| 10,71935820777| 10,70662901203| 10,98343641944| 11,03274890294| 10,29463964983| 10,45109829750| 11,00813211118| 11,22479143871| 11,29156711637| 11,20148964650| 10,45109829750| 11,85162542904| 11,47366825546| 10,90048624718| 10,49557158262
Bor_Oran                  |  8,33326520589|  8,20447414897|  8,22314714272|  8,91349561181|  9,45819472961|  9,49525141722|  9,51068951206|  0,00000000000|  6,39587635393|  8,31577571174| 10,78297788649| 11,29043621675| 10,14638659942| 10,49617648242| 10,46424829310| 10,47700378883| 10,75133899707| 11,29204051621| 10,92505043897| 10,87068835715| 10,21552927629| 10,49617648242| 10,80775247820| 11,09373858254| 10,96436892582| 10,74686799857| 10,43876360163| 11,57928902013| 11,04671419827| 10,83113317038| 10,60505844600
Sum_Oran                  |  8,02989480737|  8,01987451072|  8,10150968341|  8,79014865307|  9,42800233971|  9,44094193539|  9,57128469179|  6,39587635393|  0,00000000000|  8,08609788857| 10,88594235205| 11,15951486054| 10,15130469778| 10,65847372814| 10,41517250952| 10,60700464535| 10,90558844548| 11,15454416221| 11,02243930639| 10,78692288517| 10,34371543342| 10,62628253890| 10,81416967606| 11,05457789564| 10,93843713449| 10,71007431088| 10,40246961377| 11,77837995354| 11,15425486230| 10,86569135882| 10,60700464535
Gorilla                   |  7,03751723930|  7,23032247481|  7,16323119725|  8,27856122419|  9,75033503190|  9,68042965528|  9,46676852675|  8,31577571174|  8,08609788857|  0,00000000000| 10,42679710563| 10,57520795599| 10,32572623944| 10,37156712410| 10,48586688587| 10,18099738785| 10,21237327735| 10,52410707308| 10,32388524005| 10,30897314504| 10,12776620565|  9,97514735670| 11,02112430683| 11,17227035628| 11,05544579535| 10,94974613071| 10,23436007000| 10,98890681761| 11,00197791324| 10,52410707308| 10,27525655632
Cat                       | 10,38274462036| 10,25716216237| 10,29145735090| 10,34303163365| 10,95703122827| 10,86014206068| 10,72530200578| 10,78297788649| 10,88594235205| 10,42679710563|  0,00000000000|  9,16487092773|  9,48375832106|  9,60429118075|  9,64666046658|  9,40580514714|  9,57107429186|  9,05285926519|  7,13272320746|  7,11712731268|  9,40580514714|  9,50180011503|  9,26360109470|  9,53241330479|  9,57835938942|  9,45674823010|  9,97967095519| 10,73169290364| 10,15916839515|  9,66486006049|  9,68000885542
Dog                       | 10,35002743131| 10,49862238160| 10,46395899320| 10,59009375101| 11,03766700130| 11,00005801388| 10,81624737536| 11,29043621675| 11,15951486054| 10,57520795599|  9,16487092773|  0,00000000000|  9,66012606207|  9,37792715646|  9,37792715646|  9,21760241009|  9,45256653150|  5,45578316838|  9,20653011379|  9,12770904016|  9,62083387521|  9,47652582348|  9,12139704227|  9,20918641291|  9,28114318884|  9,36004316245| 10,00786454576| 10,75265399663|  9,80275091436|  9,97096565810|  9,47352762449
Pig                       | 10,40231181382| 10,32961863813| 10,21284667719| 10,57728565529| 10,45725249544| 10,27807065538| 10,40673021234| 10,14638659942| 10,15130469778| 10,32572623944|  9,48375832106|  9,66012606207|  0,00000000000|  9,27314799151|  9,19064491911|  9,23709070357|  9,08699665378|  9,54366970102|  9,71156884486|  9,55187529828|  9,10235584864|  9,20003401597|  9,82763070604|  9,83033960514|  9,73931533558|  9,70204824805|  9,69897114908| 10,41330521014| 10,40076011434| 10,10335981381|  9,14761813350
Sheep                     | 10,38963521806| 10,26660385921| 10,28514535301| 10,30505444635| 11,02459590567| 10,93493923566| 10,83565676887| 10,49617648242| 10,65847372814| 10,37156712410|  9,60429118075|  9,37792715646|  9,27314799151|  0,00000000000|  6,97484436027|  7,82154627706|  7,87743375836|  9,31054657900|  9,66291386114|  9,46150852851|  9,26496869425|  9,61349617767|  9,90426888041| 10,00263084751|  9,94161486792|  9,58751178636|  9,80853691243| 10,52373887320| 10,07024812489| 10,16910979182|  9,25134529880
Goat                      | 10,47224349043| 10,37858922175| 10,27570365617| 10,69303191658| 10,73242930340| 10,71515020918| 10,73882020126| 10,46424829310| 10,41517250952| 10,48586688587|  9,64666046658|  9,37792715646|  9,19064491911|  6,97484436027|  0,00000000000|  7,66245763027|  7,94118493704|  9,31946227602|  9,67808895606|  9,60326548109|  9,43378833778|  9,68934535230|  9,65097366513|  9,69907634904|  9,63287927118|  9,52449700744|  9,74149823485| 10,56818585834| 10,12292700727| 10,15385579692|  9,20979131270
Cow                       | 10,29629654928| 10,19751378232| 10,18460048664| 10,38584801933| 10,84878046448| 10,79891568116| 10,71307250987| 10,47700378883| 10,60700464535| 10,18099738785|  9,40580514714|  9,21760241009|  9,23709070357|  7,82154627706|  7,66245763027|  0,00000000000|  7,31750694565|  9,13601983738|  9,45140933188|  9,38050455560|  9,23117320555|  9,32606357381|  9,76043422852|  9,55353219773|  9,66017866205|  9,79296731764|  9,75267573111| 10,27899115507|  9,88983018524|  9,96336496064|  9,16915782629
Buffalo                   | 10,28682855245| 10,38976671801| 10,22226207404| 10,37317142357| 10,74531629909| 10,83473626918| 10,71935820777| 10,75133899707| 10,90558844548| 10,21237327735|  9,57107429186|  9,45256653150|  9,08699665378|  7,87743375836|  7,94118493704|  7,31750694565|  0,00000000000|  9,43870643613|  9,50558731376|  9,48857121945|  9,24947799943|  9,27322689148| 10,05536232987|  9,89169748461|  9,99716044934|  9,95305536409|  9,90084988155| 10,28162115419| 10,03313883730| 10,10115061455|  9,28808638651
Wolf                      | 10,29629654928| 10,43700150222| 10,39413251655| 10,49409878312| 10,94624823188| 10,93493923566| 10,70662901203| 11,29204051621| 11,15454416221| 10,52410707308|  9,05285926519|  5,45578316838|  9,54366970102|  9,31054657900|  9,31946227602|  9,13601983738|  9,43870643613|  0,00000000000|  9,11471684450|  9,05690946384|  9,57073239197|  9,47463222412|  9,09486035115|  9,11739944361|  9,16826362659|  9,23935250282|  9,81308681091| 10,62665073878|  9,86802749253|  9,85884879560|  9,39091935212
Tiger                     | 10,15188329758| 10,17368599029| 10,14565019967| 10,05683512938| 11,10070808021| 11,02896170421| 10,98343641944| 10,92505043897| 11,02243930639| 10,32388524005|  7,13272320746|  9,20653011379|  9,71156884486|  9,66291386114|  9,67808895606|  9,45140933188|  9,50558731376|  9,11471684450|  0,00000000000|  6,64772506969|  9,61738857637|  9,37942625596|  9,50858551276|  9,55958119570|  9,59619078346|  9,43639203691| 10,13944340174| 10,89270144979| 10,26744545893|  9,82150280809|  9,67506445707
Leopard                   | 10,28703895238| 10,26823445867| 10,20884907853| 10,19469968326| 10,86824245797| 11,01973040730| 11,03274890294| 10,87068835715| 10,78692288517| 10,30897314504|  7,11712731268|  9,12770904016|  9,55187529828|  9,46150852851|  9,60326548109|  9,38050455560|  9,48857121945|  9,05690946384|  6,64772506969|  0,00000000000|  9,53375460434|  9,67908835573|  9,36256796160|  9,41808724303|  9,47652582348|  9,40746204658|  9,92680797287| 10,69071751735| 10,01004744503| 10,08747461913|  9,65783796284
Indian_Rhino              | 10,10783081232| 10,21631827603| 10,22539177300| 10,17271289062| 10,38114032090| 10,31896714170| 10,29463964983| 10,21552927629| 10,34371543342| 10,12776620565|  9,40580514714|  9,62083387521|  9,10235584864|  9,26496869425|  9,43378833778|  9,23117320555|  9,24947799943|  9,57073239197|  9,61738857637|  9,53375460434|  0,00000000000|  7,24610246953| 10,02753693918| 10,23578026952| 10,11803520891| 10,07437722351|  9,96475886017| 10,31531144292| 10,09265571739|  9,77019152526|  9,11513764436
White_Rhino               | 10,05165403111| 10,15054199803| 10,14078470130| 10,13818100217| 10,66168232706| 10,83121207036| 10,45109829750| 10,49617648242| 10,62628253890|  9,97514735670|  9,50180011503|  9,47652582348|  9,20003401597|  9,61349617767|  9,68934535230|  9,32606357381|  9,27322689148|  9,47463222412|  9,37942625596|  9,67908835573|  7,24610246953|  0,00000000000|  9,86744889272| 10,15774819562|  9,96010376173| 10,02206654101| 10,13776020231| 10,77808608813| 10,30366054682| 10,21292557717|  9,13578313746
Black_Bear                | 11,02762040466| 10,93680653504| 10,85283066312| 11,08382348586| 10,94974613071| 10,81416967606| 11,00813211118| 10,80775247820| 10,81416967606| 11,02112430683|  9,26360109470|  9,12139704227|  9,82763070604|  9,90426888041|  9,65097366513|  9,76043422852| 10,05536232987|  9,09486035115|  9,50858551276|  9,36256796160| 10,02753693918|  9,86744889272|  0,00000000000|  6,50888741612|  6,56456449750|  8,41108687986| 10,45086159758| 11,23026183688| 10,73713700182| 10,68593091895|  9,94732196601
Brown_Bear                | 11,19194274970| 11,10026098036| 11,02851460436| 11,39650408127| 11,18539405189| 11,01549610872| 11,22479143871| 11,09373858254| 11,05457789564| 11,17227035628|  9,53241330479|  9,20918641291|  9,83033960514| 10,00263084751|  9,69907634904|  9,55353219773|  9,89169748461|  9,11739944361|  9,55958119570|  9,41808724303| 10,23578026952| 10,15774819562|  6,50888741612|  0,00000000000|  5,29022472375|  8,16152626334| 10,33138073754| 11,00250391306| 10,71849030806| 10,48910178479|  9,93169977123
Polar_Bear                | 11,16004086037| 11,05544579535| 10,99035331713| 11,47719245428| 11,11419997570| 11,05544579535| 11,29156711637| 10,96436892582| 10,93843713449| 11,05544579535|  9,57835938942|  9,28114318884|  9,73931533558|  9,94161486792|  9,63287927118|  9,66017866205|  9,99716044934|  9,16826362659|  9,59619078346|  9,47652582348| 10,11803520891|  9,96010376173|  6,56456449750|  5,29022472375|  0,00000000000|  8,15871216428| 10,42661300569| 11,08153538663| 10,86726935830| 10,49622908240|  9,95087246482
Giant_Panda               | 10,89062375048| 10,81361737624| 10,79736398168| 11,11014977705| 10,88120835363| 11,13605526839| 11,20148964650| 10,74686799857| 10,71007431088| 10,94974613071|  9,45674823010|  9,36004316245|  9,70204824805|  9,58751178636|  9,52449700744|  9,79296731764|  9,95305536409|  9,23935250282|  9,43639203691|  9,40746204658| 10,07437722351| 10,02206654101|  8,41108687986|  8,16152626334|  8,15871216428|  0,00000000000| 10,06822302557| 10,98706581822| 10,64795373165| 10,44602239920| 10,18559988631
Rabbit                    | 10,44042050107| 10,35328863022| 10,36880562503| 10,55806036172| 10,59756294851| 10,50414537976| 10,45109829750| 10,43876360163| 10,40246961377| 10,23436007000|  9,97967095519| 10,00786454576|  9,69897114908|  9,80853691243|  9,74149823485|  9,75267573111|  9,90084988155|  9,81308681091| 10,13944340174|  9,92680797287|  9,96475886017| 10,13776020231| 10,45086159758| 10,33138073754| 10,42661300569| 10,06822302557|  0,00000000000| 10,38282352034|  9,94324546737|  9,61420627743|  9,88233468774
Hedgehog                  | 11,04079670025| 11,04787139789| 10,95968752738| 11,67139158933| 11,62896970352| 11,96237469199| 11,85162542904| 11,57928902013| 11,77837995354| 10,98890681761| 10,73169290364| 10,75265399663| 10,41330521014| 10,52373887320| 10,56818585834| 10,27899115507| 10,28162115419| 10,62665073878| 10,89270144979| 10,69071751735| 10,31531144292| 10,77808608813| 11,23026183688| 11,00250391306| 11,08153538663| 10,98706581822| 10,38282352034|  0,00000000000| 10,78952658430| 10,57615475567| 10,66623222554
Dormouse                  | 10,86461305918| 10,73616390215| 10,67488492265| 11,05097479685| 11,48784395072| 11,29577511496| 11,47366825546| 11,04671419827| 11,15425486230| 11,00197791324| 10,15916839515|  9,80275091436| 10,40076011434| 10,07024812489| 10,12292700727|  9,88983018524| 10,03313883730|  9,86802749253| 10,26744545893| 10,01004744503| 10,09265571739| 10,30366054682| 10,73713700182| 10,71849030806| 10,86726935830| 10,64795373165|  9,94324546737| 10,78952658430|  0,00000000000|  9,84622479982| 10,37472312305
Squirrel                  | 10,50411907976| 10,49281008355| 10,53402216976| 10,74468509930| 11,23502213529| 10,81827247468| 10,90048624718| 10,83113317038| 10,86569135882| 10,52410707308|  9,66486006049|  9,97096565810| 10,10335981381| 10,16910979182| 10,15385579692|  9,96336496064| 10,10115061455|  9,85884879560|  9,82150280809| 10,08747461913|  9,77019152526| 10,21292557717| 10,68593091895| 10,48910178479| 10,49622908240| 10,44602239920|  9,61420627743| 10,57615475567|  9,84622479982|  0,00000000000| 10,07658642277
Blue_Whale                | 10,20498297982| 10,39126581751| 10,26626195933| 10,42398300657| 10,54640946562| 10,81182897684| 10,49557158262| 10,60505844600| 10,60700464535| 10,27525655632|  9,68000885542|  9,47352762449|  9,14761813350|  9,25134529880|  9,20979131270|  9,16915782629|  9,28808638651|  9,39091935212|  9,67506445707|  9,65783796284|  9,11513764436|  9,13578313746|  9,94732196601|  9,93169977123|  9,95087246482| 10,18559988631|  9,88233468774| 10,66623222554| 10,37472312305| 10,07658642277|  0,00000000000
