 | Human | P_Chim | Com_Chim | Gibbon | Baboon | Ver_Monkey | Macaca_Thibet | Bor_Oran | Sum_Oran | Gorilla | Cat | Dog | Pig | Sheep | Goat | Cow | Buffalo | Wolf | Tiger | Leopard | Indian_Rhino | White_Rhino | Black_Bear | Brown_Bear | Polar_Bear | Giant_Panda | Rabbit | Hedgehog | Dormouse | Squirrel | Blue_Whale
Human | 0,000000 | 0,070811 | 0,070161 | 0,130869 | 0,189861 | 0,181602 | 0,181502 | 0,131538 | 0,120003 | 0,082270 | 0,209465 | 0,208221 | 0,210209 | 0,209727 | 0,212868 | 0,206178 | 0,205818 | 0,206178 | 0,200687 | 0,205826 | 0,199012 | 0,196876 | 0,233985 | 0,240233 | 0,239020 | 0,228776 | 0,211658 | 0,234486 | 0,227787 | 0,214080 | 0,202706
P_Chim | 0,070811 | 0,000000 | 0,031718 | 0,131848 | 0,190096 | 0,181950 | 0,178496 | 0,126641 | 0,119622 | 0,089601 | 0,204690 | 0,213871 | 0,207445 | 0,205049 | 0,209307 | 0,202422 | 0,209732 | 0,211528 | 0,201516 | 0,205111 | 0,203137 | 0,200636 | 0,230532 | 0,236747 | 0,235043 | 0,225848 | 0,208345 | 0,234755 | 0,222903 | 0,213650 | 0,209789
Com_Chim | 0,070161 | 0,031718 | 0,000000 | 0,133046 | 0,186002 | 0,182066 | 0,180781 | 0,127351 | 0,122726 | 0,087050 | 0,205994 | 0,212553 | 0,203005 | 0,205754 | 0,205395 | 0,201931 | 0,203363 | 0,209898 | 0,200450 | 0,202853 | 0,203482 | 0,200265 | 0,227339 | 0,234019 | 0,232568 | 0,225230 | 0,208935 | 0,231402 | 0,220573 | 0,215217 | 0,205036
Gibbon | 0,130869 | 0,131848 | 0,133046 | 0,000000 | 0,180982 | 0,181564 | 0,172318 | 0,153600 | 0,148910 | 0,129458 | 0,207955 | 0,217349 | 0,216862 | 0,206511 | 0,221263 | 0,209583 | 0,209101 | 0,213699 | 0,197073 | 0,202315 | 0,201479 | 0,200166 | 0,236122 | 0,248011 | 0,251079 | 0,237123 | 0,216131 | 0,258463 | 0,234873 | 0,223227 | 0,211033
Baboon | 0,189861 | 0,190096 | 0,186002 | 0,180982 | 0,000000 | 0,122933 | 0,125727 | 0,174311 | 0,173163 | 0,185419 | 0,231301 | 0,234367 | 0,212298 | 0,233870 | 0,222761 | 0,227185 | 0,223251 | 0,230891 | 0,236764 | 0,227925 | 0,209404 | 0,220071 | 0,231024 | 0,239984 | 0,237277 | 0,228418 | 0,217633 | 0,256850 | 0,251484 | 0,241871 | 0,215688
Ver_Monkey | 0,181602 | 0,181950 | 0,182066 | 0,181564 | 0,122933 | 0,000000 | 0,131334 | 0,175720 | 0,173655 | 0,182761 | 0,227617 | 0,232937 | 0,205485 | 0,230461 | 0,222104 | 0,225289 | 0,226651 | 0,230461 | 0,234036 | 0,233685 | 0,207040 | 0,226517 | 0,225869 | 0,233524 | 0,235043 | 0,238108 | 0,214081 | 0,269527 | 0,244181 | 0,226025 | 0,225780
Macaca_Thibet | 0,181502 | 0,178496 | 0,180781 | 0,172318 | 0,125727 | 0,131334 | 0,000000 | 0,176307 | 0,178611 | 0,174637 | 0,222490 | 0,225948 | 0,210377 | 0,226686 | 0,223004 | 0,222025 | 0,222264 | 0,221780 | 0,232305 | 0,234180 | 0,206115 | 0,212064 | 0,233244 | 0,241482 | 0,244021 | 0,240596 | 0,212064 | 0,265316 | 0,250945 | 0,229151 | 0,213755
Bor_Oran | 0,131538 | 0,126641 | 0,127351 | 0,153600 | 0,174311 | 0,175720 | 0,176307 | 0,000000 | 0,057873 | 0,130873 | 0,224683 | 0,243978 | 0,200478 | 0,213778 | 0,212564 | 0,213049 | 0,223480 | 0,244039 | 0,230085 | 0,228018 | 0,203107 | 0,213778 | 0,225625 | 0,236499 | 0,231580 | 0,223310 | 0,211595 | 0,254961 | 0,234711 | 0,226514 | 0,217918
Sum_Oran | 0,120003 | 0,119622 | 0,122726 | 0,148910 | 0,173163 | 0,173655 | 0,178611 | 0,057873 | 0,000000 | 0,122140 | 0,228598 | 0,239000 | 0,200665 | 0,219949 | 0,210698 | 0,217992 | 0,229345 | 0,238811 | 0,233788 | 0,224833 | 0,207981 | 0,218725 | 0,225869 | 0,235010 | 0,230594 | 0,221911 | 0,210215 | 0,262531 | 0,238800 | 0,227828 | 0,217992
Gorilla | 0,082270 | 0,089601 | 0,087050 | 0,129458 | 0,185419 | 0,182761 | 0,174637 | 0,130873 | 0,122140 | 0,000000 | 0,211140 | 0,216783 | 0,207297 | 0,209040 | 0,213386 | 0,201794 | 0,202987 | 0,214840 | 0,207227 | 0,206660 | 0,199770 | 0,193967 | 0,233738 | 0,239485 | 0,235043 | 0,231024 | 0,203823 | 0,232513 | 0,233010 | 0,214840 | 0,205378
Cat | 0,209465 | 0,204690 | 0,205994 | 0,207955 | 0,231301 | 0,227617 | 0,222490 | 0,224683 | 0,228598 | 0,211140 | 0,000000 | 0,163158 | 0,175283 | 0,179866 | 0,181477 | 0,172319 | 0,178603 | 0,158899 | 0,085890 | 0,085297 | 0,172319 | 0,175969 | 0,166912 | 0,177133 | 0,178880 | 0,174256 | 0,194139 | 0,222733 | 0,200964 | 0,182169 | 0,182745
Dog | 0,208221 | 0,213871 | 0,212553 | 0,217349 | 0,234367 | 0,232937 | 0,225948 | 0,243978 | 0,239000 | 0,216783 | 0,163158 | 0,000000 | 0,181989 | 0,171259 | 0,171259 | 0,165163 | 0,174097 | 0,022128 | 0,164742 | 0,161745 | 0,180495 | 0,175008 | 0,161505 | 0,164843 | 0,167579 | 0,170579 | 0,195211 | 0,223530 | 0,187412 | 0,193808 | 0,174894
Pig | 0,210209 | 0,207445 | 0,203005 | 0,216862 | 0,212298 | 0,205485 | 0,210377 | 0,200478 | 0,200665 | 0,207297 | 0,175283 | 0,181989 | 0,000000 | 0,167275 | 0,164138 | 0,165904 | 0,160197 | 0,177561 | 0,183945 | 0,177873 | 0,160781 | 0,164495 | 0,188358 | 0,188461 | 0,185000 | 0,183583 | 0,183466 | 0,210627 | 0,210150 | 0,198842 | 0,162502
Sheep | 0,209727 | 0,205049 | 0,205754 | 0,206511 | 0,233870 | 0,230461 | 0,226686 | 0,213778 | 0,219949 | 0,209040 | 0,179866 | 0,171259 | 0,167275 | 0,000000 | 0,079887 | 0,112081 | 0,114206 | 0,168697 | 0,182095 | 0,174437 | 0,166964 | 0,180216 | 0,191272 | 0,195012 | 0,192692 | 0,179228 | 0,187632 | 0,214826 | 0,197583 | 0,201342 | 0,166446
Goat | 0,212868 | 0,209307 | 0,205395 | 0,221263 | 0,222761 | 0,222104 | 0,223004 | 0,212564 | 0,210698 | 0,213386 | 0,181477 | 0,171259 | 0,164138 | 0,079887 | 0,000000 | 0,106032 | 0,116630 | 0,169036 | 0,182672 | 0,179827 | 0,173383 | 0,183100 | 0,181641 | 0,183470 | 0,180953 | 0,176832 | 0,185083 | 0,216516 | 0,199586 | 0,200762 | 0,164866
Cow | 0,206178 | 0,202422 | 0,201931 | 0,209583 | 0,227185 | 0,225289 | 0,222025 | 0,213049 | 0,217992 | 0,201794 | 0,172319 | 0,165163 | 0,165904 | 0,112081 | 0,106032 | 0,000000 | 0,092916 | 0,162061 | 0,174053 | 0,171357 | 0,165679 | 0,169287 | 0,185803 | 0,177936 | 0,181991 | 0,187040 | 0,185508 | 0,205520 | 0,190723 | 0,193519 | 0,163321
Buffalo | 0,205818 | 0,209732 | 0,203363 | 0,209101 | 0,223251 | 0,226651 | 0,222264 | 0,223480 | 0,229345 | 0,202987 | 0,178603 | 0,174097 | 0,160197 | 0,114206 | 0,116630 | 0,092916 | 0,000000 | 0,173570 | 0,176113 | 0,175466 | 0,166375 | 0,167278 | 0,197017 | 0,190794 | 0,194804 | 0,193127 | 0,191142 | 0,205620 | 0,196172 | 0,198758 | 0,167843
Wolf | 0,206178 | 0,211528 | 0,209898 | 0,213699 | 0,230891 | 0,230461 | 0,221780 | 0,244039 | 0,238811 | 0,214840 | 0,158899 | 0,022128 | 0,177561 | 0,168697 | 0,169036 | 0,162061 | 0,173570 | 0,000000 | 0,161251 | 0,159053 | 0,178590 | 0,174936 | 0,160496 | 0,161353 | 0,163287 | 0,165990 | 0,187805 | 0,218739 | 0,189894 | 0,189545 | 0,171753
Tiger | 0,200687 | 0,201516 | 0,200450 | 0,197073 | 0,236764 | 0,234036 | 0,232305 | 0,230085 | 0,233788 | 0,207227 | 0,085890 | 0,164742 | 0,183945 | 0,182095 | 0,182672 | 0,174053 | 0,176113 | 0,161251 | 0,000000 | 0,067449 | 0,180364 | 0,171316 | 0,176227 | 0,178166 | 0,179558 | 0,173482 | 0,200214 | 0,228855 | 0,205081 | 0,188125 | 0,182557
Leopard | 0,205826 | 0,205111 | 0,202853 | 0,202315 | 0,227925 | 0,233685 | 0,234180 | 0,228018 | 0,224833 | 0,206660 | 0,085297 | 0,161745 | 0,177873 | 0,174437 | 0,179827 | 0,171357 | 0,175466 | 0,159053 | 0,067449 | 0,000000 | 0,177184 | 0,182710 | 0,170675 | 0,172786 | 0,175008 | 0,172382 | 0,192129 | 0,221175 | 0,195294 | 0,198238 | 0,181902
Indian_Rhino | 0,199012 | 0,203137 | 0,203482 | 0,201479 | 0,209404 | 0,207040 | 0,206115 | 0,203107 | 0,207981 | 0,199770 | 0,172319 | 0,180495 | 0,160781 | 0,166964 | 0,173383 | 0,165679 | 0,166375 | 0,178590 | 0,180364 | 0,177184 | 0,000000 | 0,090201 | 0,195959 | 0,203877 | 0,199400 | 0,197740 | 0,193572 | 0,206901 | 0,198435 | 0,186174 | 0,161267
Ahite_Rhino | 0,196876 | 0,200636 | 0,200265 | 0,200166 | 0,220071 | 0,226517 | 0,212064 | 0,213778 | 0,218725 | 0,193967 | 0,175969 | 0,175008 | 0,164495 | 0,180216 | 0,183100 | 0,169287 | 0,167278 | 0,174936 | 0,171316 | 0,182710 | 0,090201 | 0,000000 | 0,189872 | 0,200910 | 0,193395 | 0,195751 | 0,200150 | 0,224497 | 0,206458 | 0,203008 | 0,162052
Black_Bear | 0,233985 | 0,230532 | 0,227339 | 0,236122 | 0,231024 | 0,225869 | 0,233244 | 0,225625 | 0,225869 | 0,233738 | 0,166912 | 0,161505 | 0,188358 | 0,191272 | 0,181641 | 0,185803 | 0,197017 | 0,160496 | 0,176227 | 0,170675 | 0,195959 | 0,189872 | 0,000000 | 0,062170 | 0,064287 | 0,134497 | 0,212055 | 0,241690 | 0,222940 | 0,220993 | 0,192909
Brown_Bear | 0,240233 | 0,236747 | 0,234019 | 0,248011 | 0,239984 | 0,233524 | 0,241482 | 0,236499 | 0,235010 | 0,239485 | 0,177133 | 0,164843 | 0,188461 | 0,195012 | 0,183470 | 0,177936 | 0,190794 | 0,161353 | 0,178166 | 0,172786 | 0,203877 | 0,200910 | 0,062170 | 0,000000 | 0,015833 | 0,125008 | 0,207512 | 0,233030 | 0,222231 | 0,213509 | 0,192315
Polar_Bear | 0,239020 | 0,235043 | 0,232568 | 0,251079 | 0,237277 | 0,235043 | 0,244021 | 0,231580 | 0,230594 | 0,235043 | 0,178880 | 0,167579 | 0,185000 | 0,192692 | 0,180953 | 0,181991 | 0,194804 | 0,163287 | 0,179558 | 0,175008 | 0,199400 | 0,193395 | 0,064287 | 0,015833 | 0,000000 | 0,124901 | 0,211133 | 0,236035 | 0,227888 | 0,213780 | 0,193044
Giant_Panda | 0,228776 | 0,225848 | 0,225230 | 0,237123 | 0,228418 | 0,238108 | 0,240596 | 0,223310 | 0,221911 | 0,231024 | 0,174256 | 0,170579 | 0,183583 | 0,179228 | 0,176832 | 0,187040 | 0,193127 | 0,165990 | 0,173482 | 0,172382 | 0,197740 | 0,195751 | 0,134497 | 0,125008 | 0,124901 | 0,000000 | 0,197506 | 0,232443 | 0,219549 | 0,211871 | 0,201969
Rabbit | 0,211658 | 0,208345 | 0,208935 | 0,216131 | 0,217633 | 0,214081 | 0,212064 | 0,211595 | 0,210215 | 0,203823 | 0,194139 | 0,195211 | 0,183466 | 0,187632 | 0,185083 | 0,185508 | 0,191142 | 0,187805 | 0,200214 | 0,192129 | 0,193572 | 0,200150 | 0,212055 | 0,207512 | 0,211133 | 0,197506 | 0,000000 | 0,209468 | 0,192754 | 0,180243 | 0,190438
Hedgehog | 0,234486 | 0,234755 | 0,231402 | 0,258463 | 0,256850 | 0,269527 | 0,265316 | 0,254961 | 0,262531 | 0,232513 | 0,222733 | 0,223530 | 0,210627 | 0,214826 | 0,216516 | 0,205520 | 0,205620 | 0,218739 | 0,228855 | 0,221175 | 0,206901 | 0,224497 | 0,241690 | 0,233030 | 0,236035 | 0,232443 | 0,209468 | 0,000000 | 0,224932 | 0,216819 | 0,220244
Dormouse | 0,227787 | 0,222903 | 0,220573 | 0,234873 | 0,251484 | 0,244181 | 0,250945 | 0,234711 | 0,238800 | 0,233010 | 0,200964 | 0,187412 | 0,210150 | 0,197583 | 0,199586 | 0,190723 | 0,196172 | 0,189894 | 0,205081 | 0,195294 | 0,198435 | 0,206458 | 0,222940 | 0,222231 | 0,227888 | 0,219549 | 0,192754 | 0,224932 | 0,000000 | 0,189065 | 0,209160
Squirrel | 0,214080 | 0,213650 | 0,215217 | 0,223227 | 0,241871 | 0,226025 | 0,229151 | 0,226514 | 0,227828 | 0,214840 | 0,182169 | 0,193808 | 0,198842 | 0,201342 | 0,200762 | 0,193519 | 0,198758 | 0,189545 | 0,188125 | 0,198238 | 0,186174 | 0,203008 | 0,220993 | 0,213509 | 0,213780 | 0,211871 | 0,180243 | 0,216819 | 0,189065 | 0,000000 | 0,197824
Blue_Whale | 0,202706 | 0,209789 | 0,205036 | 0,211033 | 0,215688 | 0,225780 | 0,213755 | 0,217918 | 0,217992 | 0,205378 | 0,182745 | 0,174894 | 0,162502 | 0,166446 | 0,164866 | 0,163321 | 0,167843 | 0,171753 | 0,182557 | 0,181902 | 0,161267 | 0,162052 | 0,192909 | 0,192315 | 0,193044 | 0,201969 | 0,190438 | 0,220244 | 0,209160 | 0,197824 | 0,000000
