(((((Hedgehog:0.16127,(Dormouse:0.13474,Squirrel:0.12342):0.00248):0.00573,Rabbit:0.12624):0.00156,((Ver_Monkey:0.07922,(Baboon:0.07626,Macaca_Thibet:0.07478):0.00462):0.03061,(Gibbon:0.08592,((Bor_Oran:0.03361,Sum_Oran:0.03474):0.04483,(Gorilla:0.05453,(Human:0.04333,(Pig_Chim:0.02113,Com_Chim:0.02163):0.02262):0.00952):0.01907):0.00795):0.01811):0.04963):0.01119,(((Giant_Panda:0.08143,(Black_Bear:0.04630,(Brown_Bear:0.01245,Polar_Bear:0.01260):0.03487):0.03916):0.01563,(Dog:0.01422,Wolf:0.01519):0.08562):0.00644,(Cat:0.05896,(Tiger:0.04732,Leopard:0.04621):0.01554):0.03839):0.00732):0.00173,(Indian_Rhino:0.06143,White_Rhino:0.06077):0.03779,((Blue_Whale:0.10081,((Sheep:0.05334,Goat:0.05583):0.01508,(Cow:0.05717,Buffalo:0.06022):0.01133):0.02783):0.00205,Pig:0.09647):0.00745);

((Ver_Monkey:0.07922,(Baboon:0.07626,Macaca_Thibet:0.07478):0.00462):0.03061,(Gibbon:0.08592,((Bor_Oran:0.03361,Sum_Oran:0.03474):0.04483,(Gorilla:0.05453,(Human:0.04333,(Pig_Chim:0.02113,Com_Chim:0.02163):0.02262):0.00952):0.01907):0.00795):0.01811)

((Ver_Monkey:329,(Baboon:288,Macaca_Thibet:288):41), ((Bor_Oran:186,Sum_Oran:186):98,(Gibbon:272,(Human:198,((Pig_Chim:80,Com_Chim:80):79, Gorilla:162):35):73):12):54)