                           |aspNig         |debHan         |canMal         |canAlb         |canDub         |canSoj         |canTro         |canPar         |sacPas         |sacCer         
aspNig                    |  0,00000000000|  0,49043036758|  0,24826137453|  0,15598781114|  0,34581540985|  0,44616174625|  0,34581540985|  0,25286001052|  0,30283067509|  0,34581540985
debHan                    |  0,49043036758|  0,00000000000|  0,49043036758|  0,49043036758|  0,49043036758|  0,49043036758|  0,49043036758|  0,49043036758|  0,49043036758|  0,49043036758
canMal                    |  0,24826137453|  0,49043036758|  0,00000000000|  0,24826137453|  0,34581540985|  0,44616174625|  0,34581540985|  0,25286001052|  0,30283067509|  0,34581540985
canAlb                    |  0,15598781114|  0,49043036758|  0,24826137453|  0,00000000000|  0,34581540985|  0,44616174625|  0,34581540985|  0,25286001052|  0,30283067509|  0,34581540985
canDub                    |  0,34581540985|  0,49043036758|  0,34581540985|  0,34581540985|  0,00000000000|  0,44616174625|  0,02866121569|  0,34581540985|  0,34581540985|  0,26046052519
canSoj                    |  0,44616174625|  0,49043036758|  0,44616174625|  0,44616174625|  0,44616174625|  0,00000000000|  0,44616174625|  0,44616174625|  0,44616174625|  0,44616174625
canTro                    |  0,34581540985|  0,49043036758|  0,34581540985|  0,34581540985|  0,02866121569|  0,44616174625|  0,00000000000|  0,34581540985|  0,34581540985|  0,26046052519
canPar                    |  0,25286001052|  0,49043036758|  0,25286001052|  0,25286001052|  0,34581540985|  0,44616174625|  0,34581540985|  0,00000000000|  0,30283067509|  0,34581540985
sacPas                    |  0,30283067509|  0,49043036758|  0,30283067509|  0,30283067509|  0,34581540985|  0,44616174625|  0,34581540985|  0,30283067509|  0,00000000000|  0,34581540985
sacCer                    |  0,34581540985|  0,49043036758|  0,34581540985|  0,34581540985|  0,26046052519|  0,44616174625|  0,26046052519|  0,34581540985|  0,34581540985|  0,00000000000
                           |aspNig         |debHan         |canMal         |canAlb         |canDub         |canSoj         |canTro         |canPar         |sacPas         |sacCer         
aspNig                    |  0,00000000000| 11,26043642118|  8,86200728341|  7,94813470094|  9,82817738589| 10,82200229324|  9,82817738589|  8,90755193560|  9,40245880383|  9,82817738589
debHan                    | 11,26043642118|  0,00000000000| 11,26043642118| 11,26043642118| 11,26043642118| 11,26043642118| 11,26043642118| 11,26043642118| 11,26043642118| 11,26043642118
canMal                    |  8,86200728341| 11,26043642118|  0,00000000000|  8,86200728341|  9,82817738589| 10,82200229324|  9,82817738589|  8,90755193560|  9,40245880383|  9,82817738589
canAlb                    |  7,94813470094| 11,26043642118|  8,86200728341|  0,00000000000|  9,82817738589| 10,82200229324|  9,82817738589|  8,90755193560|  9,40245880383|  9,82817738589
canDub                    |  9,82817738589| 11,26043642118|  9,82817738589|  9,82817738589|  0,00000000000| 10,82200229324|  6,68709870836|  9,82817738589|  9,82817738589|  8,98282703844
canSoj                    | 10,82200229324| 11,26043642118| 10,82200229324| 10,82200229324| 10,82200229324|  0,00000000000| 10,82200229324| 10,82200229324| 10,82200229324| 10,82200229324
canTro                    |  9,82817738589| 11,26043642118|  9,82817738589|  9,82817738589|  6,68709870836| 10,82200229324|  0,00000000000|  9,82817738589|  9,82817738589|  8,98282703844
canPar                    |  8,90755193560| 11,26043642118|  8,90755193560|  8,90755193560|  9,82817738589| 10,82200229324|  9,82817738589|  0,00000000000|  9,40245880383|  9,82817738589
sacPas                    |  9,40245880383| 11,26043642118|  9,40245880383|  9,40245880383|  9,82817738589| 10,82200229324|  9,82817738589|  9,40245880383|  0,00000000000|  9,82817738589
sacCer                    |  9,82817738589| 11,26043642118|  9,82817738589|  9,82817738589|  8,98282703844| 10,82200229324|  8,98282703844|  9,82817738589|  9,82817738589|  0,00000000000
                           |aspNig         |debHan         |canMal         |canAlb         |canDub         |canSoj         |canTro         |canPar         |sacPas         |sacCer         
aspNig                    |  0,00000000000|  8,00000000000|  3,00000000000|  2,00000000000|  8,00000000000|  7,00000000000|  8,00000000000|  4,00000000000|  5,00000000000|  7,00000000000
debHan                    |  8,00000000000|  0,00000000000|  7,00000000000|  8,00000000000|  6,00000000000|  3,00000000000|  6,00000000000|  6,00000000000|  5,00000000000|  5,00000000000
canMal                    |  3,00000000000|  7,00000000000|  0,00000000000|  3,00000000000|  7,00000000000|  6,00000000000|  7,00000000000|  3,00000000000|  4,00000000000|  6,00000000000
canAlb                    |  2,00000000000|  8,00000000000|  3,00000000000|  0,00000000000|  8,00000000000|  7,00000000000|  8,00000000000|  4,00000000000|  5,00000000000|  7,00000000000
canDub                    |  8,00000000000|  6,00000000000|  7,00000000000|  8,00000000000|  0,00000000000|  5,00000000000|  2,00000000000|  6,00000000000|  5,00000000000|  3,00000000000
canSoj                    |  7,00000000000|  3,00000000000|  6,00000000000|  7,00000000000|  5,00000000000|  0,00000000000|  5,00000000000|  5,00000000000|  4,00000000000|  4,00000000000
canTro                    |  8,00000000000|  6,00000000000|  7,00000000000|  8,00000000000|  2,00000000000|  5,00000000000|  0,00000000000|  6,00000000000|  5,00000000000|  3,00000000000
canPar                    |  4,00000000000|  6,00000000000|  3,00000000000|  4,00000000000|  6,00000000000|  5,00000000000|  6,00000000000|  0,00000000000|  3,00000000000|  5,00000000000
sacPas                    |  5,00000000000|  5,00000000000|  4,00000000000|  5,00000000000|  5,00000000000|  4,00000000000|  5,00000000000|  3,00000000000|  0,00000000000|  4,00000000000
sacCer                    |  7,00000000000|  5,00000000000|  6,00000000000|  7,00000000000|  3,00000000000|  4,00000000000|  3,00000000000|  5,00000000000|  4,00000000000|  0,00000000000
