                           |aspNig         |debHan         |canMal         |canAlb         |canDub         |canSoj         |canTro         |canPar         |sacPas         |sacCer         
aspNig                    |  0,00000000000| 21,47169134318| 21,47169134318| 21,47169134318| 21,47169134318| 21,47169134318| 21,47169134318| 21,47169134318| 21,47169134318| 21,47169134318
debHan                    | 21,47169134318|  0,00000000000| 13,91017664940| 13,91017664940| 13,91017664940| 13,91017664940| 13,91017664940| 11,07767133645|  8,75032030575|  8,41487861447
canMal                    | 21,47169134318| 13,91017664940|  0,00000000000|  7,16960689424|  7,16960689424|  7,16960689424|  7,16960689424| 13,91017664940| 13,91017664940| 13,91017664940
canAlb                    | 21,47169134318| 13,91017664940|  7,16960689424|  0,00000000000|  5,58386397426|  5,58386397426|  5,29292717084| 13,91017664940| 13,91017664940| 13,91017664940
canDub                    | 21,47169134318| 13,91017664940|  7,16960689424|  5,58386397426|  0,00000000000|  5,43657508604|  5,58386397426| 13,91017664940| 13,91017664940| 13,91017664940
canSoj                    | 21,47169134318| 13,91017664940|  7,16960689424|  5,58386397426|  5,43657508604|  0,00000000000|  5,58386397426| 13,91017664940| 13,91017664940| 13,91017664940
canTro                    | 21,47169134318| 13,91017664940|  7,16960689424|  5,29292717084|  5,58386397426|  5,58386397426|  0,00000000000| 13,91017664940| 13,91017664940| 13,91017664940
canPar                    | 21,47169134318| 11,07767133645| 13,91017664940| 13,91017664940| 13,91017664940| 13,91017664940| 13,91017664940|  0,00000000000| 11,07767133645| 11,07767133645
sacPas                    | 21,47169134318|  8,75032030575| 13,91017664940| 13,91017664940| 13,91017664940| 13,91017664940| 13,91017664940| 11,07767133645|  0,00000000000|  8,75032030575
sacCer                    | 21,47169134318|  8,41487861447| 13,91017664940| 13,91017664940| 13,91017664940| 13,91017664940| 13,91017664940| 11,07767133645|  8,75032030575|  0,00000000000
                           |aspNig         |debHan         |canMal         |canAlb         |canDub         |canSoj         |canTro         |canPar         |sacPas         |sacCer         
aspNig                    |  0,00000000000| 11,60754042787| 11,60754042787| 11,60754042787| 11,60754042787| 11,60754042787| 11,60754042787| 11,60754042787| 11,60754042787| 11,60754042787
debHan                    | 11,60754042787|  0,00000000000| 10,14453927237| 10,14453927237| 10,14453927237| 10,14453927237| 10,14453927237|  9,59650640943|  9,14621074976|  9,08130952271
canMal                    | 11,60754042787| 10,14453927237|  0,00000000000|  8,84037446679|  8,84037446679|  8,84037446679|  8,84037446679| 10,14453927237| 10,14453927237| 10,14453927237
canAlb                    | 11,60754042787| 10,14453927237|  8,84037446679|  0,00000000000|  8,53356507499|  8,53356507499|  8,47727464949| 10,14453927237| 10,14453927237| 10,14453927237
canDub                    | 11,60754042787| 10,14453927237|  8,84037446679|  8,53356507499|  0,00000000000|  8,50506763468|  8,53356507499| 10,14453927237| 10,14453927237| 10,14453927237
canSoj                    | 11,60754042787| 10,14453927237|  8,84037446679|  8,53356507499|  8,50506763468|  0,00000000000|  8,53356507499| 10,14453927237| 10,14453927237| 10,14453927237
canTro                    | 11,60754042787| 10,14453927237|  8,84037446679|  8,47727464949|  8,53356507499|  8,53356507499|  0,00000000000| 10,14453927237| 10,14453927237| 10,14453927237
canPar                    | 11,60754042787|  9,59650640943| 10,14453927237| 10,14453927237| 10,14453927237| 10,14453927237| 10,14453927237|  0,00000000000|  9,59650640943|  9,59650640943
sacPas                    | 11,60754042787|  9,14621074976| 10,14453927237| 10,14453927237| 10,14453927237| 10,14453927237| 10,14453927237|  9,59650640943|  0,00000000000|  9,14621074976
sacCer                    | 11,60754042787|  9,08130952271| 10,14453927237| 10,14453927237| 10,14453927237| 10,14453927237| 10,14453927237|  9,59650640943|  9,14621074976|  0,00000000000
                           |aspNig         |debHan         |canMal         |canAlb         |canDub         |canSoj         |canTro         |canPar         |sacPas         |sacCer         
aspNig                    |  0,00000000000|  6,00000000000|  4,00000000000|  6,00000000000|  6,00000000000|  6,00000000000|  6,00000000000|  4,00000000000|  5,00000000000|  6,00000000000
debHan                    |  6,00000000000|  0,00000000000|  6,00000000000|  8,00000000000|  8,00000000000|  8,00000000000|  8,00000000000|  4,00000000000|  3,00000000000|  2,00000000000
canMal                    |  4,00000000000|  6,00000000000|  0,00000000000|  4,00000000000|  4,00000000000|  4,00000000000|  4,00000000000|  4,00000000000|  5,00000000000|  6,00000000000
canAlb                    |  6,00000000000|  8,00000000000|  4,00000000000|  0,00000000000|  4,00000000000|  4,00000000000|  2,00000000000|  6,00000000000|  7,00000000000|  8,00000000000
canDub                    |  6,00000000000|  8,00000000000|  4,00000000000|  4,00000000000|  0,00000000000|  2,00000000000|  4,00000000000|  6,00000000000|  7,00000000000|  8,00000000000
canSoj                    |  6,00000000000|  8,00000000000|  4,00000000000|  4,00000000000|  2,00000000000|  0,00000000000|  4,00000000000|  6,00000000000|  7,00000000000|  8,00000000000
canTro                    |  6,00000000000|  8,00000000000|  4,00000000000|  2,00000000000|  4,00000000000|  4,00000000000|  0,00000000000|  6,00000000000|  7,00000000000|  8,00000000000
canPar                    |  4,00000000000|  4,00000000000|  4,00000000000|  6,00000000000|  6,00000000000|  6,00000000000|  6,00000000000|  0,00000000000|  3,00000000000|  4,00000000000
sacPas                    |  5,00000000000|  3,00000000000|  5,00000000000|  7,00000000000|  7,00000000000|  7,00000000000|  7,00000000000|  3,00000000000|  0,00000000000|  3,00000000000
sacCer                    |  6,00000000000|  2,00000000000|  6,00000000000|  8,00000000000|  8,00000000000|  8,00000000000|  8,00000000000|  4,00000000000|  3,00000000000|  0,00000000000
