                           |aspNig         |debHan         |canMal         |canAlb         |canDub         |canSoj         |canTro         |canPar         |sacPas         |sacCer         
aspNig                    |  0,00000000000| 57,04263835141| 57,04263835141| 57,04263835141| 57,04263835141| 57,04263835141| 57,04263835141| 57,04263835141| 57,04263835141| 57,04263835141
debHan                    | 57,04263835141|  0,00000000000| 27,22887361698| 27,22887361698| 27,22887361698| 27,22887361698| 27,22887361698| 13,82238894487| 13,82238894487| 13,82238894487
canMal                    | 57,04263835141| 27,22887361698|  0,00000000000|  6,37262765051|  8,12402279464|  8,02204617364|  6,43869564828| 27,22887361698| 27,22887361698| 27,22887361698
canAlb                    | 57,04263835141| 27,22887361698|  6,37262765051|  0,00000000000|  8,12402279464|  8,02204617364|  6,43869564828| 27,22887361698| 27,22887361698| 27,22887361698
canDub                    | 57,04263835141| 27,22887361698|  8,12402279464|  8,12402279464|  0,00000000000|  8,12402279464|  8,12402279464| 27,22887361698| 27,22887361698| 27,22887361698
canSoj                    | 57,04263835141| 27,22887361698|  8,02204617364|  8,02204617364|  8,12402279464|  0,00000000000|  8,02204617364| 27,22887361698| 27,22887361698| 27,22887361698
canTro                    | 57,04263835141| 27,22887361698|  6,43869564828|  6,43869564828|  8,12402279464|  8,02204617364|  0,00000000000| 27,22887361698| 27,22887361698| 27,22887361698
canPar                    | 57,04263835141| 13,82238894487| 27,22887361698| 27,22887361698| 27,22887361698| 27,22887361698| 27,22887361698|  0,00000000000| 11,05933866794|  9,43818280424
sacPas                    | 57,04263835141| 13,82238894487| 27,22887361698| 27,22887361698| 27,22887361698| 27,22887361698| 27,22887361698| 11,05933866794|  0,00000000000| 11,05933866794
sacCer                    | 57,04263835141| 13,82238894487| 27,22887361698| 27,22887361698| 27,22887361698| 27,22887361698| 27,22887361698|  9,43818280424| 11,05933866794|  0,00000000000
                           |aspNig         |debHan         |canMal         |canAlb         |canDub         |canSoj         |canTro         |canPar         |sacPas         |sacCer         
aspNig                    |  0,00000000000| 11,76229409123| 11,76229409123| 11,76229409123| 11,76229409123| 11,76229409123| 11,76229409123| 11,76229409123| 11,76229409123| 11,76229409123
debHan                    | 11,76229409123|  0,00000000000| 10,02397260380| 10,02397260380| 10,02397260380| 10,02397260380| 10,02397260380|  9,24229405418|  9,24229405418|  9,24229405418
canMal                    | 11,76229409123| 10,02397260380|  0,00000000000|  8,80792824196|  8,91004509433|  8,90409924505|  8,81178040290| 10,02397260380| 10,02397260380| 10,02397260380
canAlb                    | 11,76229409123| 10,02397260380|  8,80792824196|  0,00000000000|  8,91004509433|  8,90409924505|  8,81178040290| 10,02397260380| 10,02397260380| 10,02397260380
canDub                    | 11,76229409123| 10,02397260380|  8,91004509433|  8,91004509433|  0,00000000000|  8,91004509433|  8,91004509433| 10,02397260380| 10,02397260380| 10,02397260380
canSoj                    | 11,76229409123| 10,02397260380|  8,90409924505|  8,90409924505|  8,91004509433|  0,00000000000|  8,90409924505| 10,02397260380| 10,02397260380| 10,02397260380
canTro                    | 11,76229409123| 10,02397260380|  8,81178040290|  8,81178040290|  8,91004509433|  8,90409924505|  0,00000000000| 10,02397260380| 10,02397260380| 10,02397260380
canPar                    | 11,76229409123|  9,24229405418| 10,02397260380| 10,02397260380| 10,02397260380| 10,02397260380| 10,02397260380|  0,00000000000|  9,08119163353|  8,98666851317
sacPas                    | 11,76229409123|  9,24229405418| 10,02397260380| 10,02397260380| 10,02397260380| 10,02397260380| 10,02397260380|  9,08119163353|  0,00000000000|  9,08119163353
sacCer                    | 11,76229409123|  9,24229405418| 10,02397260380| 10,02397260380| 10,02397260380| 10,02397260380| 10,02397260380|  8,98666851317|  9,08119163353|  0,00000000000
                           |aspNig         |debHan         |canMal         |canAlb         |canDub         |canSoj         |canTro         |canPar         |sacPas         |sacCer         
aspNig                    |  0,00000000000|  4,00000000000|  7,00000000000|  7,00000000000|  4,00000000000|  5,00000000000|  6,00000000000|  6,00000000000|  5,00000000000|  6,00000000000
debHan                    |  4,00000000000|  0,00000000000|  7,00000000000|  7,00000000000|  4,00000000000|  5,00000000000|  6,00000000000|  4,00000000000|  3,00000000000|  4,00000000000
canMal                    |  7,00000000000|  7,00000000000|  0,00000000000|  2,00000000000|  5,00000000000|  4,00000000000|  3,00000000000|  9,00000000000|  8,00000000000|  9,00000000000
canAlb                    |  7,00000000000|  7,00000000000|  2,00000000000|  0,00000000000|  5,00000000000|  4,00000000000|  3,00000000000|  9,00000000000|  8,00000000000|  9,00000000000
canDub                    |  4,00000000000|  4,00000000000|  5,00000000000|  5,00000000000|  0,00000000000|  3,00000000000|  4,00000000000|  6,00000000000|  5,00000000000|  6,00000000000
canSoj                    |  5,00000000000|  5,00000000000|  4,00000000000|  4,00000000000|  3,00000000000|  0,00000000000|  3,00000000000|  7,00000000000|  6,00000000000|  7,00000000000
canTro                    |  6,00000000000|  6,00000000000|  3,00000000000|  3,00000000000|  4,00000000000|  3,00000000000|  0,00000000000|  8,00000000000|  7,00000000000|  8,00000000000
canPar                    |  6,00000000000|  4,00000000000|  9,00000000000|  9,00000000000|  6,00000000000|  7,00000000000|  8,00000000000|  0,00000000000|  3,00000000000|  2,00000000000
sacPas                    |  5,00000000000|  3,00000000000|  8,00000000000|  8,00000000000|  5,00000000000|  6,00000000000|  7,00000000000|  3,00000000000|  0,00000000000|  3,00000000000
sacCer                    |  6,00000000000|  4,00000000000|  9,00000000000|  9,00000000000|  6,00000000000|  7,00000000000|  8,00000000000|  2,00000000000|  3,00000000000|  0,00000000000
