                           |aspNig         |debHan         |canMal         |canAlb         |canDub         |canSoj         |canTro         |canPar         |sacPas         |sacCer         
aspNig                    |  0,00000000000|  0,39176289685|  0,36852208234|  0,36020041079|  0,35892924602|  0,39943370017|  0,34943603505|  0,36413209696|  0,31961146278|  0,39945093489
debHan                    |  0,39176289685|  0,00000000000|  0,39176289685|  0,39176289685|  0,39176289685|  0,39943370017|  0,39176289685|  0,39176289685|  0,39176289685|  0,39945093489
canMal                    |  0,36852208234|  0,39176289685|  0,00000000000|  0,36852208234|  0,36852208234|  0,39943370017|  0,36852208234|  0,36852208234|  0,36852208234|  0,39945093489
canAlb                    |  0,36020041079|  0,39176289685|  0,36852208234|  0,00000000000|  0,36020041079|  0,39943370017|  0,36020041079|  0,36413209696|  0,36020041079|  0,39945093489
canDub                    |  0,35892924602|  0,39176289685|  0,36852208234|  0,36020041079|  0,00000000000|  0,39943370017|  0,35892924602|  0,36413209696|  0,35892924602|  0,39945093489
canSoj                    |  0,39943370017|  0,39943370017|  0,39943370017|  0,39943370017|  0,39943370017|  0,00000000000|  0,39943370017|  0,39943370017|  0,39943370017|  0,39945093489
canTro                    |  0,34943603505|  0,39176289685|  0,36852208234|  0,36020041079|  0,35892924602|  0,39943370017|  0,00000000000|  0,36413209696|  0,34943603505|  0,39945093489
canPar                    |  0,36413209696|  0,39176289685|  0,36852208234|  0,36413209696|  0,36413209696|  0,39943370017|  0,36413209696|  0,00000000000|  0,36413209696|  0,39945093489
sacPas                    |  0,31961146278|  0,39176289685|  0,36852208234|  0,36020041079|  0,35892924602|  0,39943370017|  0,34943603505|  0,36413209696|  0,00000000000|  0,39945093489
sacCer                    |  0,39945093489|  0,39945093489|  0,39945093489|  0,39945093489|  0,39945093489|  0,39945093489|  0,39945093489|  0,39945093489|  0,39945093489|  0,00000000000
                           |aspNig         |debHan         |canMal         |canAlb         |canDub         |canSoj         |canTro         |canPar         |sacPas         |sacCer         
aspNig                    |  0,00000000000| 10,58963534282|  9,42303163670|  9,00531422526|  8,94150641306| 10,97468155414|  8,46498201692|  9,20267046071|  6,96789780232| 10,97554667411
debHan                    | 10,58963534282|  0,00000000000| 10,58963534282| 10,58963534282| 10,58963534282| 10,97468155414| 10,58963534282| 10,58963534282| 10,58963534282| 10,97554667411
canMal                    |  9,42303163670| 10,58963534282|  0,00000000000|  9,42303163670|  9,42303163670| 10,97468155414|  9,42303163670|  9,42303163670|  9,42303163670| 10,97554667411
canAlb                    |  9,00531422526| 10,58963534282|  9,42303163670|  0,00000000000|  9,00531422526| 10,97468155414|  9,00531422526|  9,20267046071|  9,00531422526| 10,97554667411
canDub                    |  8,94150641306| 10,58963534282|  9,42303163670|  9,00531422526|  0,00000000000| 10,97468155414|  8,94150641306|  9,20267046071|  8,94150641306| 10,97554667411
canSoj                    | 10,97468155414| 10,97468155414| 10,97468155414| 10,97468155414| 10,97468155414|  0,00000000000| 10,97468155414| 10,97468155414| 10,97468155414| 10,97554667411
canTro                    |  8,46498201692| 10,58963534282|  9,42303163670|  9,00531422526|  8,94150641306| 10,97468155414|  0,00000000000|  9,20267046071|  8,46498201692| 10,97554667411
canPar                    |  9,20267046071| 10,58963534282|  9,42303163670|  9,20267046071|  9,20267046071| 10,97468155414|  9,20267046071|  0,00000000000|  9,20267046071| 10,97554667411
sacPas                    |  6,96789780232| 10,58963534282|  9,42303163670|  9,00531422526|  8,94150641306| 10,97468155414|  8,46498201692|  9,20267046071|  0,00000000000| 10,97554667411
sacCer                    | 10,97554667411| 10,97554667411| 10,97554667411| 10,97554667411| 10,97554667411| 10,97554667411| 10,97554667411| 10,97554667411| 10,97554667411|  0,00000000000
                           |aspNig         |debHan         |canMal         |canAlb         |canDub         |canSoj         |canTro         |canPar         |sacPas         |sacCer         
aspNig                    |  0,00000000000|  8,00000000000|  7,00000000000|  5,00000000000|  4,00000000000|  9,00000000000|  3,00000000000|  6,00000000000|  2,00000000000| 10,00000000000
debHan                    |  8,00000000000|  0,00000000000|  3,00000000000|  5,00000000000|  6,00000000000|  3,00000000000|  7,00000000000|  4,00000000000|  8,00000000000|  4,00000000000
canMal                    |  7,00000000000|  3,00000000000|  0,00000000000|  4,00000000000|  5,00000000000|  4,00000000000|  6,00000000000|  3,00000000000|  7,00000000000|  5,00000000000
canAlb                    |  5,00000000000|  5,00000000000|  4,00000000000|  0,00000000000|  3,00000000000|  6,00000000000|  4,00000000000|  3,00000000000|  5,00000000000|  7,00000000000
canDub                    |  4,00000000000|  6,00000000000|  5,00000000000|  3,00000000000|  0,00000000000|  7,00000000000|  3,00000000000|  4,00000000000|  4,00000000000|  8,00000000000
canSoj                    |  9,00000000000|  3,00000000000|  4,00000000000|  6,00000000000|  7,00000000000|  0,00000000000|  8,00000000000|  5,00000000000|  9,00000000000|  3,00000000000
canTro                    |  3,00000000000|  7,00000000000|  6,00000000000|  4,00000000000|  3,00000000000|  8,00000000000|  0,00000000000|  5,00000000000|  3,00000000000|  9,00000000000
canPar                    |  6,00000000000|  4,00000000000|  3,00000000000|  3,00000000000|  4,00000000000|  5,00000000000|  5,00000000000|  0,00000000000|  6,00000000000|  6,00000000000
sacPas                    |  2,00000000000|  8,00000000000|  7,00000000000|  5,00000000000|  4,00000000000|  9,00000000000|  3,00000000000|  6,00000000000|  0,00000000000| 10,00000000000
sacCer                    | 10,00000000000|  4,00000000000|  5,00000000000|  7,00000000000|  8,00000000000|  3,00000000000|  9,00000000000|  6,00000000000| 10,00000000000|  0,00000000000
