                           |aspNig         |debHan         |canMal         |canAlb         |canDub         |canSoj         |canTro         |canPar         |sacPas         |sacCer         
aspNig                    |  0,00000000000|  0,25719972270|  0,25564291531|  0,24935755263|  0,25157104023|  0,27337171741|  0,24192906212|  0,23432697527|  0,21031672652|  0,26724999532
debHan                    |  0,25719972270|  0,00000000000|  0,25719972270|  0,25719972270|  0,25719972270|  0,27337171741|  0,25719972270|  0,25719972270|  0,25719972270|  0,26724999532
canMal                    |  0,25564291531|  0,25719972270|  0,00000000000|  0,25564291531|  0,25564291531|  0,27337171741|  0,25564291531|  0,25564291531|  0,25564291531|  0,26724999532
canAlb                    |  0,24935755263|  0,25719972270|  0,25564291531|  0,00000000000|  0,25157104023|  0,27337171741|  0,24935755263|  0,24935755263|  0,24935755263|  0,26724999532
canDub                    |  0,25157104023|  0,25719972270|  0,25564291531|  0,25157104023|  0,00000000000|  0,27337171741|  0,25157104023|  0,25157104023|  0,25157104023|  0,26724999532
canSoj                    |  0,27337171741|  0,27337171741|  0,27337171741|  0,27337171741|  0,27337171741|  0,00000000000|  0,27337171741|  0,27337171741|  0,27337171741|  0,27337171741
canTro                    |  0,24192906212|  0,25719972270|  0,25564291531|  0,24935755263|  0,25157104023|  0,27337171741|  0,00000000000|  0,24192906212|  0,24192906212|  0,26724999532
canPar                    |  0,23432697527|  0,25719972270|  0,25564291531|  0,24935755263|  0,25157104023|  0,27337171741|  0,24192906212|  0,00000000000|  0,23432697527|  0,26724999532
sacPas                    |  0,21031672652|  0,25719972270|  0,25564291531|  0,24935755263|  0,25157104023|  0,27337171741|  0,24192906212|  0,23432697527|  0,00000000000|  0,26724999532
sacCer                    |  0,26724999532|  0,26724999532|  0,26724999532|  0,26724999532|  0,26724999532|  0,27337171741|  0,26724999532|  0,26724999532|  0,26724999532|  0,00000000000
                           |aspNig         |debHan         |canMal         |canAlb         |canDub         |canSoj         |canTro         |canPar         |sacPas         |sacCer         
aspNig                    |  0,00000000000|  9,96792203225|  9,84746868766|  9,36115742988|  9,53241945465| 11,21918206010|  8,78640005444|  8,19821117773|  6,34048953866| 10,74553200714
debHan                    |  9,96792203225|  0,00000000000|  9,96792203225|  9,96792203225|  9,96792203225| 11,21918206010|  9,96792203225|  9,96792203225|  9,96792203225| 10,74553200714
canMal                    |  9,84746868766|  9,96792203225|  0,00000000000|  9,84746868766|  9,84746868766| 11,21918206010|  9,84746868766|  9,84746868766|  9,84746868766| 10,74553200714
canAlb                    |  9,36115742988|  9,96792203225|  9,84746868766|  0,00000000000|  9,53241945465| 11,21918206010|  9,36115742988|  9,36115742988|  9,36115742988| 10,74553200714
canDub                    |  9,53241945465|  9,96792203225|  9,84746868766|  9,53241945465|  0,00000000000| 11,21918206010|  9,53241945465|  9,53241945465|  9,53241945465| 10,74553200714
canSoj                    | 11,21918206010| 11,21918206010| 11,21918206010| 11,21918206010| 11,21918206010|  0,00000000000| 11,21918206010| 11,21918206010| 11,21918206010| 11,21918206010
canTro                    |  8,78640005444|  9,96792203225|  9,84746868766|  9,36115742988|  9,53241945465| 11,21918206010|  0,00000000000|  8,78640005444|  8,78640005444| 10,74553200714
canPar                    |  8,19821117773|  9,96792203225|  9,84746868766|  9,36115742988|  9,53241945465| 11,21918206010|  8,78640005444|  0,00000000000|  8,19821117773| 10,74553200714
sacPas                    |  6,34048953866|  9,96792203225|  9,84746868766|  9,36115742988|  9,53241945465| 11,21918206010|  8,78640005444|  8,19821117773|  0,00000000000| 10,74553200714
sacCer                    | 10,74553200714| 10,74553200714| 10,74553200714| 10,74553200714| 10,74553200714| 11,21918206010| 10,74553200714| 10,74553200714| 10,74553200714|  0,00000000000
                           |aspNig         |debHan         |canMal         |canAlb         |canDub         |canSoj         |canTro         |canPar         |sacPas         |sacCer         
aspNig                    |  0,00000000000|  8,00000000000|  7,00000000000|  5,00000000000|  6,00000000000| 10,00000000000|  4,00000000000|  3,00000000000|  2,00000000000|  9,00000000000
debHan                    |  8,00000000000|  0,00000000000|  3,00000000000|  5,00000000000|  4,00000000000|  4,00000000000|  6,00000000000|  7,00000000000|  8,00000000000|  3,00000000000
canMal                    |  7,00000000000|  3,00000000000|  0,00000000000|  4,00000000000|  3,00000000000|  5,00000000000|  5,00000000000|  6,00000000000|  7,00000000000|  4,00000000000
canAlb                    |  5,00000000000|  5,00000000000|  4,00000000000|  0,00000000000|  3,00000000000|  7,00000000000|  3,00000000000|  4,00000000000|  5,00000000000|  6,00000000000
canDub                    |  6,00000000000|  4,00000000000|  3,00000000000|  3,00000000000|  0,00000000000|  6,00000000000|  4,00000000000|  5,00000000000|  6,00000000000|  5,00000000000
canSoj                    | 10,00000000000|  4,00000000000|  5,00000000000|  7,00000000000|  6,00000000000|  0,00000000000|  8,00000000000|  9,00000000000| 10,00000000000|  3,00000000000
canTro                    |  4,00000000000|  6,00000000000|  5,00000000000|  3,00000000000|  4,00000000000|  8,00000000000|  0,00000000000|  3,00000000000|  4,00000000000|  7,00000000000
canPar                    |  3,00000000000|  7,00000000000|  6,00000000000|  4,00000000000|  5,00000000000|  9,00000000000|  3,00000000000|  0,00000000000|  3,00000000000|  8,00000000000
sacPas                    |  2,00000000000|  8,00000000000|  7,00000000000|  5,00000000000|  6,00000000000| 10,00000000000|  4,00000000000|  3,00000000000|  0,00000000000|  9,00000000000
sacCer                    |  9,00000000000|  3,00000000000|  4,00000000000|  6,00000000000|  5,00000000000|  3,00000000000|  7,00000000000|  8,00000000000|  9,00000000000|  0,00000000000
