                           |aspNig         |debHan         |canMal         |canAlb         |canDub         |canSoj         |canTro         |canPar         |sacPas         |sacCer         
aspNig                    |  0,00000000000|  0,17412216687|  0,17817193123|  0,17449106178|  0,17835800341|  0,18657936719|  0,17412216687|  0,16803625379|  0,14484899414|  0,18652293891
debHan                    |  0,17412216687|  0,00000000000|  0,17817193123|  0,17449106178|  0,17835800341|  0,18657936719|  0,17261679161|  0,17412216687|  0,17412216687|  0,18652293891
canMal                    |  0,17817193123|  0,17817193123|  0,00000000000|  0,17817193123|  0,17835800341|  0,18657936719|  0,17817193123|  0,17817193123|  0,17817193123|  0,18652293891
canAlb                    |  0,17449106178|  0,17449106178|  0,17817193123|  0,00000000000|  0,17835800341|  0,18657936719|  0,17449106178|  0,17449106178|  0,17449106178|  0,18652293891
canDub                    |  0,17835800341|  0,17835800341|  0,17835800341|  0,17835800341|  0,00000000000|  0,18657936719|  0,17835800341|  0,17835800341|  0,17835800341|  0,18652293891
canSoj                    |  0,18657936719|  0,18657936719|  0,18657936719|  0,18657936719|  0,18657936719|  0,00000000000|  0,18657936719|  0,18657936719|  0,18657936719|  0,18657936719
canTro                    |  0,17412216687|  0,17261679161|  0,17817193123|  0,17449106178|  0,17835800341|  0,18657936719|  0,00000000000|  0,17412216687|  0,17412216687|  0,18652293891
canPar                    |  0,16803625379|  0,17412216687|  0,17817193123|  0,17449106178|  0,17835800341|  0,18657936719|  0,17412216687|  0,00000000000|  0,16803625379|  0,18652293891
sacPas                    |  0,14484899414|  0,17412216687|  0,17817193123|  0,17449106178|  0,17835800341|  0,18657936719|  0,17412216687|  0,16803625379|  0,00000000000|  0,18652293891
sacCer                    |  0,18652293891|  0,18652293891|  0,18652293891|  0,18652293891|  0,18652293891|  0,18657936719|  0,18652293891|  0,18652293891|  0,18652293891|  0,00000000000
                           |aspNig         |debHan         |canMal         |canAlb         |canDub         |canSoj         |canTro         |canPar         |sacPas         |sacCer         
aspNig                    |  0,00000000000|  9,35307274330|  9,87900624940|  9,40098026921|  9,90317101083| 10,97086045977|  9,35307274330|  8,56270932549|  5,55143368768| 10,96353224957
debHan                    |  9,35307274330|  0,00000000000|  9,87900624940|  9,40098026921|  9,90317101083| 10,97086045977|  9,15757314874|  9,35307274330|  9,35307274330| 10,96353224957
canMal                    |  9,87900624940|  9,87900624940|  0,00000000000|  9,87900624940|  9,90317101083| 10,97086045977|  9,87900624940|  9,87900624940|  9,87900624940| 10,96353224957
canAlb                    |  9,40098026921|  9,40098026921|  9,87900624940|  0,00000000000|  9,90317101083| 10,97086045977|  9,40098026921|  9,40098026921|  9,40098026921| 10,96353224957
canDub                    |  9,90317101083|  9,90317101083|  9,90317101083|  9,90317101083|  0,00000000000| 10,97086045977|  9,90317101083|  9,90317101083|  9,90317101083| 10,96353224957
canSoj                    | 10,97086045977| 10,97086045977| 10,97086045977| 10,97086045977| 10,97086045977|  0,00000000000| 10,97086045977| 10,97086045977| 10,97086045977| 10,97086045977
canTro                    |  9,35307274330|  9,15757314874|  9,87900624940|  9,40098026921|  9,90317101083| 10,97086045977|  0,00000000000|  9,35307274330|  9,35307274330| 10,96353224957
canPar                    |  8,56270932549|  9,35307274330|  9,87900624940|  9,40098026921|  9,90317101083| 10,97086045977|  9,35307274330|  0,00000000000|  8,56270932549| 10,96353224957
sacPas                    |  5,55143368768|  9,35307274330|  9,87900624940|  9,40098026921|  9,90317101083| 10,97086045977|  9,35307274330|  8,56270932549|  0,00000000000| 10,96353224957
sacCer                    | 10,96353224957| 10,96353224957| 10,96353224957| 10,96353224957| 10,96353224957| 10,97086045977| 10,96353224957| 10,96353224957| 10,96353224957|  0,00000000000
                           |aspNig         |debHan         |canMal         |canAlb         |canDub         |canSoj         |canTro         |canPar         |sacPas         |sacCer         
aspNig                    |  0,00000000000|  5,00000000000|  6,00000000000|  5,00000000000|  7,00000000000|  9,00000000000|  5,00000000000|  3,00000000000|  2,00000000000|  8,00000000000
debHan                    |  5,00000000000|  0,00000000000|  5,00000000000|  4,00000000000|  6,00000000000|  8,00000000000|  2,00000000000|  4,00000000000|  5,00000000000|  7,00000000000
canMal                    |  6,00000000000|  5,00000000000|  0,00000000000|  3,00000000000|  3,00000000000|  5,00000000000|  5,00000000000|  5,00000000000|  6,00000000000|  4,00000000000
canAlb                    |  5,00000000000|  4,00000000000|  3,00000000000|  0,00000000000|  4,00000000000|  6,00000000000|  4,00000000000|  4,00000000000|  5,00000000000|  5,00000000000
canDub                    |  7,00000000000|  6,00000000000|  3,00000000000|  4,00000000000|  0,00000000000|  4,00000000000|  6,00000000000|  6,00000000000|  7,00000000000|  3,00000000000
canSoj                    |  9,00000000000|  8,00000000000|  5,00000000000|  6,00000000000|  4,00000000000|  0,00000000000|  8,00000000000|  8,00000000000|  9,00000000000|  3,00000000000
canTro                    |  5,00000000000|  2,00000000000|  5,00000000000|  4,00000000000|  6,00000000000|  8,00000000000|  0,00000000000|  4,00000000000|  5,00000000000|  7,00000000000
canPar                    |  3,00000000000|  4,00000000000|  5,00000000000|  4,00000000000|  6,00000000000|  8,00000000000|  4,00000000000|  0,00000000000|  3,00000000000|  7,00000000000
sacPas                    |  2,00000000000|  5,00000000000|  6,00000000000|  5,00000000000|  7,00000000000|  9,00000000000|  5,00000000000|  3,00000000000|  0,00000000000|  8,00000000000
sacCer                    |  8,00000000000|  7,00000000000|  4,00000000000|  5,00000000000|  3,00000000000|  3,00000000000|  7,00000000000|  7,00000000000|  8,00000000000|  0,00000000000
