                           |aspNig         |debHan         |canMal         |canAlb         |canDub         |canSoj         |canTro         |canPar         |sacPas         |sacCer         
aspNig                    |  0,00000000000|9653,34806117168|9653,34806117168|9653,34806117168|9653,34806117168|9653,34806117168|9653,34806117168|9653,34806117168|9653,34806117168|9653,34806117168
debHan                    |9653,34806117168|  0,00000000000|8414,52255566183|8414,52255566183|8414,52255566183|8414,52255566183|8414,52255566183|8414,52255566183|8414,52255566183|8414,52255566183
canMal                    |9653,34806117168|8414,52255566183|  0,00000000000|4523,72262916784|4523,72262916784|4523,72262916784|4393,53920819011|5582,98608754314|7474,07185716677|7474,07185716677
canAlb                    |9653,34806117168|8414,52255566183|4523,72262916784|  0,00000000000|3308,79464588063|4406,53087567082|4523,72262916784|5582,98608754314|7474,07185716677|7474,07185716677
canDub                    |9653,34806117168|8414,52255566183|4523,72262916784|3308,79464588063|  0,00000000000|4406,53087567082|4523,72262916784|5582,98608754314|7474,07185716677|7474,07185716677
canSoj                    |9653,34806117168|8414,52255566183|4523,72262916784|4406,53087567082|4406,53087567082|  0,00000000000|4523,72262916784|5582,98608754314|7474,07185716677|7474,07185716677
canTro                    |9653,34806117168|8414,52255566183|4393,53920819011|4523,72262916784|4523,72262916784|4523,72262916784|  0,00000000000|5582,98608754314|7474,07185716677|7474,07185716677
canPar                    |9653,34806117168|8414,52255566183|5582,98608754314|5582,98608754314|5582,98608754314|5582,98608754314|5582,98608754314|  0,00000000000|7474,07185716677|7474,07185716677
sacPas                    |9653,34806117168|8414,52255566183|7474,07185716677|7474,07185716677|7474,07185716677|7474,07185716677|7474,07185716677|7474,07185716677|  0,00000000000|5260,06466639504
sacCer                    |9653,34806117168|8414,52255566183|7474,07185716677|7474,07185716677|7474,07185716677|7474,07185716677|7474,07185716677|7474,07185716677|5260,06466639504|  0,00000000000
                           |aspNig         |debHan         |canMal         |canAlb         |canDub         |canSoj         |canTro         |canPar         |sacPas         |sacCer         
aspNig                    |  0,00000000000| 11,31903201433| 11,31903201433| 11,31903201433| 11,31903201433| 11,31903201433| 11,31903201433| 11,31903201433| 11,31903201433| 11,31903201433
debHan                    | 11,31903201433|  0,00000000000| 10,67221210998| 10,67221210998| 10,67221210998| 10,67221210998| 10,67221210998| 10,67221210998| 10,67221210998| 10,67221210998
canMal                    | 11,31903201433| 10,67221210998|  0,00000000000|  8,64073404863|  8,64073404863|  8,64073404863|  8,57276222569|  9,19380038911| 10,18118070311| 10,18118070311
canAlb                    | 11,31903201433| 10,67221210998|  8,64073404863|  0,00000000000|  8,00639160214|  8,57954548054|  8,64073404863|  9,19380038911| 10,18118070311| 10,18118070311
canDub                    | 11,31903201433| 10,67221210998|  8,64073404863|  8,00639160214|  0,00000000000|  8,57954548054|  8,64073404863|  9,19380038911| 10,18118070311| 10,18118070311
canSoj                    | 11,31903201433| 10,67221210998|  8,64073404863|  8,57954548054|  8,57954548054|  0,00000000000|  8,64073404863|  9,19380038911| 10,18118070311| 10,18118070311
canTro                    | 11,31903201433| 10,67221210998|  8,57276222569|  8,64073404863|  8,64073404863|  8,64073404863|  0,00000000000|  9,19380038911| 10,18118070311| 10,18118070311
canPar                    | 11,31903201433| 10,67221210998|  9,19380038911|  9,19380038911|  9,19380038911|  9,19380038911|  9,19380038911|  0,00000000000| 10,18118070311| 10,18118070311
sacPas                    | 11,31903201433| 10,67221210998| 10,18118070311| 10,18118070311| 10,18118070311| 10,18118070311| 10,18118070311| 10,18118070311|  0,00000000000|  9,02519552764
sacCer                    | 11,31903201433| 10,67221210998| 10,18118070311| 10,18118070311| 10,18118070311| 10,18118070311| 10,18118070311| 10,18118070311|  9,02519552764|  0,00000000000
                           |aspNig         |debHan         |canMal         |canAlb         |canDub         |canSoj         |canTro         |canPar         |sacPas         |sacCer         
aspNig                    |  0,00000000000|  3,00000000000|  7,00000000000|  8,00000000000|  8,00000000000|  7,00000000000|  7,00000000000|  5,00000000000|  5,00000000000|  5,00000000000
debHan                    |  3,00000000000|  0,00000000000|  6,00000000000|  7,00000000000|  7,00000000000|  6,00000000000|  6,00000000000|  4,00000000000|  4,00000000000|  4,00000000000
canMal                    |  7,00000000000|  6,00000000000|  0,00000000000|  5,00000000000|  5,00000000000|  4,00000000000|  2,00000000000|  4,00000000000|  6,00000000000|  6,00000000000
canAlb                    |  8,00000000000|  7,00000000000|  5,00000000000|  0,00000000000|  2,00000000000|  3,00000000000|  5,00000000000|  5,00000000000|  7,00000000000|  7,00000000000
canDub                    |  8,00000000000|  7,00000000000|  5,00000000000|  2,00000000000|  0,00000000000|  3,00000000000|  5,00000000000|  5,00000000000|  7,00000000000|  7,00000000000
canSoj                    |  7,00000000000|  6,00000000000|  4,00000000000|  3,00000000000|  3,00000000000|  0,00000000000|  4,00000000000|  4,00000000000|  6,00000000000|  6,00000000000
canTro                    |  7,00000000000|  6,00000000000|  2,00000000000|  5,00000000000|  5,00000000000|  4,00000000000|  0,00000000000|  4,00000000000|  6,00000000000|  6,00000000000
canPar                    |  5,00000000000|  4,00000000000|  4,00000000000|  5,00000000000|  5,00000000000|  4,00000000000|  4,00000000000|  0,00000000000|  4,00000000000|  4,00000000000
sacPas                    |  5,00000000000|  4,00000000000|  6,00000000000|  7,00000000000|  7,00000000000|  6,00000000000|  6,00000000000|  4,00000000000|  0,00000000000|  2,00000000000
sacCer                    |  5,00000000000|  4,00000000000|  6,00000000000|  7,00000000000|  7,00000000000|  6,00000000000|  6,00000000000|  4,00000000000|  2,00000000000|  0,00000000000
