                           |aspNig         |debHan         |canMal         |canAlb         |canDub         |canSoj         |canTro         |canPar         |sacPas         |sacCer         
aspNig                    |  0,00000000000|6802,20324736331|6802,20324736331|6802,20324736331|6802,20324736331|6802,20324736331|6802,20324736331|6802,20324736331|6802,20324736331|6802,20324736331
debHan                    |6802,20324736331|  0,00000000000|3771,44836579789|3771,44836579789|3771,44836579789|3771,44836579789|3771,44836579789|3771,44836579789|3771,44836579789|3771,44836579789
canMal                    |6802,20324736331|3771,44836579789|  0,00000000000|2220,16621384265|2220,16621384265|2220,16621384265|2220,16621384265|2389,84577900902|2989,31041690177|2989,31041690177
canAlb                    |6802,20324736331|3771,44836579789|2220,16621384265|  0,00000000000|1747,84815311043|1532,76555715572|1532,76555715572|2389,84577900902|2989,31041690177|2989,31041690177
canDub                    |6802,20324736331|3771,44836579789|2220,16621384265|1747,84815311043|  0,00000000000|1747,84815311043|1747,84815311043|2389,84577900902|2989,31041690177|2989,31041690177
canSoj                    |6802,20324736331|3771,44836579789|2220,16621384265|1532,76555715572|1747,84815311043|  0,00000000000|1498,62252547198|2389,84577900902|2989,31041690177|2989,31041690177
canTro                    |6802,20324736331|3771,44836579789|2220,16621384265|1532,76555715572|1747,84815311043|1498,62252547198|  0,00000000000|2389,84577900902|2989,31041690177|2989,31041690177
canPar                    |6802,20324736331|3771,44836579789|2389,84577900902|2389,84577900902|2389,84577900902|2389,84577900902|2389,84577900902|  0,00000000000|2989,31041690177|2989,31041690177
sacPas                    |6802,20324736331|3771,44836579789|2989,31041690177|2989,31041690177|2989,31041690177|2989,31041690177|2989,31041690177|2989,31041690177|  0,00000000000|1149,33026816087
sacCer                    |6802,20324736331|3771,44836579789|2989,31041690177|2989,31041690177|2989,31041690177|2989,31041690177|2989,31041690177|2989,31041690177|1149,33026816087|  0,00000000000
                           |aspNig         |debHan         |canMal         |canAlb         |canDub         |canSoj         |canTro         |canPar         |sacPas         |sacCer         
aspNig                    |  0,00000000000| 11,84604957074| 11,84604957074| 11,84604957074| 11,84604957074| 11,84604957074| 11,84604957074| 11,84604957074| 11,84604957074| 11,84604957074
debHan                    | 11,84604957074|  0,00000000000| 10,13388949621| 10,13388949621| 10,13388949621| 10,13388949621| 10,13388949621| 10,13388949621| 10,13388949621| 10,13388949621
canMal                    | 11,84604957074| 10,13388949621|  0,00000000000|  9,25752586117|  9,25752586117|  9,25752586117|  9,25752586117|  9,35338269826|  9,69203740945|  9,69203740945
canAlb                    | 11,84604957074| 10,13388949621|  9,25752586117|  0,00000000000|  8,99069988624|  8,86919357909|  8,86919357909|  9,35338269826|  9,69203740945|  9,69203740945
canDub                    | 11,84604957074| 10,13388949621|  9,25752586117|  8,99069988624|  0,00000000000|  8,99069988624|  8,99069988624|  9,35338269826|  9,69203740945|  9,69203740945
canSoj                    | 11,84604957074| 10,13388949621|  9,25752586117|  8,86919357909|  8,99069988624|  0,00000000000|  8,84990520443|  9,35338269826|  9,69203740945|  9,69203740945
canTro                    | 11,84604957074| 10,13388949621|  9,25752586117|  8,86919357909|  8,99069988624|  8,84990520443|  0,00000000000|  9,35338269826|  9,69203740945|  9,69203740945
canPar                    | 11,84604957074| 10,13388949621|  9,35338269826|  9,35338269826|  9,35338269826|  9,35338269826|  9,35338269826|  0,00000000000|  9,69203740945|  9,69203740945
sacPas                    | 11,84604957074| 10,13388949621|  9,69203740945|  9,69203740945|  9,69203740945|  9,69203740945|  9,69203740945|  9,69203740945|  0,00000000000|  8,65258002285
sacCer                    | 11,84604957074| 10,13388949621|  9,69203740945|  9,69203740945|  9,69203740945|  9,69203740945|  9,69203740945|  9,69203740945|  8,65258002285|  0,00000000000
                           |aspNig         |debHan         |canMal         |canAlb         |canDub         |canSoj         |canTro         |canPar         |sacPas         |sacCer         
aspNig                    |  0,00000000000|  3,00000000000|  6,00000000000|  8,00000000000|  7,00000000000|  9,00000000000|  9,00000000000|  5,00000000000|  5,00000000000|  5,00000000000
debHan                    |  3,00000000000|  0,00000000000|  5,00000000000|  7,00000000000|  6,00000000000|  8,00000000000|  8,00000000000|  4,00000000000|  4,00000000000|  4,00000000000
canMal                    |  6,00000000000|  5,00000000000|  0,00000000000|  4,00000000000|  3,00000000000|  5,00000000000|  5,00000000000|  3,00000000000|  5,00000000000|  5,00000000000
canAlb                    |  8,00000000000|  7,00000000000|  4,00000000000|  0,00000000000|  3,00000000000|  3,00000000000|  3,00000000000|  5,00000000000|  7,00000000000|  7,00000000000
canDub                    |  7,00000000000|  6,00000000000|  3,00000000000|  3,00000000000|  0,00000000000|  4,00000000000|  4,00000000000|  4,00000000000|  6,00000000000|  6,00000000000
canSoj                    |  9,00000000000|  8,00000000000|  5,00000000000|  3,00000000000|  4,00000000000|  0,00000000000|  2,00000000000|  6,00000000000|  8,00000000000|  8,00000000000
canTro                    |  9,00000000000|  8,00000000000|  5,00000000000|  3,00000000000|  4,00000000000|  2,00000000000|  0,00000000000|  6,00000000000|  8,00000000000|  8,00000000000
canPar                    |  5,00000000000|  4,00000000000|  3,00000000000|  5,00000000000|  4,00000000000|  6,00000000000|  6,00000000000|  0,00000000000|  4,00000000000|  4,00000000000
sacPas                    |  5,00000000000|  4,00000000000|  5,00000000000|  7,00000000000|  6,00000000000|  8,00000000000|  8,00000000000|  4,00000000000|  0,00000000000|  2,00000000000
sacCer                    |  5,00000000000|  4,00000000000|  5,00000000000|  7,00000000000|  6,00000000000|  8,00000000000|  8,00000000000|  4,00000000000|  2,00000000000|  0,00000000000
